<?xml version="1.0" encoding="utf-8" standalone="no"?>
<!DOCTYPE svg PUBLIC "-//W3C//DTD SVG 1.1//EN"
  "http://www.w3.org/Graphics/SVG/1.1/DTD/svg11.dtd">
<svg xmlns:xlink="http://www.w3.org/1999/xlink" width="864pt" height="864pt" viewBox="0 0 864 864" xmlns="http://www.w3.org/2000/svg" version="1.1">
 <metadata>
  <rdf:RDF xmlns:dc="http://purl.org/dc/elements/1.1/" xmlns:cc="http://creativecommons.org/ns#" xmlns:rdf="http://www.w3.org/1999/02/22-rdf-syntax-ns#">
   <cc:Work>
    <dc:type rdf:resource="http://purl.org/dc/dcmitype/StillImage"/>
    <dc:date>2022-10-19T21:32:21.649774</dc:date>
    <dc:format>image/svg+xml</dc:format>
    <dc:creator>
     <cc:Agent>
      <dc:title>Matplotlib v3.6.0, https://matplotlib.org/</dc:title>
     </cc:Agent>
    </dc:creator>
   </cc:Work>
  </rdf:RDF>
 </metadata>
 <defs>
  <style type="text/css">*{stroke-linejoin: round; stroke-linecap: butt}</style>
 </defs>
 <g id="figure_1">
  <g id="patch_1">
   <path d="M 0 864 
L 864 864 
L 864 0 
L 0 0 
z
" style="fill: #ffffff"/>
  </g>
  <g id="axes_1">
   <g id="patch_2">
    <path d="M 155.52 768.96 
L 777.6 768.96 
L 777.6 103.68 
L 155.52 103.68 
z
" style="fill: #ffffff"/>
   </g>
   <g id="matplotlib.axis_1">
    <g id="xtick_1">
     <g id="line2d_1">
      <path d="M 254.082668 768.96 
L 254.082668 103.68 
" clip-path="url(#pee8704e3be)" style="fill: none; stroke: #cccccc; stroke-linecap: round"/>
     </g>
     <g id="text_1">
      <!-- 0 -->
      <g style="fill: #262626" transform="translate(244.907121 802.080781) scale(0.33 -0.33)">
       <defs>
        <path id="ArialMT-30" d="M 266 2259 
Q 266 3072 433 3567 
Q 600 4063 929 4331 
Q 1259 4600 1759 4600 
Q 2128 4600 2406 4451 
Q 2684 4303 2865 4023 
Q 3047 3744 3150 3342 
Q 3253 2941 3253 2259 
Q 3253 1453 3087 958 
Q 2922 463 2592 192 
Q 2263 -78 1759 -78 
Q 1097 -78 719 397 
Q 266 969 266 2259 
z
M 844 2259 
Q 844 1131 1108 757 
Q 1372 384 1759 384 
Q 2147 384 2411 759 
Q 2675 1134 2675 2259 
Q 2675 3391 2411 3762 
Q 2147 4134 1753 4134 
Q 1366 4134 1134 3806 
Q 844 3388 844 2259 
z
" transform="scale(0.015625)"/>
       </defs>
       <use xlink:href="#ArialMT-30"/>
      </g>
     </g>
    </g>
    <g id="xtick_2">
     <g id="line2d_2">
      <path d="M 364.707719 768.96 
L 364.707719 103.68 
" clip-path="url(#pee8704e3be)" style="fill: none; stroke: #cccccc; stroke-linecap: round"/>
     </g>
     <g id="text_2">
      <!-- 25 -->
      <g style="fill: #262626" transform="translate(346.356625 802.080781) scale(0.33 -0.33)">
       <defs>
        <path id="ArialMT-32" d="M 3222 541 
L 3222 0 
L 194 0 
Q 188 203 259 391 
Q 375 700 629 1000 
Q 884 1300 1366 1694 
Q 2113 2306 2375 2664 
Q 2638 3022 2638 3341 
Q 2638 3675 2398 3904 
Q 2159 4134 1775 4134 
Q 1369 4134 1125 3890 
Q 881 3647 878 3216 
L 300 3275 
Q 359 3922 746 4261 
Q 1134 4600 1788 4600 
Q 2447 4600 2831 4234 
Q 3216 3869 3216 3328 
Q 3216 3053 3103 2787 
Q 2991 2522 2730 2228 
Q 2469 1934 1863 1422 
Q 1356 997 1212 845 
Q 1069 694 975 541 
L 3222 541 
z
" transform="scale(0.015625)"/>
        <path id="ArialMT-35" d="M 266 1200 
L 856 1250 
Q 922 819 1161 601 
Q 1400 384 1738 384 
Q 2144 384 2425 690 
Q 2706 997 2706 1503 
Q 2706 1984 2436 2262 
Q 2166 2541 1728 2541 
Q 1456 2541 1237 2417 
Q 1019 2294 894 2097 
L 366 2166 
L 809 4519 
L 3088 4519 
L 3088 3981 
L 1259 3981 
L 1013 2750 
Q 1425 3038 1878 3038 
Q 2478 3038 2890 2622 
Q 3303 2206 3303 1553 
Q 3303 931 2941 478 
Q 2500 -78 1738 -78 
Q 1113 -78 717 272 
Q 322 622 266 1200 
z
" transform="scale(0.015625)"/>
       </defs>
       <use xlink:href="#ArialMT-32"/>
       <use xlink:href="#ArialMT-35" x="55.615234"/>
      </g>
     </g>
    </g>
    <g id="xtick_3">
     <g id="line2d_3">
      <path d="M 475.33277 768.96 
L 475.33277 103.68 
" clip-path="url(#pee8704e3be)" style="fill: none; stroke: #cccccc; stroke-linecap: round"/>
     </g>
     <g id="text_3">
      <!-- 50 -->
      <g style="fill: #262626" transform="translate(456.981677 802.080781) scale(0.33 -0.33)">
       <use xlink:href="#ArialMT-35"/>
       <use xlink:href="#ArialMT-30" x="55.615234"/>
      </g>
     </g>
    </g>
    <g id="xtick_4">
     <g id="line2d_4">
      <path d="M 585.957822 768.96 
L 585.957822 103.68 
" clip-path="url(#pee8704e3be)" style="fill: none; stroke: #cccccc; stroke-linecap: round"/>
     </g>
     <g id="text_4">
      <!-- 75 -->
      <g style="fill: #262626" transform="translate(567.606728 802.080781) scale(0.33 -0.33)">
       <defs>
        <path id="ArialMT-37" d="M 303 3981 
L 303 4522 
L 3269 4522 
L 3269 4084 
Q 2831 3619 2401 2847 
Q 1972 2075 1738 1259 
Q 1569 684 1522 0 
L 944 0 
Q 953 541 1156 1306 
Q 1359 2072 1739 2783 
Q 2119 3494 2547 3981 
L 303 3981 
z
" transform="scale(0.015625)"/>
       </defs>
       <use xlink:href="#ArialMT-37"/>
       <use xlink:href="#ArialMT-35" x="55.615234"/>
      </g>
     </g>
    </g>
    <g id="xtick_5">
     <g id="line2d_5">
      <path d="M 696.582873 768.96 
L 696.582873 103.68 
" clip-path="url(#pee8704e3be)" style="fill: none; stroke: #cccccc; stroke-linecap: round"/>
     </g>
     <g id="text_5">
      <!-- 100 -->
      <g style="fill: #262626" transform="translate(669.056232 802.080781) scale(0.33 -0.33)">
       <defs>
        <path id="ArialMT-31" d="M 2384 0 
L 1822 0 
L 1822 3584 
Q 1619 3391 1289 3197 
Q 959 3003 697 2906 
L 697 3450 
Q 1169 3672 1522 3987 
Q 1875 4303 2022 4600 
L 2384 4600 
L 2384 0 
z
" transform="scale(0.015625)"/>
       </defs>
       <use xlink:href="#ArialMT-31"/>
       <use xlink:href="#ArialMT-30" x="55.615234"/>
       <use xlink:href="#ArialMT-30" x="111.230469"/>
      </g>
     </g>
    </g>
    <g id="text_6">
     <!-- Interface plDDT -->
     <g style="fill: #262626" transform="translate(340.523437 838.846406) scale(0.36 -0.36)">
      <defs>
       <path id="ArialMT-49" d="M 597 0 
L 597 4581 
L 1203 4581 
L 1203 0 
L 597 0 
z
" transform="scale(0.015625)"/>
       <path id="ArialMT-6e" d="M 422 0 
L 422 3319 
L 928 3319 
L 928 2847 
Q 1294 3394 1984 3394 
Q 2284 3394 2536 3286 
Q 2788 3178 2913 3003 
Q 3038 2828 3088 2588 
Q 3119 2431 3119 2041 
L 3119 0 
L 2556 0 
L 2556 2019 
Q 2556 2363 2490 2533 
Q 2425 2703 2258 2804 
Q 2091 2906 1866 2906 
Q 1506 2906 1245 2678 
Q 984 2450 984 1813 
L 984 0 
L 422 0 
z
" transform="scale(0.015625)"/>
       <path id="ArialMT-74" d="M 1650 503 
L 1731 6 
Q 1494 -44 1306 -44 
Q 1000 -44 831 53 
Q 663 150 594 308 
Q 525 466 525 972 
L 525 2881 
L 113 2881 
L 113 3319 
L 525 3319 
L 525 4141 
L 1084 4478 
L 1084 3319 
L 1650 3319 
L 1650 2881 
L 1084 2881 
L 1084 941 
Q 1084 700 1114 631 
Q 1144 563 1211 522 
Q 1278 481 1403 481 
Q 1497 481 1650 503 
z
" transform="scale(0.015625)"/>
       <path id="ArialMT-65" d="M 2694 1069 
L 3275 997 
Q 3138 488 2766 206 
Q 2394 -75 1816 -75 
Q 1088 -75 661 373 
Q 234 822 234 1631 
Q 234 2469 665 2931 
Q 1097 3394 1784 3394 
Q 2450 3394 2872 2941 
Q 3294 2488 3294 1666 
Q 3294 1616 3291 1516 
L 816 1516 
Q 847 969 1125 678 
Q 1403 388 1819 388 
Q 2128 388 2347 550 
Q 2566 713 2694 1069 
z
M 847 1978 
L 2700 1978 
Q 2663 2397 2488 2606 
Q 2219 2931 1791 2931 
Q 1403 2931 1139 2672 
Q 875 2413 847 1978 
z
" transform="scale(0.015625)"/>
       <path id="ArialMT-72" d="M 416 0 
L 416 3319 
L 922 3319 
L 922 2816 
Q 1116 3169 1280 3281 
Q 1444 3394 1641 3394 
Q 1925 3394 2219 3213 
L 2025 2691 
Q 1819 2813 1613 2813 
Q 1428 2813 1281 2702 
Q 1134 2591 1072 2394 
Q 978 2094 978 1738 
L 978 0 
L 416 0 
z
" transform="scale(0.015625)"/>
       <path id="ArialMT-66" d="M 556 0 
L 556 2881 
L 59 2881 
L 59 3319 
L 556 3319 
L 556 3672 
Q 556 4006 616 4169 
Q 697 4388 901 4523 
Q 1106 4659 1475 4659 
Q 1713 4659 2000 4603 
L 1916 4113 
Q 1741 4144 1584 4144 
Q 1328 4144 1222 4034 
Q 1116 3925 1116 3625 
L 1116 3319 
L 1763 3319 
L 1763 2881 
L 1116 2881 
L 1116 0 
L 556 0 
z
" transform="scale(0.015625)"/>
       <path id="ArialMT-61" d="M 2588 409 
Q 2275 144 1986 34 
Q 1697 -75 1366 -75 
Q 819 -75 525 192 
Q 231 459 231 875 
Q 231 1119 342 1320 
Q 453 1522 633 1644 
Q 813 1766 1038 1828 
Q 1203 1872 1538 1913 
Q 2219 1994 2541 2106 
Q 2544 2222 2544 2253 
Q 2544 2597 2384 2738 
Q 2169 2928 1744 2928 
Q 1347 2928 1158 2789 
Q 969 2650 878 2297 
L 328 2372 
Q 403 2725 575 2942 
Q 747 3159 1072 3276 
Q 1397 3394 1825 3394 
Q 2250 3394 2515 3294 
Q 2781 3194 2906 3042 
Q 3031 2891 3081 2659 
Q 3109 2516 3109 2141 
L 3109 1391 
Q 3109 606 3145 398 
Q 3181 191 3288 0 
L 2700 0 
Q 2613 175 2588 409 
z
M 2541 1666 
Q 2234 1541 1622 1453 
Q 1275 1403 1131 1340 
Q 988 1278 909 1158 
Q 831 1038 831 891 
Q 831 666 1001 516 
Q 1172 366 1500 366 
Q 1825 366 2078 508 
Q 2331 650 2450 897 
Q 2541 1088 2541 1459 
L 2541 1666 
z
" transform="scale(0.015625)"/>
       <path id="ArialMT-63" d="M 2588 1216 
L 3141 1144 
Q 3050 572 2676 248 
Q 2303 -75 1759 -75 
Q 1078 -75 664 370 
Q 250 816 250 1647 
Q 250 2184 428 2587 
Q 606 2991 970 3192 
Q 1334 3394 1763 3394 
Q 2303 3394 2647 3120 
Q 2991 2847 3088 2344 
L 2541 2259 
Q 2463 2594 2264 2762 
Q 2066 2931 1784 2931 
Q 1359 2931 1093 2626 
Q 828 2322 828 1663 
Q 828 994 1084 691 
Q 1341 388 1753 388 
Q 2084 388 2306 591 
Q 2528 794 2588 1216 
z
" transform="scale(0.015625)"/>
       <path id="ArialMT-20" transform="scale(0.015625)"/>
       <path id="ArialMT-70" d="M 422 -1272 
L 422 3319 
L 934 3319 
L 934 2888 
Q 1116 3141 1344 3267 
Q 1572 3394 1897 3394 
Q 2322 3394 2647 3175 
Q 2972 2956 3137 2557 
Q 3303 2159 3303 1684 
Q 3303 1175 3120 767 
Q 2938 359 2589 142 
Q 2241 -75 1856 -75 
Q 1575 -75 1351 44 
Q 1128 163 984 344 
L 984 -1272 
L 422 -1272 
z
M 931 1641 
Q 931 1000 1190 694 
Q 1450 388 1819 388 
Q 2194 388 2461 705 
Q 2728 1022 2728 1688 
Q 2728 2322 2467 2637 
Q 2206 2953 1844 2953 
Q 1484 2953 1207 2617 
Q 931 2281 931 1641 
z
" transform="scale(0.015625)"/>
       <path id="ArialMT-6c" d="M 409 0 
L 409 4581 
L 972 4581 
L 972 0 
L 409 0 
z
" transform="scale(0.015625)"/>
       <path id="ArialMT-44" d="M 494 0 
L 494 4581 
L 2072 4581 
Q 2606 4581 2888 4516 
Q 3281 4425 3559 4188 
Q 3922 3881 4101 3404 
Q 4281 2928 4281 2316 
Q 4281 1794 4159 1391 
Q 4038 988 3847 723 
Q 3656 459 3429 307 
Q 3203 156 2883 78 
Q 2563 0 2147 0 
L 494 0 
z
M 1100 541 
L 2078 541 
Q 2531 541 2789 625 
Q 3047 709 3200 863 
Q 3416 1078 3536 1442 
Q 3656 1806 3656 2325 
Q 3656 3044 3420 3430 
Q 3184 3816 2847 3947 
Q 2603 4041 2063 4041 
L 1100 4041 
L 1100 541 
z
" transform="scale(0.015625)"/>
       <path id="ArialMT-54" d="M 1659 0 
L 1659 4041 
L 150 4041 
L 150 4581 
L 3781 4581 
L 3781 4041 
L 2266 4041 
L 2266 0 
L 1659 0 
z
" transform="scale(0.015625)"/>
      </defs>
      <use xlink:href="#ArialMT-49"/>
      <use xlink:href="#ArialMT-6e" x="27.783203"/>
      <use xlink:href="#ArialMT-74" x="83.398438"/>
      <use xlink:href="#ArialMT-65" x="111.181641"/>
      <use xlink:href="#ArialMT-72" x="166.796875"/>
      <use xlink:href="#ArialMT-66" x="200.097656"/>
      <use xlink:href="#ArialMT-61" x="227.880859"/>
      <use xlink:href="#ArialMT-63" x="283.496094"/>
      <use xlink:href="#ArialMT-65" x="333.496094"/>
      <use xlink:href="#ArialMT-20" x="389.111328"/>
      <use xlink:href="#ArialMT-70" x="416.894531"/>
      <use xlink:href="#ArialMT-6c" x="472.509766"/>
      <use xlink:href="#ArialMT-44" x="494.726562"/>
      <use xlink:href="#ArialMT-44" x="566.943359"/>
      <use xlink:href="#ArialMT-54" x="639.160156"/>
     </g>
    </g>
   </g>
   <g id="matplotlib.axis_2">
    <g id="ytick_1">
     <g id="line2d_6">
      <path d="M 155.52 768.96 
L 777.6 768.96 
" clip-path="url(#pee8704e3be)" style="fill: none; stroke: #cccccc; stroke-linecap: round"/>
     </g>
     <g id="text_7">
      <!-- 0.00 -->
      <g style="fill: #262626" transform="translate(81.798906 780.770391) scale(0.33 -0.33)">
       <defs>
        <path id="ArialMT-2e" d="M 581 0 
L 581 641 
L 1222 641 
L 1222 0 
L 581 0 
z
" transform="scale(0.015625)"/>
       </defs>
       <use xlink:href="#ArialMT-30"/>
       <use xlink:href="#ArialMT-2e" x="55.615234"/>
       <use xlink:href="#ArialMT-30" x="83.398438"/>
       <use xlink:href="#ArialMT-30" x="139.013672"/>
      </g>
     </g>
    </g>
    <g id="ytick_2">
     <g id="line2d_7">
      <path d="M 155.52 635.904 
L 777.6 635.904 
" clip-path="url(#pee8704e3be)" style="fill: none; stroke: #cccccc; stroke-linecap: round"/>
     </g>
     <g id="text_8">
      <!-- 0.01 -->
      <g style="fill: #262626" transform="translate(81.798906 647.714391) scale(0.33 -0.33)">
       <use xlink:href="#ArialMT-30"/>
       <use xlink:href="#ArialMT-2e" x="55.615234"/>
       <use xlink:href="#ArialMT-30" x="83.398438"/>
       <use xlink:href="#ArialMT-31" x="139.013672"/>
      </g>
     </g>
    </g>
    <g id="ytick_3">
     <g id="line2d_8">
      <path d="M 155.52 502.848 
L 777.6 502.848 
" clip-path="url(#pee8704e3be)" style="fill: none; stroke: #cccccc; stroke-linecap: round"/>
     </g>
     <g id="text_9">
      <!-- 0.02 -->
      <g style="fill: #262626" transform="translate(81.798906 514.658391) scale(0.33 -0.33)">
       <use xlink:href="#ArialMT-30"/>
       <use xlink:href="#ArialMT-2e" x="55.615234"/>
       <use xlink:href="#ArialMT-30" x="83.398438"/>
       <use xlink:href="#ArialMT-32" x="139.013672"/>
      </g>
     </g>
    </g>
    <g id="ytick_4">
     <g id="line2d_9">
      <path d="M 155.52 369.792 
L 777.6 369.792 
" clip-path="url(#pee8704e3be)" style="fill: none; stroke: #cccccc; stroke-linecap: round"/>
     </g>
     <g id="text_10">
      <!-- 0.03 -->
      <g style="fill: #262626" transform="translate(81.798906 381.602391) scale(0.33 -0.33)">
       <defs>
        <path id="ArialMT-33" d="M 269 1209 
L 831 1284 
Q 928 806 1161 595 
Q 1394 384 1728 384 
Q 2125 384 2398 659 
Q 2672 934 2672 1341 
Q 2672 1728 2419 1979 
Q 2166 2231 1775 2231 
Q 1616 2231 1378 2169 
L 1441 2663 
Q 1497 2656 1531 2656 
Q 1891 2656 2178 2843 
Q 2466 3031 2466 3422 
Q 2466 3731 2256 3934 
Q 2047 4138 1716 4138 
Q 1388 4138 1169 3931 
Q 950 3725 888 3313 
L 325 3413 
Q 428 3978 793 4289 
Q 1159 4600 1703 4600 
Q 2078 4600 2393 4439 
Q 2709 4278 2876 4000 
Q 3044 3722 3044 3409 
Q 3044 3113 2884 2869 
Q 2725 2625 2413 2481 
Q 2819 2388 3044 2092 
Q 3269 1797 3269 1353 
Q 3269 753 2831 336 
Q 2394 -81 1725 -81 
Q 1122 -81 723 278 
Q 325 638 269 1209 
z
" transform="scale(0.015625)"/>
       </defs>
       <use xlink:href="#ArialMT-30"/>
       <use xlink:href="#ArialMT-2e" x="55.615234"/>
       <use xlink:href="#ArialMT-30" x="83.398438"/>
       <use xlink:href="#ArialMT-33" x="139.013672"/>
      </g>
     </g>
    </g>
    <g id="ytick_5">
     <g id="line2d_10">
      <path d="M 155.52 236.736 
L 777.6 236.736 
" clip-path="url(#pee8704e3be)" style="fill: none; stroke: #cccccc; stroke-linecap: round"/>
     </g>
     <g id="text_11">
      <!-- 0.04 -->
      <g style="fill: #262626" transform="translate(81.798906 248.546391) scale(0.33 -0.33)">
       <defs>
        <path id="ArialMT-34" d="M 2069 0 
L 2069 1097 
L 81 1097 
L 81 1613 
L 2172 4581 
L 2631 4581 
L 2631 1613 
L 3250 1613 
L 3250 1097 
L 2631 1097 
L 2631 0 
L 2069 0 
z
M 2069 1613 
L 2069 3678 
L 634 1613 
L 2069 1613 
z
" transform="scale(0.015625)"/>
       </defs>
       <use xlink:href="#ArialMT-30"/>
       <use xlink:href="#ArialMT-2e" x="55.615234"/>
       <use xlink:href="#ArialMT-30" x="83.398438"/>
       <use xlink:href="#ArialMT-34" x="139.013672"/>
      </g>
     </g>
    </g>
    <g id="ytick_6">
     <g id="line2d_11">
      <path d="M 155.52 103.68 
L 777.6 103.68 
" clip-path="url(#pee8704e3be)" style="fill: none; stroke: #cccccc; stroke-linecap: round"/>
     </g>
     <g id="text_12">
      <!-- 0.05 -->
      <g style="fill: #262626" transform="translate(81.798906 115.490391) scale(0.33 -0.33)">
       <use xlink:href="#ArialMT-30"/>
       <use xlink:href="#ArialMT-2e" x="55.615234"/>
       <use xlink:href="#ArialMT-30" x="83.398438"/>
       <use xlink:href="#ArialMT-35" x="139.013672"/>
      </g>
     </g>
    </g>
    <g id="text_13">
     <!-- Density -->
     <g style="fill: #262626" transform="translate(70.222031 496.33875) rotate(-90) scale(0.36 -0.36)">
      <defs>
       <path id="ArialMT-73" d="M 197 991 
L 753 1078 
Q 800 744 1014 566 
Q 1228 388 1613 388 
Q 2000 388 2187 545 
Q 2375 703 2375 916 
Q 2375 1106 2209 1216 
Q 2094 1291 1634 1406 
Q 1016 1563 777 1677 
Q 538 1791 414 1992 
Q 291 2194 291 2438 
Q 291 2659 392 2848 
Q 494 3038 669 3163 
Q 800 3259 1026 3326 
Q 1253 3394 1513 3394 
Q 1903 3394 2198 3281 
Q 2494 3169 2634 2976 
Q 2775 2784 2828 2463 
L 2278 2388 
Q 2241 2644 2061 2787 
Q 1881 2931 1553 2931 
Q 1166 2931 1000 2803 
Q 834 2675 834 2503 
Q 834 2394 903 2306 
Q 972 2216 1119 2156 
Q 1203 2125 1616 2013 
Q 2213 1853 2448 1751 
Q 2684 1650 2818 1456 
Q 2953 1263 2953 975 
Q 2953 694 2789 445 
Q 2625 197 2315 61 
Q 2006 -75 1616 -75 
Q 969 -75 630 194 
Q 291 463 197 991 
z
" transform="scale(0.015625)"/>
       <path id="ArialMT-69" d="M 425 3934 
L 425 4581 
L 988 4581 
L 988 3934 
L 425 3934 
z
M 425 0 
L 425 3319 
L 988 3319 
L 988 0 
L 425 0 
z
" transform="scale(0.015625)"/>
       <path id="ArialMT-79" d="M 397 -1278 
L 334 -750 
Q 519 -800 656 -800 
Q 844 -800 956 -737 
Q 1069 -675 1141 -563 
Q 1194 -478 1313 -144 
Q 1328 -97 1363 -6 
L 103 3319 
L 709 3319 
L 1400 1397 
Q 1534 1031 1641 628 
Q 1738 1016 1872 1384 
L 2581 3319 
L 3144 3319 
L 1881 -56 
Q 1678 -603 1566 -809 
Q 1416 -1088 1222 -1217 
Q 1028 -1347 759 -1347 
Q 597 -1347 397 -1278 
z
" transform="scale(0.015625)"/>
      </defs>
      <use xlink:href="#ArialMT-44"/>
      <use xlink:href="#ArialMT-65" x="72.216797"/>
      <use xlink:href="#ArialMT-6e" x="127.832031"/>
      <use xlink:href="#ArialMT-73" x="183.447266"/>
      <use xlink:href="#ArialMT-69" x="233.447266"/>
      <use xlink:href="#ArialMT-74" x="255.664062"/>
      <use xlink:href="#ArialMT-79" x="283.447266"/>
     </g>
    </g>
   </g>
   <g id="line2d_12">
    <path d="M 199.03414 767.182292 
L 201.756943 766.215847 
L 204.479746 764.816247 
L 207.202549 762.839077 
L 209.925352 760.115412 
L 212.648156 756.458104 
L 215.370959 751.673315 
L 218.093762 745.577812 
L 220.816565 738.021722 
L 223.539368 728.915331 
L 226.262171 718.257327 
L 228.984974 706.160732 
L 231.707777 692.872048 
L 239.876187 650.376221 
L 242.59899 637.396049 
L 245.321793 626.173843 
L 248.044596 617.369186 
L 250.767399 611.526467 
L 253.490202 609.019232 
L 256.213005 610.010674 
L 258.935809 614.436057 
L 261.658612 622.009708 
L 264.381415 632.255535 
L 267.104218 644.55652 
L 269.827021 658.216069 
L 275.272627 686.810016 
L 277.99543 700.504614 
L 280.718234 713.158568 
L 283.441037 724.464034 
L 286.16384 734.251686 
L 288.886643 742.475975 
L 291.609446 749.191577 
L 294.332249 754.525635 
L 297.055052 758.649945 
L 299.777855 761.756193 
L 302.500659 764.036191 
L 305.223462 765.667851 
L 307.946265 766.806724 
L 310.669068 767.582254 
L 313.391871 768.097597 
L 316.114674 768.431817 
L 321.56028 768.77399 
L 329.72869 768.924255 
L 348.788312 768.919543 
L 365.12513 768.759738 
L 376.016343 768.457684 
L 384.184752 767.992475 
L 389.630359 767.491138 
L 395.075965 766.780585 
L 400.521571 765.816565 
L 405.967177 764.562795 
L 411.412784 762.98654 
L 416.85839 761.044193 
L 419.581193 759.913877 
L 422.303996 758.659758 
L 425.026799 757.263743 
L 427.749602 755.703477 
L 430.472405 753.952326 
L 433.195209 751.979675 
L 435.918012 749.751579 
L 438.640815 747.231744 
L 441.363618 744.382808 
L 444.086421 741.167832 
L 446.809224 737.551888 
L 449.532027 733.503597 
L 452.25483 728.996478 
L 454.977634 724.009955 
L 457.700437 718.529935 
L 460.42324 712.548918 
L 463.146043 706.065669 
L 465.868846 699.084562 
L 468.591649 691.61476 
L 471.314452 683.66944 
L 474.037255 675.265228 
L 476.760059 666.422024 
L 482.205665 647.516643 
L 487.651271 627.198278 
L 493.096877 605.815767 
L 506.710893 551.201521 
L 512.156499 530.706271 
L 514.879302 521.125294 
L 517.602105 512.108391 
L 520.324909 503.736388 
L 523.047712 496.080082 
L 525.770515 489.197957 
L 528.493318 483.134011 
L 531.216121 477.915739 
L 533.938924 473.552355 
L 536.661727 470.03341 
L 539.38453 467.328018 
L 542.107334 465.384973 
L 544.830137 464.133999 
L 547.55294 463.488342 
L 550.275743 463.348773 
L 552.998546 463.608878 
L 555.721349 464.161315 
L 561.166955 465.749012 
L 569.335365 468.281024 
L 577.503774 470.441248 
L 582.94938 471.944904 
L 585.672183 472.821186 
L 588.394987 473.817282 
L 591.11779 474.948852 
L 593.840593 476.221753 
L 596.563396 477.634328 
L 599.286199 479.181386 
L 602.009002 480.859191 
L 604.731805 482.670665 
L 607.454608 484.630035 
L 610.177412 486.766238 
L 612.900215 489.124603 
L 615.623018 491.766561 
L 618.345821 494.767397 
L 621.068624 498.212254 
L 623.791427 502.190821 
L 626.51423 506.791216 
L 629.237033 512.093654 
L 631.959837 518.164486 
L 634.68264 525.051083 
L 637.405443 532.777985 
L 640.128246 541.344524 
L 642.851049 550.724022 
L 645.573852 560.864475 
L 648.296655 571.690523 
L 653.742262 594.999598 
L 659.187868 619.707775 
L 667.356277 657.013201 
L 672.801883 680.464907 
L 675.524687 691.400712 
L 678.24749 701.676961 
L 680.970293 711.214952 
L 683.693096 719.955253 
L 686.415899 727.859073 
L 689.138702 734.908835 
L 691.861505 741.107834 
L 694.584308 746.47893 
L 697.307112 751.062334 
L 700.029915 754.91264 
L 702.752718 758.095309 
L 705.475521 760.682896 
L 708.198324 762.7513 
L 710.921127 764.376303 
L 713.64393 765.630608 
L 716.366733 766.581531 
L 719.089537 767.289403 
L 721.81234 767.806668 
L 727.257946 768.438623 
L 732.703552 768.740732 
L 740.871962 768.907982 
L 740.871962 768.907982 
" clip-path="url(#pee8704e3be)" style="fill: none; stroke: #000000; stroke-width: 3; stroke-linecap: round"/>
   </g>
   <g id="line2d_13">
    <path d="M 209.359494 768.764851 
L 214.582828 768.434939 
L 217.194494 768.137497 
L 219.806161 767.710498 
L 222.417828 767.119198 
L 225.029495 766.330045 
L 227.641162 765.31615 
L 230.252829 764.063974 
L 232.864495 762.580334 
L 235.476162 760.898364 
L 243.311163 755.429151 
L 245.922829 753.837125 
L 248.534496 752.568652 
L 251.146163 751.730765 
L 253.75783 751.397419 
L 256.369497 751.598721 
L 258.981163 752.316446 
L 261.59283 753.486753 
L 264.204497 755.009561 
L 269.427831 758.617782 
L 274.651164 762.178534 
L 277.262831 763.71573 
L 279.874498 765.027058 
L 282.486165 766.099638 
L 285.097832 766.942584 
L 287.709498 767.580121 
L 290.321165 768.044712 
L 295.544499 768.592715 
L 300.767832 768.829643 
L 311.2145 768.948638 
L 360.836169 768.954167 
L 376.50617 768.833895 
L 384.34117 768.563522 
L 389.564504 768.220987 
L 397.399504 767.426257 
L 413.069505 765.536513 
L 420.904506 764.947014 
L 431.351173 764.289494 
L 436.574507 763.659014 
L 439.186173 763.174747 
L 441.79784 762.53616 
L 444.409507 761.710012 
L 447.021174 760.663007 
L 449.632841 759.364149 
L 452.244507 757.787891 
L 454.856174 755.917671 
L 457.467841 753.749205 
L 460.079508 751.29283 
L 462.691175 748.574257 
L 465.302841 745.633392 
L 470.526175 739.294868 
L 480.972842 726.285594 
L 488.807843 717.050194 
L 494.031176 710.811578 
L 496.642843 707.493981 
L 499.25451 703.959137 
L 501.866177 700.152307 
L 504.477844 696.03247 
L 507.08951 691.57529 
L 509.701177 686.773526 
L 512.312844 681.635155 
L 514.924511 676.180037 
L 520.147845 664.437902 
L 525.371178 651.836622 
L 538.429512 619.339924 
L 543.652846 607.109557 
L 551.487846 589.175654 
L 554.099513 582.700726 
L 556.71118 575.601616 
L 559.322847 567.643743 
L 561.934513 558.630711 
L 564.54618 548.434768 
L 567.157847 537.019099 
L 569.769514 524.447562 
L 572.381181 510.879898 
L 577.604514 481.753475 
L 585.439515 437.413045 
L 588.051182 423.43493 
L 590.662848 410.098675 
L 593.274515 397.451633 
L 595.886182 385.488111 
L 598.497849 374.165277 
L 601.109516 363.421163 
L 603.721182 353.192451 
L 606.332849 343.430213 
L 608.944516 334.112215 
L 611.556183 325.250715 
L 614.16785 316.895023 
L 616.779517 309.128598 
L 619.391183 302.061199 
L 622.00285 295.817461 
L 624.614517 290.524061 
L 627.226184 286.298038 
L 629.837851 283.238703 
L 632.449517 281.424882 
L 635.061184 280.918118 
L 637.672851 281.7712 
L 640.284518 284.04028 
L 642.896185 287.798045 
L 645.507851 293.145054 
L 648.119518 300.216402 
L 650.731185 309.181284 
L 653.342852 320.233827 
L 655.954519 333.574644 
L 658.566185 349.383994 
L 661.177852 367.78903 
L 663.789519 388.829149 
L 666.401186 412.424612 
L 669.012853 438.353969 
L 671.62452 466.245208 
L 676.847853 525.738604 
L 682.071187 585.645672 
L 684.682854 613.969204 
L 687.29452 640.359781 
L 689.906187 664.331187 
L 692.517854 685.552145 
L 695.129521 703.856619 
L 697.741188 719.237102 
L 700.352854 731.823625 
L 702.964521 741.852874 
L 705.576188 749.632554 
L 708.187855 755.505954 
L 710.799522 759.820708 
L 713.411188 762.904364 
L 716.022855 765.047874 
L 718.634522 766.496788 
L 721.246189 767.448991 
L 723.857856 768.057264 
L 726.469523 768.434898 
L 729.081189 768.662705 
L 729.081189 768.662705 
" clip-path="url(#pee8704e3be)" style="fill: none; stroke: #ff0000; stroke-width: 3; stroke-linecap: round"/>
   </g>
   <g id="line2d_14">
    <path d="M 213.038439 768.79731 
L 218.200389 768.490082 
L 220.781364 768.202871 
L 223.362339 767.78277 
L 225.943314 767.193566 
L 228.524289 766.402136 
L 231.105264 765.385611 
L 233.686239 764.13974 
L 236.267214 762.686884 
L 246.591113 756.354002 
L 249.172088 755.228711 
L 251.753063 754.525902 
L 254.334038 754.317601 
L 256.915013 754.625615 
L 259.495988 755.417771 
L 262.076963 756.613454 
L 264.657938 758.097119 
L 272.400863 762.984019 
L 274.981838 764.39978 
L 277.562813 765.6018 
L 280.143788 766.573444 
L 282.724763 767.323256 
L 285.305738 767.876736 
L 287.886713 768.268118 
L 293.048663 768.706335 
L 298.210613 768.879339 
L 311.115488 768.957533 
L 380.801812 768.89867 
L 388.544737 768.699221 
L 393.706687 768.381349 
L 398.868637 767.83337 
L 404.030587 767.02556 
L 411.773512 765.456557 
L 422.097412 763.347053 
L 432.421312 761.33769 
L 435.002287 760.699677 
L 437.583262 759.944492 
L 440.164237 759.040188 
L 442.745212 757.956581 
L 445.326187 756.666304 
L 447.907161 755.146253 
L 450.488136 753.379549 
L 453.069111 751.357756 
L 455.650086 749.082747 
L 458.231061 746.567482 
L 460.812036 743.835168 
L 465.973986 737.847326 
L 471.135936 731.393467 
L 481.459836 717.941064 
L 489.202761 707.652112 
L 494.364711 700.41221 
L 496.945686 696.52851 
L 499.526661 692.388701 
L 502.107636 687.939594 
L 504.688611 683.141788 
L 507.269586 677.972833 
L 509.850561 672.426161 
L 512.431536 666.506358 
L 515.012511 660.222713 
L 517.593486 653.583632 
L 520.174461 646.594287 
L 522.755436 639.25881 
L 527.917386 623.602667 
L 533.079336 606.918049 
L 540.822261 581.621052 
L 545.984211 565.939539 
L 551.14616 551.649997 
L 556.30811 537.95013 
L 558.889085 530.795618 
L 561.47006 523.105202 
L 564.051035 514.656975 
L 566.63201 505.292714 
L 569.212985 494.943202 
L 571.79396 483.640288 
L 574.374935 471.513755 
L 579.536885 445.683861 
L 584.698835 419.567441 
L 587.27981 407.037012 
L 589.860785 395.102968 
L 592.44176 383.868212 
L 595.022735 373.37314 
L 597.60371 363.607104 
L 600.184685 354.525034 
L 602.76566 346.066063 
L 605.346635 338.171413 
L 607.92761 330.799499 
L 610.508585 323.936945 
L 613.08956 317.604882 
L 615.670535 311.860466 
L 618.25151 306.794027 
L 620.832485 302.522742 
L 623.41346 299.182057 
L 625.994435 296.916278 
L 628.57541 295.869665 
L 631.156385 296.179047 
L 633.73736 297.968422 
L 636.318335 301.345513 
L 638.89931 306.399897 
L 641.480285 313.202249 
L 644.06126 321.804389 
L 646.642235 332.240045 
L 649.22321 344.526257 
L 651.804185 358.66508 
L 654.385159 374.644716 
L 656.966134 392.438606 
L 659.547109 412.000847 
L 662.128084 433.256775 
L 664.709059 456.088879 
L 667.290034 480.320013 
L 672.451984 531.884416 
L 680.194909 610.758156 
L 682.775884 635.413011 
L 685.356859 658.395239 
L 687.937834 679.290318 
L 690.518809 697.799247 
L 693.099784 713.758032 
L 695.680759 727.141089 
L 698.261734 738.049239 
L 700.842709 746.685528 
L 703.423684 753.323751 
L 706.004659 758.274999 
L 708.585634 761.856971 
L 711.166609 764.369403 
L 713.747584 766.077303 
L 716.328559 767.202086 
L 718.909534 767.91949 
L 721.490509 768.362495 
L 726.652459 768.78039 
L 726.652459 768.78039 
" clip-path="url(#pee8704e3be)" style="fill: none; stroke-dasharray: 11.1,4.8; stroke-dashoffset: 0; stroke: #8b0000; stroke-width: 3"/>
   </g>
   <g id="line2d_15">
    <path d="M 207.346924 768.784695 
L 212.615645 768.503337 
L 217.884365 767.898983 
L 220.518725 767.410622 
L 223.153085 766.761262 
L 225.787445 765.927708 
L 228.421806 764.896039 
L 231.056166 763.666908 
L 233.690526 762.260375 
L 244.227967 756.041058 
L 246.862327 754.786597 
L 249.496687 753.848676 
L 252.131047 753.30287 
L 254.765407 753.194672 
L 257.399768 753.533227 
L 260.034128 754.290059 
L 262.668488 755.403022 
L 265.302848 756.784729 
L 275.840289 763.009495 
L 278.474649 764.327924 
L 281.109009 765.455882 
L 283.743369 766.383898 
L 286.377729 767.119531 
L 289.01209 767.682163 
L 291.64645 768.097809 
L 296.91517 768.599751 
L 302.183891 768.825746 
L 312.721331 768.94677 
L 360.139814 768.956728 
L 375.945975 768.870435 
L 383.849056 768.637112 
L 389.117776 768.296634 
L 394.386497 767.732861 
L 399.655217 766.907582 
L 404.923937 765.836869 
L 412.827018 763.944276 
L 433.901899 758.635782 
L 439.17062 757.029719 
L 444.43934 755.112085 
L 447.0737 753.995863 
L 449.70806 752.745998 
L 452.342421 751.334597 
L 454.976781 749.72811 
L 457.611141 747.887708 
L 460.245501 745.770468 
L 462.879861 743.331383 
L 465.514221 740.526101 
L 468.148582 737.314161 
L 470.782942 733.662388 
L 473.417302 729.547914 
L 476.051662 724.960311 
L 478.686022 719.902372 
L 481.320383 714.389356 
L 483.954743 708.44689 
L 486.589103 702.10815 
L 489.223463 695.411229 
L 494.492183 681.11303 
L 499.760904 665.947705 
L 507.663984 642.856607 
L 510.298344 635.471562 
L 512.932705 628.428668 
L 515.567065 621.821702 
L 518.201425 615.711197 
L 520.835785 610.110779 
L 523.470145 604.978768 
L 528.738866 595.681195 
L 534.007586 586.562661 
L 536.641946 581.616977 
L 539.276306 576.213617 
L 541.910667 570.259364 
L 544.545027 563.715662 
L 547.179387 556.595852 
L 549.813747 548.954825 
L 555.082467 532.445655 
L 560.351188 514.893932 
L 576.157349 461.246545 
L 581.426069 444.503747 
L 586.69479 428.837479 
L 591.96351 414.012933 
L 599.86659 391.948454 
L 605.135311 376.558322 
L 613.038391 352.976283 
L 615.672752 345.522498 
L 618.307112 338.606277 
L 620.941472 332.45666 
L 623.575832 327.304089 
L 626.210192 323.369309 
L 628.844552 320.854365 
L 631.478913 319.935891 
L 634.113273 320.760568 
L 636.747633 323.442455 
L 639.381993 328.061824 
L 642.016353 334.665218 
L 644.650713 343.266551 
L 647.285074 353.84916 
L 649.919434 366.36864 
L 652.553794 380.756107 
L 655.188154 396.921207 
L 657.822514 414.753973 
L 660.456875 434.124563 
L 663.091235 454.8803 
L 665.725595 476.840122 
L 670.994315 523.464053 
L 678.897396 595.621862 
L 681.531756 618.796469 
L 684.166116 640.876593 
L 686.800476 661.501487 
L 689.434836 680.368037 
L 692.069197 697.251995 
L 694.703557 712.02161 
L 697.337917 724.641834 
L 699.972277 735.168946 
L 702.606637 743.736976 
L 705.240998 750.538471 
L 707.875358 755.802661 
L 710.509718 759.774014 
L 713.144078 762.693592 
L 715.778438 764.784748 
L 718.412798 766.243761 
L 721.047159 767.235206 
L 723.681519 767.891279 
L 726.315879 768.313999 
L 731.584599 768.741087 
L 731.584599 768.741087 
" clip-path="url(#pee8704e3be)" style="fill: none; stroke-dasharray: 19.2,4.8,3,4.8; stroke-dashoffset: 0; stroke: #dc143c; stroke-width: 3"/>
   </g>
   <g id="line2d_16">
    <path d="M 191.308773 768.608434 
L 196.9075 768.203048 
L 202.506227 767.442816 
L 205.30559 766.868953 
L 208.104954 766.129153 
L 210.904318 765.195599 
L 213.703681 764.042975 
L 216.503045 762.651356 
L 219.302408 761.00946 
L 222.101772 759.117979 
L 224.901136 756.992624 
L 227.700499 754.666432 
L 233.299226 749.635641 
L 238.897953 744.639212 
L 241.697317 742.398386 
L 244.496681 740.46568 
L 247.296044 738.934575 
L 250.095408 737.882431 
L 252.894771 737.364011 
L 255.694135 737.406765 
L 258.493498 738.008418 
L 261.292862 739.137171 
L 264.092226 740.734486 
L 266.891589 742.720117 
L 269.690953 744.998779 
L 275.28968 750.024179 
L 280.888407 755.029476 
L 283.687771 757.328128 
L 286.487134 759.41977 
L 289.286498 761.274094 
L 292.085861 762.877833 
L 294.885225 764.232314 
L 297.684589 765.350343 
L 300.483952 766.252863 
L 303.283316 766.965741 
L 306.082679 767.516955 
L 311.681407 768.243926 
L 317.280134 768.629216 
L 325.678224 768.86919 
L 339.675042 768.952598 
L 378.866132 768.90529 
L 390.063587 768.730103 
L 398.461677 768.391331 
L 404.060405 767.996524 
L 409.659132 767.41724 
L 415.257859 766.612096 
L 420.856586 765.539602 
L 426.455313 764.150834 
L 432.05404 762.378515 
L 434.853404 761.320621 
L 437.652768 760.130524 
L 440.452131 758.794154 
L 443.251495 757.298015 
L 446.050858 755.630491 
L 448.850222 753.783252 
L 451.649586 751.75258 
L 454.448949 749.540385 
L 457.248313 747.15474 
L 462.84704 741.924596 
L 468.445767 736.226122 
L 476.843858 727.179534 
L 485.241948 717.722272 
L 490.840676 710.976253 
L 493.640039 707.361025 
L 496.439403 703.523642 
L 499.238766 699.418831 
L 502.03813 695.005757 
L 504.837494 690.251155 
L 507.636857 685.131716 
L 510.436221 679.635459 
L 513.235584 673.761923 
L 516.034948 667.521137 
L 518.834311 660.931478 
L 521.633675 654.016648 
L 527.232402 639.311561 
L 532.831129 623.568947 
L 538.429856 606.840842 
L 544.028584 589.052273 
L 549.627311 570.067923 
L 555.226038 549.813957 
L 560.824765 528.396606 
L 569.222856 494.886547 
L 577.620947 461.359708 
L 583.219674 439.846605 
L 588.818401 419.304259 
L 594.417128 399.711463 
L 600.015855 380.922489 
L 605.614582 362.89221 
L 611.21331 345.92331 
L 614.012673 338.071157 
L 616.812037 330.834909 
L 619.6114 324.398846 
L 622.410764 318.969839 
L 625.210127 314.767625 
L 628.009491 312.013516 
L 630.808855 310.918534 
L 633.608218 311.672046 
L 636.407582 314.431829 
L 639.206945 319.316313 
L 642.006309 326.399396 
L 644.805673 335.707879 
L 647.605036 347.221199 
L 650.4044 360.872921 
L 653.203763 376.553316 
L 656.003127 394.112392 
L 658.80249 413.362968 
L 661.601854 434.083613 
L 664.401218 456.021618 
L 669.999945 502.403909 
L 678.398036 573.465743 
L 681.197399 596.237093 
L 683.996763 618.035463 
L 686.796126 638.595906 
L 689.59549 657.697862 
L 692.394853 675.1732 
L 695.194217 690.911174 
L 697.993581 704.859803 
L 700.792944 717.023634 
L 703.592308 727.458224 
L 706.391671 736.262014 
L 709.191035 743.566484 
L 711.990398 749.525567 
L 714.789762 754.305247 
L 717.589126 758.074136 
L 720.388489 760.995576 
L 723.187853 763.221603 
L 725.987216 764.888854 
L 728.78658 766.116295 
L 731.585944 767.004524 
L 734.385307 767.636317 
L 737.184671 768.078042 
L 742.783398 768.58669 
L 748.382125 768.811766 
L 748.382125 768.811766 
" clip-path="url(#pee8704e3be)" style="fill: none; stroke-dasharray: 3,4.95; stroke-dashoffset: 0; stroke: #ff6347; stroke-width: 3"/>
   </g>
   <g id="line2d_17">
    <path d="M 233.075565 768.196466 
L 235.468502 766.952259 
L 237.86144 764.262472 
L 240.254377 759.180569 
L 242.647315 750.844916 
L 245.040252 739.102755 
L 249.826127 711.823164 
L 252.219064 702.620333 
L 254.612002 700.424914 
L 257.004939 705.960775 
L 259.397877 717.432386 
L 261.790814 731.460331 
L 264.183751 744.677275 
L 266.576689 754.968961 
L 268.969626 761.78726 
L 271.362564 765.688079 
L 273.755501 767.631985 
L 276.148438 768.480393 
L 278.541376 768.805883 
L 283.327251 768.948789 
L 316.828374 768.96 
L 369.472997 768.854436 
L 374.258872 768.587735 
L 376.65181 768.327722 
L 379.044747 767.949715 
L 381.437685 767.434574 
L 383.830622 766.7724 
L 386.223559 765.961422 
L 388.616497 765.001189 
L 391.009434 763.883525 
L 393.402372 762.588831 
L 395.795309 761.093913 
L 398.188246 759.388996 
L 400.581184 757.492101 
L 405.367059 753.317888 
L 412.545871 746.951195 
L 414.938808 745.025384 
L 417.331746 743.27686 
L 424.510558 738.496594 
L 426.903495 736.559735 
L 429.296433 734.231704 
L 431.68937 731.513387 
L 436.475245 725.353067 
L 443.654057 716.060884 
L 446.046995 712.938724 
L 448.439932 709.572381 
L 450.832869 705.807519 
L 453.225807 701.567434 
L 455.618744 696.872155 
L 458.011682 691.799246 
L 460.404619 686.413204 
L 462.797557 680.711938 
L 465.190494 674.618342 
L 467.583431 668.002825 
L 469.976369 660.70264 
L 472.369306 652.525135 
L 474.762244 643.256148 
L 477.155181 632.697982 
L 479.548118 620.727646 
L 481.941056 607.334664 
L 484.333993 592.605938 
L 486.726931 576.664726 
L 489.119868 559.603227 
L 491.512805 541.44944 
L 493.905743 522.185554 
L 496.29868 501.805498 
L 501.084555 458.084226 
L 510.656305 366.737731 
L 513.049242 345.207234 
L 515.44218 324.894679 
L 517.835117 306.135394 
L 520.228054 289.301677 
L 522.620992 274.822386 
L 525.013929 263.166463 
L 527.406867 254.77933 
L 529.799804 249.97834 
L 532.192741 248.837274 
L 534.585679 251.110655 
L 536.978616 256.244825 
L 539.371554 263.485723 
L 541.764491 272.045769 
L 546.550366 290.731131 
L 551.336241 309.947681 
L 556.122116 330.223234 
L 560.90799 352.183527 
L 570.47974 397.59239 
L 575.265615 418.858006 
L 582.444427 449.943882 
L 584.837364 460.864129 
L 587.230302 472.335834 
L 592.016177 496.799042 
L 596.802052 521.772023 
L 601.587926 545.226633 
L 606.373801 566.724717 
L 611.159676 586.494772 
L 613.552613 595.628137 
L 615.945551 604.241289 
L 620.731426 620.339564 
L 625.5173 635.747591 
L 627.910238 643.200459 
L 630.303175 650.286097 
L 632.696113 656.800843 
L 635.08905 662.602831 
L 637.481988 667.709105 
L 642.267862 676.945708 
L 644.6608 681.964819 
L 647.053737 687.770051 
L 649.446675 694.476837 
L 654.232549 709.718179 
L 656.625487 717.420517 
L 659.018424 724.635104 
L 661.411362 731.124476 
L 663.804299 736.820254 
L 666.197236 741.776123 
L 668.590174 746.095585 
L 670.983111 749.874475 
L 673.376049 753.178323 
L 675.768986 756.04923 
L 678.161924 758.523392 
L 680.554861 760.642819 
L 682.947798 762.454995 
L 685.340736 764.003493 
L 687.733673 765.317469 
L 690.126611 766.408197 
L 692.519548 767.276231 
L 694.912485 767.925215 
L 697.305423 768.373375 
L 699.69836 768.655636 
L 704.484235 768.898643 
L 709.27011 768.951807 
L 709.27011 768.951807 
" clip-path="url(#pee8704e3be)" style="fill: none; stroke: #008000; stroke-width: 3; stroke-linecap: round"/>
   </g>
   <g id="line2d_18">
    <path d="M 183.796364 767.719166 
L 186.638209 767.187627 
L 189.480055 766.465368 
L 192.3219 765.500062 
L 195.163746 764.231317 
L 198.005592 762.591717 
L 200.847437 760.50887 
L 203.689283 757.908599 
L 206.531128 754.719339 
L 209.372974 750.877721 
L 212.21482 746.335114 
L 215.056665 741.064776 
L 217.898511 735.069068 
L 220.740356 728.386042 
L 223.582202 721.094625 
L 229.265893 705.22173 
L 234.949584 688.93606 
L 237.79143 681.250814 
L 240.633275 674.231547 
L 243.475121 668.144798 
L 246.316967 663.233997 
L 249.158812 659.703366 
L 252.000658 657.703848 
L 254.842503 657.322407 
L 257.684349 658.575751 
L 260.526195 661.409121 
L 263.36804 665.700258 
L 266.209886 671.268154 
L 269.051731 677.885706 
L 271.893577 685.295056 
L 277.577268 701.40312 
L 283.260959 717.527635 
L 286.102805 725.062956 
L 288.944651 732.041482 
L 291.786496 738.364084 
L 294.628342 743.974222 
L 297.470187 748.853684 
L 300.312033 753.016548 
L 303.153878 756.502169 
L 305.995724 759.367922 
L 308.83757 761.682315 
L 311.679415 763.518933 
L 314.521261 764.951469 
L 317.363106 766.049972 
L 320.204952 766.878289 
L 323.046798 767.49257 
L 325.888643 767.940675 
L 331.572334 768.489293 
L 337.256026 768.754726 
L 345.781562 768.905268 
L 362.832636 768.928699 
L 377.041864 768.775236 
L 385.567401 768.474187 
L 391.251092 768.085462 
L 396.934783 767.452756 
L 402.618474 766.468077 
L 405.46032 765.80329 
L 408.302165 764.999151 
L 411.144011 764.035843 
L 413.985857 762.892515 
L 416.827702 761.547429 
L 419.669548 759.978084 
L 422.511393 758.161288 
L 425.353239 756.073175 
L 428.195085 753.689139 
L 431.03693 750.983698 
L 433.878776 747.930286 
L 436.720621 744.500997 
L 439.562467 740.666302 
L 442.404312 736.394795 
L 445.246158 731.652997 
L 448.088004 726.405288 
L 450.929849 720.61401 
L 453.771695 714.239805 
L 456.61354 707.242226 
L 459.455386 699.580671 
L 462.297232 691.215657 
L 465.139077 682.110449 
L 467.980923 672.233046 
L 470.822768 661.558476 
L 473.664614 650.071361 
L 476.50646 637.768658 
L 479.348305 624.662466 
L 482.190151 610.78274 
L 485.031996 596.179748 
L 490.715688 565.117848 
L 496.399379 532.34227 
L 504.924915 482.741928 
L 507.766761 466.864341 
L 510.608607 451.662247 
L 513.450452 437.342708 
L 516.292298 424.102307 
L 519.134143 412.120502 
L 521.975989 401.553548 
L 524.817835 392.529363 
L 527.65968 385.143606 
L 530.501526 379.457157 
L 533.343371 375.495088 
L 536.185217 373.247121 
L 539.027063 372.669465 
L 541.868908 373.687854 
L 544.710754 376.201572 
L 547.552599 380.088173 
L 550.394445 385.20866 
L 553.236291 391.412821 
L 556.078136 398.544494 
L 558.919982 406.446524 
L 561.761827 414.965226 
L 567.445519 433.277349 
L 584.496592 490.307167 
L 590.180283 508.018443 
L 595.863974 524.564858 
L 601.547666 539.86594 
L 607.231357 553.977111 
L 612.915048 567.09657 
L 618.598739 579.564873 
L 627.124276 598.051832 
L 632.807967 610.939717 
L 638.491658 624.72168 
L 644.175349 639.548819 
L 649.859041 655.30406 
L 664.068269 695.827344 
L 666.910114 703.509916 
L 669.75196 710.868713 
L 672.593805 717.838073 
L 675.435651 724.363549 
L 678.277497 730.403434 
L 681.119342 735.92951 
L 683.961188 740.92707 
L 686.803033 745.394284 
L 689.644879 749.341027 
L 692.486725 752.787299 
L 695.32857 755.761377 
L 698.170416 758.29784 
L 701.012261 760.43559 
L 703.854107 762.215971 
L 706.695952 763.68108 
L 709.537798 764.872319 
L 712.379644 765.829221 
L 715.221489 766.588574 
L 718.063335 767.183814 
L 723.747026 767.997104 
L 729.430717 768.461716 
L 737.956254 768.790348 
L 749.323636 768.926009 
L 749.323636 768.926009 
" clip-path="url(#pee8704e3be)" style="fill: none; stroke: #0000ff; stroke-width: 5; stroke-linecap: round"/>
   </g>
   <g id="patch_3">
    <path d="M 155.52 768.96 
L 155.52 103.68 
" style="fill: none; stroke: #cccccc; stroke-width: 1.25; stroke-linejoin: miter; stroke-linecap: square"/>
   </g>
   <g id="patch_4">
    <path d="M 777.6 768.96 
L 777.6 103.68 
" style="fill: none; stroke: #cccccc; stroke-width: 1.25; stroke-linejoin: miter; stroke-linecap: square"/>
   </g>
   <g id="patch_5">
    <path d="M 155.52 768.96 
L 777.6 768.96 
" style="fill: none; stroke: #cccccc; stroke-width: 1.25; stroke-linejoin: miter; stroke-linecap: square"/>
   </g>
   <g id="patch_6">
    <path d="M 155.52 103.68 
L 777.6 103.68 
" style="fill: none; stroke: #cccccc; stroke-width: 1.25; stroke-linejoin: miter; stroke-linecap: square"/>
   </g>
   <g id="legend_1">
    <g id="patch_7">
     <path d="M 178.62 457.723594 
L 498.8025 457.723594 
Q 505.4025 457.723594 505.4025 451.123594 
L 505.4025 126.78 
Q 505.4025 120.18 498.8025 120.18 
L 178.62 120.18 
Q 172.02 120.18 172.02 126.78 
L 172.02 451.123594 
Q 172.02 457.723594 178.62 457.723594 
z
" style="fill: #ffffff; opacity: 0.8; stroke: #cccccc; stroke-linejoin: miter"/>
    </g>
    <g id="line2d_19">
     <path d="M 185.22 145.54875 
L 218.22 145.54875 
L 251.22 145.54875 
" style="fill: none; stroke: #000000; stroke-width: 3; stroke-linecap: round"/>
    </g>
    <g id="text_14">
     <!-- HuMap2.0 -->
     <g style="fill: #262626" transform="translate(277.62 157.09875) scale(0.33 -0.33)">
      <defs>
       <path id="ArialMT-48" d="M 513 0 
L 513 4581 
L 1119 4581 
L 1119 2700 
L 3500 2700 
L 3500 4581 
L 4106 4581 
L 4106 0 
L 3500 0 
L 3500 2159 
L 1119 2159 
L 1119 0 
L 513 0 
z
" transform="scale(0.015625)"/>
       <path id="ArialMT-75" d="M 2597 0 
L 2597 488 
Q 2209 -75 1544 -75 
Q 1250 -75 995 37 
Q 741 150 617 320 
Q 494 491 444 738 
Q 409 903 409 1263 
L 409 3319 
L 972 3319 
L 972 1478 
Q 972 1038 1006 884 
Q 1059 663 1231 536 
Q 1403 409 1656 409 
Q 1909 409 2131 539 
Q 2353 669 2445 892 
Q 2538 1116 2538 1541 
L 2538 3319 
L 3100 3319 
L 3100 0 
L 2597 0 
z
" transform="scale(0.015625)"/>
       <path id="ArialMT-4d" d="M 475 0 
L 475 4581 
L 1388 4581 
L 2472 1338 
Q 2622 884 2691 659 
Q 2769 909 2934 1394 
L 4031 4581 
L 4847 4581 
L 4847 0 
L 4263 0 
L 4263 3834 
L 2931 0 
L 2384 0 
L 1059 3900 
L 1059 0 
L 475 0 
z
" transform="scale(0.015625)"/>
      </defs>
      <use xlink:href="#ArialMT-48"/>
      <use xlink:href="#ArialMT-75" x="72.216797"/>
      <use xlink:href="#ArialMT-4d" x="127.832031"/>
      <use xlink:href="#ArialMT-61" x="211.132812"/>
      <use xlink:href="#ArialMT-70" x="266.748047"/>
      <use xlink:href="#ArialMT-32" x="322.363281"/>
      <use xlink:href="#ArialMT-2e" x="377.978516"/>
      <use xlink:href="#ArialMT-30" x="405.761719"/>
     </g>
    </g>
    <g id="line2d_20">
     <path d="M 185.22 192.228281 
L 218.22 192.228281 
L 251.22 192.228281 
" style="fill: none; stroke: #ff0000; stroke-width: 3; stroke-linecap: round"/>
    </g>
    <g id="text_15">
     <!-- Structure -->
     <g style="fill: #262626" transform="translate(277.62 203.778281) scale(0.33 -0.33)">
      <defs>
       <path id="ArialMT-53" d="M 288 1472 
L 859 1522 
Q 900 1178 1048 958 
Q 1197 738 1509 602 
Q 1822 466 2213 466 
Q 2559 466 2825 569 
Q 3091 672 3220 851 
Q 3350 1031 3350 1244 
Q 3350 1459 3225 1620 
Q 3100 1781 2813 1891 
Q 2628 1963 1997 2114 
Q 1366 2266 1113 2400 
Q 784 2572 623 2826 
Q 463 3081 463 3397 
Q 463 3744 659 4045 
Q 856 4347 1234 4503 
Q 1613 4659 2075 4659 
Q 2584 4659 2973 4495 
Q 3363 4331 3572 4012 
Q 3781 3694 3797 3291 
L 3216 3247 
Q 3169 3681 2898 3903 
Q 2628 4125 2100 4125 
Q 1550 4125 1298 3923 
Q 1047 3722 1047 3438 
Q 1047 3191 1225 3031 
Q 1400 2872 2139 2705 
Q 2878 2538 3153 2413 
Q 3553 2228 3743 1945 
Q 3934 1663 3934 1294 
Q 3934 928 3725 604 
Q 3516 281 3123 101 
Q 2731 -78 2241 -78 
Q 1619 -78 1198 103 
Q 778 284 539 648 
Q 300 1013 288 1472 
z
" transform="scale(0.015625)"/>
      </defs>
      <use xlink:href="#ArialMT-53"/>
      <use xlink:href="#ArialMT-74" x="66.699219"/>
      <use xlink:href="#ArialMT-72" x="94.482422"/>
      <use xlink:href="#ArialMT-75" x="127.783203"/>
      <use xlink:href="#ArialMT-63" x="183.398438"/>
      <use xlink:href="#ArialMT-74" x="233.398438"/>
      <use xlink:href="#ArialMT-75" x="261.181641"/>
      <use xlink:href="#ArialMT-72" x="316.796875"/>
      <use xlink:href="#ArialMT-65" x="350.097656"/>
     </g>
    </g>
    <g id="line2d_21">
     <path d="M 185.22 238.907812 
L 218.22 238.907812 
L 251.22 238.907812 
" style="fill: none; stroke-dasharray: 11.1,4.8; stroke-dashoffset: 0; stroke: #8b0000; stroke-width: 3"/>
    </g>
    <g id="text_16">
     <!-- 3Dinteractome -->
     <g style="fill: #262626" transform="translate(277.62 250.457812) scale(0.33 -0.33)">
      <defs>
       <path id="ArialMT-6f" d="M 213 1659 
Q 213 2581 725 3025 
Q 1153 3394 1769 3394 
Q 2453 3394 2887 2945 
Q 3322 2497 3322 1706 
Q 3322 1066 3130 698 
Q 2938 331 2570 128 
Q 2203 -75 1769 -75 
Q 1072 -75 642 372 
Q 213 819 213 1659 
z
M 791 1659 
Q 791 1022 1069 705 
Q 1347 388 1769 388 
Q 2188 388 2466 706 
Q 2744 1025 2744 1678 
Q 2744 2294 2464 2611 
Q 2184 2928 1769 2928 
Q 1347 2928 1069 2612 
Q 791 2297 791 1659 
z
" transform="scale(0.015625)"/>
       <path id="ArialMT-6d" d="M 422 0 
L 422 3319 
L 925 3319 
L 925 2853 
Q 1081 3097 1340 3245 
Q 1600 3394 1931 3394 
Q 2300 3394 2536 3241 
Q 2772 3088 2869 2813 
Q 3263 3394 3894 3394 
Q 4388 3394 4653 3120 
Q 4919 2847 4919 2278 
L 4919 0 
L 4359 0 
L 4359 2091 
Q 4359 2428 4304 2576 
Q 4250 2725 4106 2815 
Q 3963 2906 3769 2906 
Q 3419 2906 3187 2673 
Q 2956 2441 2956 1928 
L 2956 0 
L 2394 0 
L 2394 2156 
Q 2394 2531 2256 2718 
Q 2119 2906 1806 2906 
Q 1569 2906 1367 2781 
Q 1166 2656 1075 2415 
Q 984 2175 984 1722 
L 984 0 
L 422 0 
z
" transform="scale(0.015625)"/>
      </defs>
      <use xlink:href="#ArialMT-33"/>
      <use xlink:href="#ArialMT-44" x="55.615234"/>
      <use xlink:href="#ArialMT-69" x="127.832031"/>
      <use xlink:href="#ArialMT-6e" x="150.048828"/>
      <use xlink:href="#ArialMT-74" x="205.664062"/>
      <use xlink:href="#ArialMT-65" x="233.447266"/>
      <use xlink:href="#ArialMT-72" x="289.0625"/>
      <use xlink:href="#ArialMT-61" x="322.363281"/>
      <use xlink:href="#ArialMT-63" x="377.978516"/>
      <use xlink:href="#ArialMT-74" x="427.978516"/>
      <use xlink:href="#ArialMT-6f" x="455.761719"/>
      <use xlink:href="#ArialMT-6d" x="511.376953"/>
      <use xlink:href="#ArialMT-65" x="594.677734"/>
     </g>
    </g>
    <g id="line2d_22">
     <path d="M 185.22 285.587344 
L 218.22 285.587344 
L 251.22 285.587344 
" style="fill: none; stroke-dasharray: 19.2,4.8,3,4.8; stroke-dashoffset: 0; stroke: #dc143c; stroke-width: 3"/>
    </g>
    <g id="text_17">
     <!-- Y2H -->
     <g style="fill: #262626" transform="translate(277.62 297.137344) scale(0.33 -0.33)">
      <defs>
       <path id="ArialMT-59" d="M 1784 0 
L 1784 1941 
L 19 4581 
L 756 4581 
L 1659 3200 
Q 1909 2813 2125 2425 
Q 2331 2784 2625 3234 
L 3513 4581 
L 4219 4581 
L 2391 1941 
L 2391 0 
L 1784 0 
z
" transform="scale(0.015625)"/>
      </defs>
      <use xlink:href="#ArialMT-59"/>
      <use xlink:href="#ArialMT-32" x="66.699219"/>
      <use xlink:href="#ArialMT-48" x="122.314453"/>
     </g>
    </g>
    <g id="line2d_23">
     <path d="M 185.22 332.669062 
L 218.22 332.669062 
L 251.22 332.669062 
" style="fill: none; stroke-dasharray: 3,4.95; stroke-dashoffset: 0; stroke: #ff6347; stroke-width: 3"/>
    </g>
    <g id="text_18">
     <!-- Cross Linking -->
     <g style="fill: #262626" transform="translate(277.62 344.219062) scale(0.33 -0.33)">
      <defs>
       <path id="ArialMT-43" d="M 3763 1606 
L 4369 1453 
Q 4178 706 3683 314 
Q 3188 -78 2472 -78 
Q 1731 -78 1267 223 
Q 803 525 561 1097 
Q 319 1669 319 2325 
Q 319 3041 592 3573 
Q 866 4106 1370 4382 
Q 1875 4659 2481 4659 
Q 3169 4659 3637 4309 
Q 4106 3959 4291 3325 
L 3694 3184 
Q 3534 3684 3231 3912 
Q 2928 4141 2469 4141 
Q 1941 4141 1586 3887 
Q 1231 3634 1087 3207 
Q 944 2781 944 2328 
Q 944 1744 1114 1308 
Q 1284 872 1643 656 
Q 2003 441 2422 441 
Q 2931 441 3284 734 
Q 3638 1028 3763 1606 
z
" transform="scale(0.015625)"/>
       <path id="ArialMT-4c" d="M 469 0 
L 469 4581 
L 1075 4581 
L 1075 541 
L 3331 541 
L 3331 0 
L 469 0 
z
" transform="scale(0.015625)"/>
       <path id="ArialMT-6b" d="M 425 0 
L 425 4581 
L 988 4581 
L 988 1969 
L 2319 3319 
L 3047 3319 
L 1778 2088 
L 3175 0 
L 2481 0 
L 1384 1697 
L 988 1316 
L 988 0 
L 425 0 
z
" transform="scale(0.015625)"/>
       <path id="ArialMT-67" d="M 319 -275 
L 866 -356 
Q 900 -609 1056 -725 
Q 1266 -881 1628 -881 
Q 2019 -881 2231 -725 
Q 2444 -569 2519 -288 
Q 2563 -116 2559 434 
Q 2191 0 1641 0 
Q 956 0 581 494 
Q 206 988 206 1678 
Q 206 2153 378 2554 
Q 550 2956 876 3175 
Q 1203 3394 1644 3394 
Q 2231 3394 2613 2919 
L 2613 3319 
L 3131 3319 
L 3131 450 
Q 3131 -325 2973 -648 
Q 2816 -972 2473 -1159 
Q 2131 -1347 1631 -1347 
Q 1038 -1347 672 -1080 
Q 306 -813 319 -275 
z
M 784 1719 
Q 784 1066 1043 766 
Q 1303 466 1694 466 
Q 2081 466 2343 764 
Q 2606 1063 2606 1700 
Q 2606 2309 2336 2618 
Q 2066 2928 1684 2928 
Q 1309 2928 1046 2623 
Q 784 2319 784 1719 
z
" transform="scale(0.015625)"/>
      </defs>
      <use xlink:href="#ArialMT-43"/>
      <use xlink:href="#ArialMT-72" x="72.216797"/>
      <use xlink:href="#ArialMT-6f" x="105.517578"/>
      <use xlink:href="#ArialMT-73" x="161.132812"/>
      <use xlink:href="#ArialMT-73" x="211.132812"/>
      <use xlink:href="#ArialMT-20" x="261.132812"/>
      <use xlink:href="#ArialMT-4c" x="288.916016"/>
      <use xlink:href="#ArialMT-69" x="344.53125"/>
      <use xlink:href="#ArialMT-6e" x="366.748047"/>
      <use xlink:href="#ArialMT-6b" x="422.363281"/>
      <use xlink:href="#ArialMT-69" x="472.363281"/>
      <use xlink:href="#ArialMT-6e" x="494.580078"/>
      <use xlink:href="#ArialMT-67" x="550.195312"/>
     </g>
    </g>
    <g id="line2d_24">
     <path d="M 185.22 379.735312 
L 218.22 379.735312 
L 251.22 379.735312 
" style="fill: none; stroke: #008000; stroke-width: 3; stroke-linecap: round"/>
    </g>
    <g id="text_19">
     <!-- HuRI -->
     <g style="fill: #262626" transform="translate(277.62 391.285312) scale(0.33 -0.33)">
      <defs>
       <path id="ArialMT-52" d="M 503 0 
L 503 4581 
L 2534 4581 
Q 3147 4581 3465 4457 
Q 3784 4334 3975 4021 
Q 4166 3709 4166 3331 
Q 4166 2844 3850 2509 
Q 3534 2175 2875 2084 
Q 3116 1969 3241 1856 
Q 3506 1613 3744 1247 
L 4541 0 
L 3778 0 
L 3172 953 
Q 2906 1366 2734 1584 
Q 2563 1803 2427 1890 
Q 2291 1978 2150 2013 
Q 2047 2034 1813 2034 
L 1109 2034 
L 1109 0 
L 503 0 
z
M 1109 2559 
L 2413 2559 
Q 2828 2559 3062 2645 
Q 3297 2731 3419 2920 
Q 3541 3109 3541 3331 
Q 3541 3656 3305 3865 
Q 3069 4075 2559 4075 
L 1109 4075 
L 1109 2559 
z
" transform="scale(0.015625)"/>
      </defs>
      <use xlink:href="#ArialMT-48"/>
      <use xlink:href="#ArialMT-75" x="72.216797"/>
      <use xlink:href="#ArialMT-52" x="127.832031"/>
      <use xlink:href="#ArialMT-49" x="200.048828"/>
     </g>
    </g>
    <g id="line2d_25">
     <path d="M 185.22 426.414844 
L 218.22 426.414844 
L 251.22 426.414844 
" style="fill: none; stroke: #0000ff; stroke-width: 5; stroke-linecap: round"/>
    </g>
    <g id="text_20">
     <!-- Random -->
     <g style="fill: #262626" transform="translate(277.62 437.964844) scale(0.33 -0.33)">
      <defs>
       <path id="ArialMT-64" d="M 2575 0 
L 2575 419 
Q 2259 -75 1647 -75 
Q 1250 -75 917 144 
Q 584 363 401 755 
Q 219 1147 219 1656 
Q 219 2153 384 2558 
Q 550 2963 881 3178 
Q 1213 3394 1622 3394 
Q 1922 3394 2156 3267 
Q 2391 3141 2538 2938 
L 2538 4581 
L 3097 4581 
L 3097 0 
L 2575 0 
z
M 797 1656 
Q 797 1019 1065 703 
Q 1334 388 1700 388 
Q 2069 388 2326 689 
Q 2584 991 2584 1609 
Q 2584 2291 2321 2609 
Q 2059 2928 1675 2928 
Q 1300 2928 1048 2622 
Q 797 2316 797 1656 
z
" transform="scale(0.015625)"/>
      </defs>
      <use xlink:href="#ArialMT-52"/>
      <use xlink:href="#ArialMT-61" x="72.216797"/>
      <use xlink:href="#ArialMT-6e" x="127.832031"/>
      <use xlink:href="#ArialMT-64" x="183.447266"/>
      <use xlink:href="#ArialMT-6f" x="239.0625"/>
      <use xlink:href="#ArialMT-6d" x="294.677734"/>
     </g>
    </g>
   </g>
  </g>
 </g>
 <defs>
  <clipPath id="pee8704e3be">
   <rect x="155.52" y="103.68" width="622.08" height="665.28"/>
  </clipPath>
 </defs>
</svg>
