Name,pDockQ,NumRes,IF_plDDT,plDDT1,plDDT2,NumDiso1+90,NumDiso1-70-90,NumDiso1-50-70,NumDiso1-50,NumDiso2+90,NumDiso2-70-90,NumDiso2-50-70,NumDiso2-50,NumOverlap,len1,len2
O00148-Q13838,0.691417,366,79.960355,85.223841,85.076986,269,111,2,45,258,122,2,46,47,427,428
O00231-O00232,0.542090,182,80.405659,88.207180,91.487018,269,115,28,10,386,44,21,5,8,422,456
O00231-O00487,0.117335,80,74.224625,87.408626,73.643516,175,231,16,0,51,157,66,36,0,422,310
O00231-Q15008,0.641399,207,83.721449,89.127109,91.439897,266,140,16,0,331,36,13,9,0,422,389
O00232-O00231,0.561475,213,78.883427,90.597544,87.770047,390,22,27,17,278,106,10,28,6,456,422
O00232-O00487,0.208221,108,75.433148,90.968794,74.639129,364,77,11,4,54,160,64,32,2,456,310
O00232-P51665,0.098719,172,61.499360,89.679254,64.554537,346,66,38,6,3,137,110,74,0,456,324
O00303-O15372,0.653505,477,73.176855,69.949328,78.831648,98,125,46,88,108,182,17,45,28,357,352
O00303-Q14152,0.179991,432,57.019213,63.459048,59.110731,0,190,78,89,1,582,293,506,19,357,1382
O00303-Q7L2H7,0.652164,327,77.850887,66.080672,87.614866,78,116,22,141,149,216,9,0,6,357,374
O00303-Q9Y262,0.165084,299,59.964314,64.317955,74.587819,3,184,77,93,65,321,111,67,67,357,564
O00330-P09622,0.613928,372,73.845134,70.043413,88.761002,121,212,33,135,408,62,2,37,78,501,509
O00487-P51665,0.703439,345,82.471478,79.683613,83.328426,134,111,34,31,121,166,31,6,0,310,324
O00487-P62195,0.282801,335,63.496925,65.177774,74.890172,1,146,100,63,42,245,70,49,37,310,406
O00487-Q99460,0.685069,241,85.262656,74.736935,86.382403,106,85,83,36,703,127,17,106,4,310,953
O00506-Q9BUL8,0.602996,253,78.397984,80.508357,85.711368,209,127,20,70,104,82,20,6,9,426,212
O00716-Q5H9I0,0.394736,682,59.744135,55.194344,62.656667,14,151,25,275,15,204,12,174,126,465,405
O14531-Q9BPU6,0.698713,476,77.477332,86.152360,86.756454,447,44,2,79,459,32,4,69,38,572,564
O14579-P53621,0.731153,519,85.254528,87.243052,84.026111,189,103,1,15,636,451,25,112,18,308,1224
O14744-Q9BQA1,0.725935,264,92.475758,93.450989,88.984825,572,44,6,15,282,18,11,31,6,637,342
O14818-P20618,0.293337,153,73.796078,87.372460,82.971701,155,70,13,10,158,42,9,32,6,248,241
O14818-P28062,0.285603,246,67.158049,86.080968,71.369384,140,80,17,11,83,91,23,79,41,248,276
O14818-P28065,0.482989,191,77.331466,86.325927,82.991826,155,61,18,14,102,88,10,19,25,248,219
O14818-P28070,0.484680,261,73.051341,85.855968,72.377273,143,76,16,13,81,90,32,61,28,248,264
O14818-P28072,0.454782,228,73.819211,86.498427,77.269916,156,62,20,10,92,88,20,39,29,248,239
O14818-P28074,0.598352,306,75.560392,86.455282,74.773422,151,66,22,9,94,88,23,58,53,248,263
O14818-P49721,0.452579,158,79.085633,86.689315,84.730100,162,57,16,13,104,68,15,14,7,248,201
O14818-Q99436,0.221002,163,69.924785,85.452339,73.858664,137,81,19,11,91,95,32,59,15,248,277
O14949-P31930,0.303824,152,74.291316,49.146463,88.079729,0,0,37,45,365,67,9,39,10,82,480
O15143-P59998,0.657681,162,89.066358,90.120941,89.014762,310,22,13,27,88,74,5,1,0,372,168
O15143-Q9BPX5,0.571331,161,83.701801,90.772151,85.294837,314,23,8,27,106,19,10,18,0,372,153
O15144-P61158,0.712102,192,93.459271,90.791933,93.200455,242,37,7,14,374,22,13,9,0,300,418
O15145-P61158,0.664907,118,95.683305,95.351461,92.717010,171,3,4,0,369,22,6,21,0,178,418
O15145-P61160,0.535805,103,89.980971,90.462921,93.475355,130,43,5,0,354,28,12,0,5,178,394
O15160-P62875,0.576719,129,87.797442,88.099884,78.025672,256,54,20,16,15,36,6,10,0,346,67
O15212-Q99471,0.660596,156,89.992436,89.168915,88.244740,92,30,2,5,92,54,6,2,4,129,154
O15212-Q9NQP4,0.585219,120,89.584583,88.708992,81.492313,91,31,1,6,66,37,23,8,39,129,134
O15239-P51970,0.056269,191,53.872932,42.502429,55.920349,0,0,19,51,0,64,34,74,22,70,172
O15318-O14802,0.407245,429,64.684965,42.619596,85.858259,0,12,54,157,589,707,56,38,24,223,1390
O15318-Q9BUI4,0.710197,384,82.185313,55.891300,91.457397,33,21,57,112,442,59,15,18,0,223,534
O15318-Q9NW08,0.380257,365,65.633315,41.431928,86.177599,0,0,46,177,651,348,94,40,43,223,1133
O15371-P60228,0.717635,567,78.718783,76.338504,81.648022,223,162,60,103,184,199,11,51,114,548,445
O15372-Q7L2H7,0.106793,182,61.599780,62.045710,80.451872,1,141,115,95,21,308,37,8,3,352,374
O15372-Q99613,0.198414,360,59.596944,71.645710,70.869825,6,243,60,43,226,367,84,236,36,352,913
O15372-Q9Y262,0.152281,310,58.907226,56.138864,73.227961,0,99,105,148,62,318,84,100,25,352,564
O15392-Q53HL2,0.555408,216,78.410926,93.314225,62.214714,129,9,2,2,49,54,66,111,2,142,280
O15511-O15143,0.492588,141,82.455177,84.578079,90.432312,103,14,19,15,308,24,13,27,2,151,372
O15511-P59998,0.602677,171,84.352865,85.633907,84.904881,109,11,19,12,64,90,9,5,0,151,168
O15511-P61160,0.649607,176,86.973409,79.642914,93.948553,59,61,12,19,362,22,10,0,7,151,394
O15514-P62487,0.717652,179,96.220223,90.697676,95.367151,120,8,3,11,155,16,1,0,4,142,172
O15533-P30101,0.708591,412,80.920583,78.509777,85.840752,145,201,45,57,277,188,6,34,43,448,505
O43172-O43395,0.710498,456,79.936404,83.314617,69.640556,336,90,20,76,107,271,167,138,5,522,683
O43172-O94906,0.638966,772,67.010155,79.713908,73.241998,278,121,41,82,371,278,6,286,113,522,941
O43172-Q8WWY3,0.592418,453,70.443422,79.742261,64.834549,281,117,29,95,83,172,37,207,43,522,499
O43172-Q9BUQ8,0.693398,944,69.113856,76.950383,65.278573,258,113,50,101,106,311,115,288,327,522,820
O43242-O00232,0.246095,154,71.810390,78.206779,87.925592,213,190,29,102,296,115,37,8,5,534,456
O43242-O00487,0.348091,352,65.049347,79.205243,68.777000,264,133,64,73,8,165,82,55,39,534,310
O43242-P48556,0.673117,337,79.147329,82.247491,75.673600,320,105,40,69,183,60,21,86,15,534,350
O43242-P55036,0.316799,326,64.917577,78.526667,70.643952,235,171,39,89,108,111,63,95,46,534,377
O43242-Q15008,0.382988,219,71.945708,79.747022,89.601131,242,185,25,82,291,76,12,10,2,534,389
O43242-Q9UNM6,0.207946,149,70.568725,77.194345,85.732128,177,223,28,106,134,218,23,1,2,534,376
O43402-Q8N4V1,0.143741,145,67.341310,86.127429,54.115420,123,64,14,9,0,36,30,65,19,210,131
O43482-Q9NYP9,0.547993,352,71.588097,70.763275,74.415579,70,73,15,71,88,60,42,43,23,229,233
O43521-Q07817,0.348759,225,70.446756,50.670202,72.607210,15,19,43,121,100,40,39,54,11,198,233
O43617-Q8IUR0,0.656201,189,86.322646,89.822111,84.323351,142,20,6,12,118,32,23,15,6,180,188
O43617-Q9Y5R8,0.577831,114,90.148860,91.173667,90.627034,144,20,11,5,101,35,9,0,0,180,145
O43678-P28331,0.686386,168,91.434226,86.117273,90.147001,79,4,2,14,586,75,30,36,0,99,727
O43741-P54619,0.359898,269,68.558253,59.880993,85.363565,40,71,28,133,216,66,25,24,34,272,331
O43809-Q16630,0.446750,390,66.926718,80.587930,55.112686,79,113,2,33,29,185,22,315,11,227,551
O43809-Q8N684,0.556790,366,71.460464,80.908414,60.780467,74,119,1,33,69,118,67,217,30,227,471
O43837-P51553,0.726679,253,93.545138,87.555117,87.806463,308,27,2,48,309,38,3,43,10,385,393
O60216-Q14683,0.539219,839,62.058570,44.093328,75.035093,3,95,56,477,84,790,313,46,105,631,1233
O60216-Q8N3U4,0.595555,1151,61.246820,48.279113,74.270333,1,169,74,387,360,560,28,283,203,631,1231
O60216-Q9UQE7,0.558368,970,61.387103,41.384089,72.147781,0,65,91,475,4,772,392,49,242,631,1217
O60566-Q12834,0.617101,1032,63.129845,63.018629,69.269038,157,373,99,421,172,136,10,181,190,1050,499
O60671-Q99638,0.594188,304,75.443355,90.463298,74.682967,215,48,8,11,219,39,13,120,24,282,391
O60783-P82675,0.063530,93,64.292151,70.292891,67.187326,0,90,10,28,71,171,58,130,17,128,430
O60783-Q96EL2,0.141333,111,70.988739,78.098984,70.431737,8,86,26,8,57,25,34,51,0,128,167
O60825-Q16875,0.660117,357,77.279720,83.224970,83.854250,361,53,6,85,365,61,20,74,4,505,520
O60921-O60671,0.578793,91,94.706923,93.496786,90.291099,242,25,8,5,225,32,10,15,6,280,282
O60921-Q99638,0.609238,227,80.304934,92.625929,75.683427,237,33,4,6,212,43,29,107,15,280,391
O60925-Q99471,0.388254,78,89.211154,89.958443,87.839351,85,32,3,2,96,47,7,4,0,122,154
O60925-Q9UHV9,0.496059,126,84.515476,90.311639,72.788636,80,39,1,2,43,59,6,46,5,122,154
O75306-O75489,0.685113,349,79.875530,81.651469,76.087348,286,82,19,76,136,46,8,74,2,463,264
O75323-Q9BPW8,0.672029,171,89.478012,81.105490,80.873451,204,13,8,61,194,23,8,59,6,286,284
O75461-Q14186,0.544693,491,67.622159,65.668327,64.386854,34,126,9,112,36,182,23,169,40,281,410
O75489-O00217,0.250428,139,73.487266,73.787917,71.256905,117,50,26,71,29,105,31,45,7,264,210
O75489-O43181,0.360127,257,69.129533,74.453371,56.413714,111,64,24,65,0,51,43,81,20,264,175
O75489-O75251,0.284815,108,78.932778,75.501477,67.026854,128,47,22,67,40,85,21,67,0,264,213
O75496-Q9H211,0.227313,427,59.042717,53.885550,68.083791,0,74,7,128,99,196,96,155,30,209,546
O75787-Q15904,0.604605,301,76.093754,80.021571,77.483149,138,143,25,44,121,237,35,77,12,350,470
O75792-Q5TBB1,0.544689,266,75.045489,86.543177,72.663782,192,72,11,24,122,75,23,92,9,299,312
O75792-Q8TDP1,0.656959,170,88.168235,88.516689,79.940854,227,39,8,25,95,26,11,32,2,299,164
O75817-Q9BUL9,0.562447,155,83.901355,83.807000,78.166935,84,26,15,15,105,29,20,45,8,140,199
O75934-Q99459,0.717799,305,87.296656,83.310756,68.129501,90,108,18,9,86,333,189,194,0,225,802
O75934-Q9UMS4,0.701830,446,78.753677,75.724889,87.234702,13,162,26,24,335,118,20,31,50,225,504
O95182-O75489,0.240503,148,72.141959,54.492655,73.423939,2,14,47,50,121,43,27,73,6,113,264
O95299-O75306,0.226475,296,62.811655,79.446958,80.540994,164,108,37,46,270,85,31,77,15,355,463
O95639-Q10570,0.576067,429,70.364802,51.055874,82.516313,8,52,59,150,865,320,52,206,23,269,1443
O95639-Q9C0J8,0.052088,680,42.461029,41.270000,44.725000,0,1,57,211,135,200,63,938,128,269,1336
O95707-O75818,0.526054,221,76.863982,68.205318,88.454518,70,50,14,86,273,49,19,22,19,220,363
O95777-Q9Y333,0.675836,127,95.398661,95.870313,86.573579,92,3,1,0,63,9,23,0,4,96,95
O95926-Q9HCS7,0.680779,345,79.572203,64.912840,82.948491,11,85,94,53,492,226,23,114,28,243,855
O96000-Q9NX14,0.217291,174,68.873966,68.272267,60.598693,0,89,56,27,0,56,44,53,5,172,153
P00325-P00326,0.719745,216,93.501343,95.780347,95.772427,351,22,2,0,351,22,1,1,6,375,375
P00492-Q9NRG1,0.680921,189,88.724074,88.876147,87.965378,144,58,11,5,163,38,13,11,0,218,225
P04406-O14556,0.614470,322,75.720093,89.580866,80.368088,237,74,10,14,277,36,8,87,7,335,408
P04899-P09471,0.703966,347,82.476744,88.652451,87.413870,249,71,30,5,227,91,30,6,56,355,354
P04908-P62805,0.637125,171,86.522690,78.145000,79.024660,63,24,24,19,61,5,29,8,4,130,103
P04908-P68431,0.619276,175,84.953429,78.995615,71.267868,60,35,18,17,40,33,29,34,6,130,136
P04908-P84243,0.665169,177,88.212599,80.622615,75.276912,70,26,21,13,62,12,48,14,4,130,136
P04908-Q71DI3,0.646072,165,87.794303,79.356077,73.061324,60,35,18,17,43,30,47,16,4,130,136
P05141-P45880,0.731253,432,87.905116,88.080973,88.413673,148,147,3,0,203,76,3,12,119,298,294
P05198-P41091,0.624574,159,86.901572,90.175968,89.034915,255,38,9,13,337,95,32,8,4,315,472
P05386-P05387,0.164180,154,67.810390,63.041667,63.044261,18,39,6,51,30,27,7,51,0,114,115
P05388-P05386,0.243485,271,64.466531,75.146972,61.537105,146,75,10,86,2,55,6,51,26,317,114
P05388-P05387,0.162755,213,63.629531,75.474858,61.177826,145,82,29,61,1,59,5,50,15,317,115
P05388-P30050,0.044533,79,60.012405,62.661420,78.268970,0,165,47,105,0,138,23,4,2,317,165
P05423-Q9NVU0,0.614161,750,66.034573,50.799397,75.694068,37,75,18,268,163,364,57,124,79,398,708
P07195-P00338,0.732609,296,94.919561,95.400749,95.009578,318,15,1,0,316,13,3,0,0,334,332
P07316-P07315,0.521612,88,92.461250,95.335086,95.074770,166,7,2,0,165,7,2,0,11,175,174
P07355-P60903,0.379054,121,80.698595,93.868938,83.894536,300,24,9,6,33,56,4,4,2,339,97
P07437-Q3ZCM7,0.719738,417,83.304700,86.835203,87.240811,238,175,16,15,253,161,14,16,114,444,444
P07737-P68032,0.694562,140,95.985571,95.262786,94.261459,132,7,1,0,346,15,9,7,0,140,377
P07814-O43324,0.412877,347,67.204755,80.897083,75.402471,655,593,94,170,0,143,20,11,84,1512,174
P07814-Q13155,0.591052,646,66.522105,81.122123,66.347344,630,632,91,159,11,172,34,103,141,1512,320
P07992-Q92889,0.728854,555,82.957405,72.674781,79.657445,96,101,13,87,402,328,41,145,20,297,916
P08238-Q16543,0.630846,307,77.290293,79.888660,79.349762,303,268,57,96,109,192,34,43,8,724,378
P08263-O15217,0.715501,173,96.231040,95.994820,96.068153,218,3,1,0,214,7,1,0,0,222,222
P08559-P11177,0.714681,251,89.540876,89.816282,90.847326,317,40,5,28,311,19,2,27,0,390,359
P08574-P07919,0.677329,134,94.525149,80.246615,86.525495,220,19,1,85,63,7,19,2,0,325,91
P08754-P09471,0.701650,333,82.687087,88.358164,88.079520,242,78,28,6,236,82,29,7,48,354,354
P08754-P62873,0.653980,145,90.726552,92.047062,90.366824,285,62,4,3,272,32,32,4,0,354,340
P08865-P15880,0.437252,247,72.157206,79.076339,72.937372,173,49,8,65,105,96,17,75,41,295,293
P08865-P46782,0.375336,345,66.114870,75.230508,72.236471,171,28,19,77,57,75,21,51,113,295,204
P08865-P63220,0.696660,159,93.902390,84.180712,89.195783,187,42,33,33,65,6,12,0,4,295,83
P09210-Q16772,0.717617,175,96.630514,96.078604,95.767162,212,9,1,0,208,13,1,0,0,222,222
P09234-P62318,0.338033,79,86.874177,66.894214,78.679683,47,14,60,38,71,12,21,22,0,159,126
P09382-P17931,0.361814,223,71.000090,91.962148,68.317680,109,22,1,3,126,11,2,111,34,135,250
P09467-O00757,0.706162,257,87.334669,90.652337,89.867552,280,27,8,23,276,26,15,22,2,338,339
P09622-O00330,0.664998,432,75.228565,89.133910,70.349481,417,53,2,37,121,217,30,133,87,509,501
P09884-P49642,0.278180,521,58.868983,72.318160,83.090952,508,491,70,393,174,188,26,32,71,1462,420
P0C0S8-P62805,0.550511,168,82.034821,75.059462,72.789126,27,61,17,25,22,43,15,23,4,130,103
P0C862-B2RNN3,0.282181,649,56.993544,57.631291,58.127778,110,24,2,197,111,22,3,197,316,333,333
P0CG13-Q9BVC3,0.696570,239,86.900879,78.603388,92.679669,57,27,17,20,341,38,13,1,16,121,393
P10276-P10826,0.624627,569,69.439104,71.683636,72.118000,176,133,17,136,171,137,18,129,124,462,455
P10276-P13631,0.595686,596,67.560503,71.488420,72.448502,191,116,12,143,184,124,12,134,103,462,454
P10321-P13747,0.312671,644,57.964829,60.434426,58.381089,67,107,13,179,11,158,10,179,273,366,358
P11802-P42773,0.243134,86,81.061047,83.643432,87.200000,170,79,27,27,106,49,3,10,0,303,168
P12004-Q15004,0.381598,189,73.920159,92.155900,46.329459,219,36,2,4,0,8,22,81,2,261,111
P12235-Q9Y277,0.714842,277,88.011227,86.991711,90.575548,140,139,18,1,199,80,3,1,74,298,283
P12277-Q96DX5,0.713134,350,84.104486,90.902546,85.373061,296,66,11,8,218,40,2,34,64,381,294
P12956-P13010,0.736866,963,84.665410,83.932217,83.483620,262,278,15,54,404,227,11,90,100,609,732
P13010-Q8IW19,0.432667,838,58.936289,79.101311,43.566243,225,373,42,92,6,96,42,367,134,732,511
P13804-P38117,0.735596,333,96.927057,94.070120,96.291922,311,4,1,17,247,7,1,0,14,333,255
P13984-P35269,0.661008,386,76.334845,79.745622,58.930967,92,96,39,22,68,134,65,250,32,249,517
P14635-P06493,0.691961,227,87.074141,75.689515,93.380269,264,15,17,137,255,38,4,0,0,433,297
P14678-P08621,0.083613,223,56.917892,55.228625,67.327208,32,47,7,154,45,189,95,108,37,240,437
P14678-P62308,0.397807,136,79.465147,58.798000,85.822895,46,36,28,130,39,29,5,3,9,240,76
P14678-P62318,0.567587,178,81.901854,61.700000,81.019524,73,10,31,126,79,5,18,24,2,240,126
P14868-O43324,0.397004,139,79.084460,90.433633,82.215115,423,45,7,26,39,118,8,9,26,501,174
P14868-Q13155,0.640905,244,81.182869,91.131896,73.948281,430,39,11,21,161,45,36,78,2,501,320
P14868-Q15046,0.733573,520,87.289519,90.032475,85.395762,392,72,16,21,415,87,33,62,21,501,597
P14927-P22695,0.311001,81,85.240617,86.108198,88.916600,71,29,5,6,376,32,9,36,0,111,453
P15880-P46781,0.615053,262,78.556756,73.604676,81.395515,121,77,20,75,105,53,13,23,28,293,194
P15880-P62244,0.679803,220,86.102182,74.653652,88.869308,148,51,19,75,82,44,1,3,27,293,130
P15927-P35244,0.682194,151,92.847483,76.463963,94.958595,128,57,21,64,113,4,3,1,0,270,121
P17980-O00487,0.427731,313,68.880128,75.209271,66.980258,114,192,70,63,5,146,98,61,17,439,310
P17980-P35998,0.547231,528,66.930322,69.662437,71.230346,15,234,96,94,35,245,66,87,23,439,433
P17980-P55036,0.602505,291,76.439175,75.078770,68.515172,125,171,72,71,89,111,70,107,23,439,377
P17980-P62195,0.581217,508,68.668209,74.435945,75.078202,77,229,75,58,20,284,59,43,38,439,406
P17980-P62333,0.711588,481,79.458337,81.132620,84.507044,130,236,31,42,100,255,29,5,4,439,389
P17980-Q9UNM6,0.379620,267,69.285506,72.174214,85.365080,85,204,51,99,119,225,32,0,40,439,376
P18124-P46778,0.272470,94,80.807979,89.356895,77.361875,178,58,8,4,15,105,32,8,4,248,160
P18124-Q02543,0.531901,92,92.039783,93.065081,82.226307,227,12,7,2,110,25,20,21,0,248,176
P18124-Q07020,0.045825,27,80.478889,89.404274,77.391915,178,58,5,7,76,55,26,31,0,248,188
P18754-O00629,0.726187,516,82.659089,93.204513,82.944280,365,37,13,6,404,9,4,104,42,421,521
P18754-P62826,0.707098,206,91.144078,92.786888,86.936620,378,20,3,20,157,27,17,15,0,421,216
P19367-P52789,0.703474,363,81.765675,85.701003,86.272901,309,571,19,18,355,523,21,18,8,917,917
P19387-P52435,0.697145,198,90.081818,91.504545,86.886496,220,39,15,1,80,20,12,5,0,275,117
P19387-P61218,0.294681,122,77.327951,87.399055,69.437008,167,82,18,8,0,79,25,23,5,275,127
P19387-P62875,0.510440,131,84.438015,88.246800,74.951940,177,78,12,8,2,48,4,13,0,275,67
P19404-P49821,0.732856,397,90.494207,86.543092,92.293103,202,7,1,39,410,22,7,25,2,249,464
P20231-P20231,0.287701,177,71.507966,85.486182,85.572655,177,62,6,30,177,62,6,30,12,275,275
P20248-P49918,0.278508,454,60.204097,73.804190,44.910696,239,21,11,161,27,36,12,241,61,432,316
P20248-P78396,0.589707,753,64.927822,67.601667,66.144860,135,113,22,162,148,106,27,184,83,432,465
P20339-P51148,0.412681,209,73.575885,82.366791,81.756620,141,26,6,42,141,26,4,45,14,215,216
P20618-P25786,0.468009,165,78.983273,82.841826,81.875475,139,65,5,32,149,64,14,36,8,241,263
P20618-P28062,0.432108,232,72.814009,82.797884,81.533478,153,44,11,33,170,39,28,39,12,241,276
P20618-P28070,0.439541,194,75.545515,86.094232,77.136591,180,23,11,27,143,38,14,69,7,241,264
P20618-P28074,0.325054,191,71.817487,83.912407,83.254068,168,31,11,31,178,28,13,44,9,241,263
P20618-Q99436,0.324769,234,69.134744,82.590207,75.585415,132,71,6,32,109,78,32,58,12,241,277
P20671-P62805,0.550881,170,81.862412,74.409769,74.747864,31,55,15,29,22,44,22,15,4,130,103
P20839-P12268,0.695729,417,78.771942,85.082335,83.765370,207,259,34,14,207,254,28,25,27,514,514
P21266-Q03013,0.717449,168,97.349167,95.712978,97.104725,216,4,2,3,217,1,0,0,0,225,218
P21281-P36543,0.684014,248,84.697863,87.986928,91.615487,398,53,12,48,178,44,3,1,4,511,226
P23396-P46783,0.560493,139,85.659065,79.688848,72.646061,109,76,29,29,92,3,4,66,0,243,165
P23396-P60866,0.253392,143,73.192168,79.119300,67.145882,97,88,23,35,0,63,27,29,2,243,119
P24928-P36954,0.459228,194,76.240412,70.997670,70.461280,372,1004,61,533,0,86,18,21,6,1970,125
P24928-P52434,0.689784,208,88.208077,71.380294,86.535333,446,931,59,534,86,50,5,9,2,1970,150
P24928-P52435,0.537591,118,87.499153,71.115127,86.106667,415,954,67,534,57,52,7,1,0,1970,117
P24928-P61218,0.279994,604,57.565927,71.321157,67.959843,423,966,45,536,19,60,4,44,13,1970,127
P24928-P62487,0.109905,125,66.691280,70.177503,82.018895,285,1077,71,537,12,145,15,0,2,1970,172
P24941-P24864,0.703868,286,85.279196,92.755604,77.839561,258,31,1,8,256,30,10,114,24,298,410
P24941-P46527,0.610166,365,73.887753,89.278490,53.265303,235,34,10,19,30,27,5,136,37,298,198
P24941-P61024,0.459111,80,91.647500,87.176275,86.150253,208,50,22,18,49,21,3,6,0,298,79
P25205-P33991,0.552776,713,64.063955,70.872290,68.038227,4,540,129,135,0,536,165,162,35,808,863
P25205-P33992,0.698459,705,72.804383,75.106807,76.570790,48,569,88,103,43,525,107,59,54,808,734
P25205-P33993,0.669635,463,74.754406,71.432884,77.258470,4,555,109,140,13,577,97,32,0,808,719
P25208-Q13952,0.313297,533,59.730038,62.309082,52.626026,84,8,7,108,92,16,33,317,162,207,458
P25786-P25788,0.640959,180,85.942667,86.695019,91.739843,200,24,10,29,206,38,3,8,4,263,255
P25786-P28070,0.488039,151,81.150265,82.783042,76.193220,165,45,17,36,112,75,18,59,4,263,264
P25786-P28072,0.469801,231,74.162900,81.217262,77.562971,145,61,22,35,90,84,21,44,2,263,239
P25786-P28074,0.452715,284,70.880845,80.046274,73.855627,136,69,19,39,87,95,22,59,42,263,263
P25786-P49720,0.226474,141,72.224255,76.807795,84.125561,103,88,29,43,90,87,25,3,11,263,205
P25786-P49721,0.327693,137,76.767080,79.644677,82.950000,132,75,16,40,89,83,15,14,0,263,201
P25786-P60900,0.614168,160,86.136125,85.988213,91.405163,184,41,6,32,204,29,2,11,2,263,246
P25786-Q99436,0.263462,296,64.199223,76.899772,67.529495,90,107,26,40,17,141,41,78,27,263,277
P25787-P28062,0.292314,233,68.065794,84.951496,68.748551,158,41,8,27,61,100,30,85,11,234,276
P25787-P28070,0.504196,290,72.378414,83.872949,66.790189,125,77,9,23,32,114,37,81,57,234,264
P25787-P28072,0.492185,224,75.387589,85.472949,75.100126,152,49,7,26,78,88,24,49,10,234,239
P25787-P28074,0.413218,256,70.901992,85.011923,71.478631,153,47,9,25,67,101,23,72,22,234,263
P25787-P49720,0.238731,114,76.036842,84.216795,80.972878,139,65,6,24,66,105,15,19,9,234,205
P25787-P49721,0.526580,187,79.340107,84.923932,83.700846,141,62,7,24,93,78,17,13,0,234,201
P25787-P60900,0.654435,170,87.954529,90.874615,92.010610,186,32,7,9,209,24,2,11,2,234,246
P25787-Q99436,0.389549,230,71.514174,85.278504,72.142924,159,43,8,24,65,107,50,55,37,234,277
P25788-P28065,0.427509,70,93.152714,87.162824,85.465845,176,47,20,12,133,58,10,18,0,255,219
P25788-P28066,0.594007,178,83.226517,89.754353,89.342863,192,41,14,8,181,38,10,12,2,255,241
P25788-P28070,0.329127,148,75.633581,87.557647,76.105417,174,57,12,12,109,72,25,58,2,255,264
P25788-P28072,0.236722,141,72.682624,84.779098,73.980251,142,74,24,15,63,101,25,50,13,255,239
P25788-P28074,0.209982,201,66.676965,85.521725,74.493954,157,64,19,15,95,86,24,58,32,255,263
P25788-P49721,0.442645,122,82.958689,84.271451,83.581095,144,72,20,19,97,73,17,14,0,255,201
P25788-P60900,0.681392,162,91.468148,91.476510,93.970854,209,31,10,5,227,12,2,5,2,255,246
P25788-Q99436,0.402841,241,71.341037,84.306902,69.987184,135,82,27,11,48,112,58,59,31,255,277
P25789-P28062,0.342845,225,70.248089,85.117395,72.327029,153,72,17,19,87,90,32,67,2,261,276
P25789-P28070,0.410890,262,70.531412,86.041839,69.847652,165,62,17,17,56,98,50,60,42,261,264
P25789-P28072,0.305820,174,72.418046,84.561839,73.200669,140,85,16,20,52,107,30,50,12,261,239
P25789-P28074,0.381866,265,69.451208,84.631762,71.165741,149,74,19,19,79,81,31,72,46,261,263
P25789-P49721,0.489735,73,94.975205,87.531686,88.217065,182,49,13,17,142,38,8,13,0,261,201
P25789-P60900,0.629912,169,86.221124,91.413831,91.734187,214,32,7,8,207,26,2,11,2,261,246
P25789-Q99436,0.433023,241,72.339295,84.046475,70.344440,134,89,20,18,45,124,49,59,4,261,277
P26373-P42766,0.171842,80,78.449000,71.115782,80.937642,0,141,44,26,0,115,8,0,4,211,123
P26373-P46776,0.339755,108,81.139722,74.979858,65.597500,6,139,55,11,11,64,23,50,0,211,148
P26373-P61313,0.034607,76,50.242237,69.095213,74.565049,0,118,67,26,25,115,38,26,0,211,204
P26373-P62906,0.031322,0,0.000000,55.926919,86.423410,0,13,141,57,62,153,1,1,0,211,217
P26373-Q07020,0.033042,27,59.771111,63.458152,74.045106,0,67,117,27,25,102,29,32,0,211,188
P27694-P15927,0.484738,230,74.751957,80.553782,70.231296,230,289,26,71,72,106,17,75,5,616,270
P27694-P35244,0.235818,77,82.759610,83.362695,85.223471,359,172,14,71,76,27,9,9,0,616,121
P27707-Q16854,0.543361,239,76.457531,86.121115,83.611047,193,33,3,31,181,50,5,41,8,260,277
P28065-P40306,0.285157,235,67.704851,80.166621,69.091429,72,109,20,18,69,102,19,83,49,219,273
P28066-P20618,0.433416,101,85.986535,82.120332,83.104398,135,51,29,26,150,51,8,32,4,241,241
P28066-P25786,0.574549,181,81.971602,88.579046,86.287833,174,46,9,12,184,43,8,28,2,241,263
P28066-P28062,0.190810,136,71.014559,84.179917,73.151884,154,32,32,23,111,70,15,80,0,241,276
P28066-P28065,0.150953,151,67.268079,79.789295,82.148767,112,70,31,28,96,86,19,18,21,241,219
P28066-P28070,0.406303,238,71.618403,83.626805,77.005379,145,54,15,27,112,77,15,60,20,241,264
P28066-P28072,0.108060,159,63.358553,79.673195,76.535607,116,66,28,31,76,98,25,40,14,241,239
P28066-P28074,0.274835,185,70.417838,83.591535,77.217148,147,39,36,19,121,74,10,58,17,241,263
P28066-P49721,0.288294,119,77.472605,79.142116,84.076020,109,67,37,28,93,80,16,12,2,241,201
P28066-P60900,0.606586,174,84.290345,89.596639,91.339146,190,29,7,15,200,33,1,12,2,241,246
P28066-Q99436,0.141060,199,63.142060,80.133734,71.032383,106,75,39,21,66,107,36,68,40,241,277
P28070-P28062,0.158285,269,60.734387,72.253447,70.874928,85,87,29,63,77,89,39,71,68,264,276
P28070-P28072,0.254601,180,69.997333,76.897841,79.870921,121,81,3,59,111,83,6,39,4,264,239
P28070-P28074,0.495469,380,68.789789,73.297083,74.489620,88,86,29,61,100,83,21,59,93,264,263
P28070-Q99436,0.207272,294,62.101735,71.039356,69.833321,76,92,30,66,70,95,30,82,99,264,277
P28070-Q99460,0.579663,255,77.136510,68.191439,85.699780,32,127,38,67,637,191,28,97,38,264,953
P28072-Q99436,0.222699,263,63.990798,75.351464,68.139061,70,102,28,39,56,112,27,82,63,239,277
P28074-P28072,0.407155,258,70.605388,71.430494,75.050795,75,87,26,75,82,85,21,51,31,263,239
P28074-P49721,0.669686,337,78.838754,75.664030,85.713632,104,80,20,59,107,73,10,11,78,263,201
P28074-Q99436,0.178492,309,60.280680,72.494411,67.845921,80,95,29,59,52,113,27,85,76,263,277
P28161-Q03013,0.717184,167,97.382635,97.135550,97.111789,218,0,0,0,217,1,0,0,0,218,218
P28331-O75489,0.340404,250,68.826960,88.085997,66.935985,520,133,37,37,78,61,27,98,16,727,264
P28331-P19404,0.341569,113,80.433009,90.039560,82.817189,578,99,15,35,155,53,4,37,6,727,249
P28331-P49821,0.576343,184,81.800326,90.175708,89.622823,566,125,4,32,370,60,5,29,2,727,464
P28340-P49005,0.718438,354,85.255706,85.671843,85.708337,660,319,38,90,315,86,25,43,0,1107,469
P28482-P27361,0.723082,454,83.193987,88.299806,85.015567,253,68,28,11,245,76,28,30,133,360,379
P28749-P20248,0.454091,873,59.164891,67.556133,66.275926,146,485,77,360,112,138,13,169,214,1068,432
P29083-P29084,0.714770,396,82.735732,71.389408,74.037285,197,62,26,154,168,10,24,89,23,439,291
P29084-P13984,0.347855,222,70.591396,69.138007,74.015020,71,85,47,88,15,154,61,19,0,291,249
P30050-P05388,0.216950,122,73.947541,77.762667,64.654511,1,131,29,4,0,183,34,100,11,165,317
P30101-P07237,0.704339,454,78.912775,84.510673,83.102717,225,243,2,35,226,227,8,47,59,505,508
P30153-P63151,0.699694,200,90.315650,92.534601,87.486823,493,88,1,7,265,154,17,11,0,589,447
P30153-Q15172,0.679462,247,84.256599,92.650662,85.400782,531,45,2,11,327,90,20,49,0,589,486
P30260-Q9BS18,0.212128,261,63.638352,71.071311,36.424730,444,52,21,307,0,0,0,74,30,824,74
P30281-P49918,0.591523,378,72.550503,84.081884,48.196266,199,45,8,40,29,40,41,206,8,292,316
P31150-P51153,0.289560,171,72.057778,91.984497,76.184138,378,53,3,13,77,66,22,38,13,447,203
P31150-Q15286,0.445677,162,78.444877,92.021723,77.493781,372,60,6,9,70,80,21,30,2,447,201
P31150-Q9BZG1,0.584357,230,78.825217,92.766890,80.249421,387,48,5,7,116,84,30,29,3,447,259
P31153-Q9NZL9,0.669697,217,85.290461,92.182304,90.028892,339,41,3,12,270,26,29,9,3,395,334
P31371-Q9NP95,0.270982,247,66.583887,74.963942,74.226919,109,32,5,62,111,28,5,67,56,208,211
P31946-P61981,0.676289,131,94.843664,93.480732,94.175223,215,18,5,8,218,20,4,5,0,246,247
P31946-P62258,0.682234,132,95.409621,93.007886,92.102980,216,15,4,11,214,21,3,17,0,246,255
P31946-P63104,0.662091,130,93.505231,92.551748,90.648571,211,21,5,9,201,28,6,10,0,246,245
P31946-Q04917,0.671637,131,94.326336,93.075122,94.659187,211,22,5,8,219,21,5,1,0,246,246
P32119-P30048,0.719090,274,89.339343,95.848485,81.497461,193,2,1,2,192,3,2,59,14,198,256
P32322-Q9UKK9,0.264430,163,71.757301,83.269624,86.071461,214,57,3,45,165,29,3,22,31,319,219
P32780-Q13888,0.547249,524,67.012252,70.627883,79.624456,163,147,79,159,142,160,53,40,2,548,395
P32780-Q13889,0.603230,622,67.445756,67.682427,73.963312,87,220,64,177,76,124,59,49,90,548,308
P32780-Q92759,0.365231,294,67.655578,66.603047,84.356472,71,209,100,168,131,291,23,17,10,548,462
P32969-Q02543,0.515961,135,84.153185,87.885937,83.236534,109,74,7,2,82,66,14,14,0,192,176
P33552-P06493,0.471189,77,92.980779,88.674304,89.336936,62,8,4,5,220,48,20,9,0,79,297
P33991-P33992,0.602176,605,67.689868,68.561367,74.120027,1,535,162,165,9,538,123,64,19,863,734
P33991-Q14566,0.641496,752,67.419242,69.489282,72.233812,5,567,130,161,10,580,95,136,57,863,821
P33992-P25205,0.698207,712,72.662725,76.411989,75.237983,40,524,111,59,61,561,82,104,58,734,808
P35249-P40937,0.724683,304,89.654178,84.809366,86.814235,218,104,7,34,185,133,6,16,0,363,340
P35250-P35249,0.692486,365,80.129973,82.915028,81.337824,154,158,4,38,81,238,10,34,21,354,363
P35250-P40937,0.689950,319,81.685204,85.351158,85.660765,249,65,3,37,153,158,11,18,4,354,340
P35251-P40938,0.651309,481,72.928482,58.239233,85.262247,57,439,103,549,122,212,10,12,0,1148,356
P35269-P13984,0.639347,356,75.863258,58.599787,81.050402,67,133,71,246,99,98,36,16,39,517,249
P36543-O75348,0.726646,293,91.111706,91.386460,89.994576,205,8,5,8,90,22,5,1,0,226,118
P36578-P18124,0.425975,98,86.255612,71.973583,85.324234,20,237,112,58,73,160,4,11,0,427,248
P36578-P61313,0.049802,196,51.746531,66.014192,69.952353,11,213,77,126,3,131,17,53,23,427,204
P36578-Q02878,0.035418,152,44.710658,64.806979,60.470451,0,219,104,104,0,126,52,110,24,427,288
P36578-Q07020,0.447663,137,81.192190,71.725527,72.368404,19,253,73,82,6,119,27,36,0,427,188
P37198-Q7Z3B4,0.191542,873,51.544777,45.956073,62.891992,0,117,69,336,0,280,90,137,415,522,507
P37198-Q9BVL2,0.054172,1102,39.981951,40.307126,39.631636,0,19,156,347,0,2,161,436,678,522,599
P38606-P21281,0.723469,394,85.305660,92.974846,86.779374,520,91,5,1,382,65,11,53,7,617,511
P38936-O96020,0.453726,207,75.119807,56.291951,78.061931,37,18,12,97,227,48,32,97,4,164,404
P38936-P12004,0.675706,320,80.102406,54.413963,92.869962,16,18,45,85,227,28,3,3,42,164,261
P38936-P20248,0.284388,307,64.518925,54.123902,73.261782,4,49,11,100,235,19,15,163,11,164,432
P38936-P30281,0.659556,250,82.220040,58.229146,85.286130,25,34,19,86,216,27,11,38,2,164,292
P39019-P62249,0.040789,59,61.671525,83.552552,74.940342,67,51,27,0,21,79,20,26,0,145,146
P39019-P62269,0.164799,59,83.810339,86.901793,76.301645,77,59,9,0,42,67,17,26,0,145,152
P39023-P62829,0.367610,126,79.597222,86.194069,81.841286,251,96,45,11,49,69,9,13,6,403,140
P39023-P83731,0.363080,129,79.043798,87.293573,65.253758,244,118,30,11,14,61,30,52,0,403,157
P39656-P04844,0.733041,424,89.687524,86.931272,89.306244,344,65,4,43,479,109,15,28,4,456,631
P39748-P12004,0.655418,184,86.701087,88.010789,92.523295,277,66,13,24,215,40,2,4,6,380,261
P40227-P50990,0.708363,303,85.228383,89.423220,88.434179,349,159,9,14,340,175,9,24,4,531,548
P40429-P18077,0.487573,122,84.733607,88.732759,79.223091,136,54,10,3,4,88,11,7,14,203,110
P40429-P39023,0.224979,89,79.552809,87.182266,84.710149,94,98,9,2,195,161,32,15,0,203,403
P40429-P50914,0.324886,109,80.397798,87.847094,68.748047,107,83,12,1,38,96,7,74,2,203,215
P40429-Q02543,0.174578,76,79.555132,88.328079,80.441136,136,55,6,6,63,72,25,16,2,203,176
P40938-P35249,0.717567,318,86.600629,89.504972,84.762617,228,113,13,2,229,92,9,33,3,356,363
P40939-P55084,0.570805,139,86.167626,91.638362,88.121646,677,49,1,36,357,73,3,41,0,763,474
P41091-P20042,0.550901,338,72.201627,88.742585,59.988829,304,143,20,5,61,81,19,172,30,472,333
P41227-Q9BXJ9,0.726826,440,85.106705,74.874809,90.344711,134,31,5,65,712,87,23,44,30,235,866
P42025-P61163,0.736879,590,91.206203,90.977872,90.830931,291,71,7,7,286,79,4,7,240,376,376
P42025-Q9NZ32,0.673692,188,88.027979,92.058245,89.200815,316,43,9,8,329,50,11,27,0,376,417
P43487-P62826,0.721152,308,88.156234,84.485323,89.968102,130,34,16,21,163,30,19,4,10,201,216
P43686-O00487,0.393220,399,65.046291,73.187608,67.831097,42,232,84,60,4,164,88,54,64,418,310
P43686-O75832,0.673293,205,86.556049,78.939187,93.041150,155,160,57,46,205,16,4,1,0,418,226
P43686-P51665,0.199999,276,62.484348,75.460694,68.008179,58,242,65,53,0,166,113,45,10,418,324
P43686-P55036,0.276777,377,62.032467,73.503636,66.584430,53,228,73,64,31,170,69,107,66,418,377
P43686-P62195,0.633254,467,72.152976,77.036411,77.269581,48,286,41,43,20,304,49,33,14,418,406
P43686-Q99460,0.682684,388,78.198840,72.338995,82.160504,4,278,77,59,353,468,15,117,14,418,953
P46060-P63279,0.674854,253,83.418300,85.734872,91.308354,433,62,14,78,109,46,3,0,0,587,158
P46527-P20248,0.377070,249,70.078876,56.039192,72.451991,39,28,9,122,235,19,14,164,7,198,432
P46527-P30281,0.610620,333,75.078679,57.144394,85.047466,47,20,9,122,210,34,9,39,18,198,292
P46777-P27635,0.074081,65,72.085385,84.578249,83.727477,184,62,44,7,99,69,43,3,0,297,214
P46777-P46778,0.124373,76,75.764211,84.784680,74.903188,183,60,37,17,0,112,43,5,0,297,160
P46777-P62913,0.287607,172,71.902500,78.913232,77.230225,145,63,54,35,2,141,26,9,18,297,178
P46779-P36578,0.473281,147,81.013197,84.141241,68.569625,48,75,4,10,73,156,84,114,2,137,427
P46779-P62910,0.434444,106,85.136038,84.008978,81.447704,39,84,14,0,20,102,9,4,0,137,135
P46781-P62847,0.032262,26,54.581154,82.950825,78.902481,111,55,7,21,39,66,12,16,0,194,133
P46782-P46783,0.609855,291,76.822027,78.663039,67.916788,92,60,18,34,61,32,3,69,42,204,165
P46782-P62249,0.222422,148,71.340473,79.126078,74.993425,89,67,15,33,27,77,22,20,15,204,146
P46782-P62851,0.358835,101,83.068614,83.057451,65.963280,114,49,16,25,46,17,10,52,0,204,125
P46783-P25398,0.438364,98,86.750102,71.357333,87.650000,80,15,5,65,94,28,1,9,0,165,132
P47755-P47756,0.733132,317,94.311073,93.718357,92.315487,261,9,3,13,241,9,19,8,2,286,277
P47755-Q9BTE1,0.635836,219,82.463425,85.262448,93.433187,188,48,10,40,162,15,3,2,47,286,182
P48426-P78356,0.616433,272,78.108934,84.925246,84.134567,299,42,8,57,304,38,11,63,20,406,416
P48426-Q8TBX8,0.523546,267,74.167079,84.494828,81.933112,294,41,13,58,274,61,13,73,21,406,421
P48556-O00487,0.273092,330,63.330394,72.960714,72.484742,156,70,28,96,53,129,90,38,39,350,310
P48556-Q9UNM6,0.618504,287,77.484007,74.881171,90.250213,161,79,21,89,262,110,4,0,8,350,376
P48643-P40227,0.692077,370,79.894676,86.129778,86.506478,274,218,31,18,274,215,18,24,23,541,531
P48643-P78371,0.726843,383,87.099687,89.021109,90.440336,384,123,18,16,405,109,10,11,8,541,535
P48643-Q99832,0.728383,406,87.018177,90.951331,89.209871,428,85,19,9,392,115,13,23,4,541,543
P49005-Q9HCU8,0.500315,229,75.379825,85.043625,64.298598,312,78,26,53,6,49,18,34,8,469,107
P49336-P24863,0.631317,299,77.677090,78.295754,90.560883,286,51,19,108,248,11,5,19,17,464,283
P49354-P49356,0.733417,460,88.871326,84.717942,90.373661,300,12,2,65,369,23,14,31,6,379,437
P49368-P17987,0.725572,380,86.650237,89.605174,88.889532,406,108,11,20,398,117,19,22,4,545,556
P49368-P40227,0.721950,351,86.452564,89.632477,91.383315,428,81,8,28,435,74,10,12,4,545,531
P49450-Q8NCD3,0.076180,564,47.755780,66.122714,39.679278,0,78,28,34,0,31,64,653,59,140,748
P49642-P49643,0.494961,130,83.927923,88.825167,80.083026,324,53,26,17,163,244,46,56,0,420,509
P49720-P28074,0.283110,159,72.844151,88.244195,81.290951,141,40,21,3,161,41,15,46,0,205,263
P49720-P60900,0.182203,103,74.785825,84.122732,84.926545,87,91,23,4,144,70,15,17,0,205,246
P49720-Q99436,0.638301,276,79.229783,83.230488,79.810903,101,70,16,18,76,150,26,25,6,205,277
P49721-O14818,0.466989,157,79.721274,85.150697,86.391169,106,67,14,14,155,64,17,12,6,201,248
P49721-P28062,0.286012,193,70.269585,86.245473,69.525761,113,64,13,11,72,94,28,82,12,201,276
P49721-P28072,0.438863,192,75.670677,84.065771,75.355523,101,70,12,18,68,103,27,41,12,201,239
P49721-P28074,0.565034,280,75.206857,84.996020,75.133422,99,80,11,11,93,91,20,59,56,201,263
P49721-P49720,0.491664,120,85.194500,89.165821,86.233902,140,45,11,5,130,46,18,11,0,201,205
P49721-Q99436,0.230828,191,68.235759,82.770149,68.477437,88,83,19,11,48,110,45,74,30,201,277
P49770-Q13144,0.625970,204,82.916961,86.958547,83.199598,215,99,12,25,431,169,23,98,0,351,721
P49821-P19404,0.733179,394,90.927081,92.095000,86.734699,410,19,10,25,202,7,1,39,0,464,249
P50213-O43837,0.726383,255,93.267020,91.130656,86.375377,312,25,4,25,288,48,1,48,10,366,385
P50213-P51553,0.726048,251,93.374143,90.845082,86.628677,308,29,6,23,298,44,4,47,10,366,393
P50613-P51948,0.681495,406,77.487266,82.286127,76.137864,184,97,20,45,21,211,50,27,50,346,309
P50616-Q9UIV1,0.617837,484,70.899545,58.247188,88.344211,106,10,9,220,234,19,4,28,55,345,285
P50750-O60563,0.419287,387,66.169070,87.008790,53.744339,278,43,19,32,165,72,36,453,4,372,726
P50914-P40429,0.449399,97,87.390515,68.304093,86.062759,29,102,10,74,81,105,16,1,0,215,203
P50914-Q02878,0.185729,100,75.469100,68.672047,67.509306,36,99,5,75,37,109,74,68,0,215,288
P50990-P40227,0.696488,305,83.184951,87.240237,88.355330,312,196,15,25,319,185,13,14,8,548,531
P50990-P49368,0.721617,405,84.283852,88.980365,89.615817,403,97,23,25,409,103,13,20,9,548,545
P51148-P51149,0.424299,205,74.238829,80.993750,82.760821,130,37,2,47,112,56,11,28,13,216,207
P51398-P82673,0.599651,229,79.659039,87.510653,72.065944,324,27,4,43,104,91,47,81,16,398,323
P51665-O00231,0.063129,103,62.785534,72.705586,86.351801,23,173,97,31,161,228,32,1,0,324,422
P51665-O00232,0.224091,237,65.266793,63.698364,89.477083,1,134,104,85,330,86,35,5,7,324,456
P51665-O00487,0.694866,349,81.051347,82.843765,78.603065,129,146,43,6,137,70,72,31,0,324,310
P51665-P48556,0.491158,310,71.082161,81.319815,73.972143,55,229,32,8,131,111,23,85,43,324,350
P51665-Q15008,0.047850,106,57.787547,71.160432,89.116838,10,169,114,31,294,52,32,11,2,324,389
P51665-Q9UNM6,0.315605,172,72.938081,69.475895,89.740771,22,161,82,59,251,119,6,0,2,324,376
P51946-P50613,0.602449,239,79.183975,86.002879,85.810231,236,42,8,37,251,40,17,38,0,323,346
P51948-P51946,0.655321,306,78.988725,78.704854,86.310712,44,196,65,4,248,34,4,37,14,309,323
P52298-Q9BXP5,0.539068,409,69.467506,77.141923,60.679806,12,113,18,13,145,281,45,405,55,156,876
P52655-P52657,0.603822,338,74.539438,58.527048,90.124128,84,18,59,215,91,8,5,5,27,376,109
P52948-P55735,0.207672,1406,48.707475,52.896092,80.042329,195,509,83,1030,102,165,22,33,481,1817,322
P53597-Q96I99,0.716810,317,86.445647,87.093902,88.010139,263,39,4,40,313,81,2,36,4,346,432
P53597-Q9P2R7,0.709063,314,84.835510,86.421040,85.678229,259,37,12,38,313,96,4,50,0,346,463
P53621-O14579,0.732005,521,85.837716,84.154992,87.743377,678,394,31,121,204,88,1,15,32,1224,308
P54105-O14744,0.721001,536,80.338974,61.004346,89.237441,15,95,24,103,497,90,13,37,60,237,637
P54136-Q12904,0.583863,323,74.169845,89.749864,75.497083,434,210,13,3,129,98,16,69,14,660,312
P54646-P54619,0.289034,357,63.016583,70.729312,80.155680,137,216,54,145,119,146,37,29,58,552,331
P55036-O00231,0.244642,142,72.923521,71.360769,87.909550,127,94,60,96,252,135,31,4,0,377,422
P55036-P51665,0.361877,319,66.592947,71.839814,70.020926,130,93,57,97,29,138,117,40,47,377,324
P55036-Q9UNM6,0.338926,211,70.957678,72.942042,89.809069,177,45,53,102,288,52,36,0,21,377,376
P55072-Q9BZE9,0.703673,837,71.643835,80.825806,62.399638,196,508,30,72,25,271,52,205,122,806,553
P55209-Q99733,0.691667,465,76.873247,78.771969,78.494213,220,38,63,70,217,36,45,77,17,391,375
P55735-Q96EE3,0.608225,313,75.762460,85.081739,80.192361,205,68,20,29,191,95,14,60,60,322,360
P55769-O43172,0.568827,183,81.524809,90.072422,84.224215,97,26,2,3,357,66,20,79,5,128,522
P55769-O43395,0.182668,91,76.867033,85.861875,65.729634,32,90,2,4,8,306,200,169,0,128,683
P55884-Q13347,0.672544,376,77.634176,74.969889,90.529662,380,195,48,191,259,46,12,8,55,814,325
P56192-O43324,0.731291,418,88.412512,89.651589,86.132241,678,160,19,43,91,70,4,9,30,900,174
P56556-O75489,0.493893,131,83.752443,80.457578,74.148371,71,17,25,15,118,55,20,71,0,128,264
P57086-P17028,0.504651,233,75.301116,56.153799,63.174755,52,20,6,101,48,110,63,147,14,179,368
P57735-P62491,0.659826,339,77.943215,81.090563,80.936898,120,47,9,37,123,45,11,37,57,213,216
P57735-Q15907,0.505005,264,73.627121,80.813333,80.759083,120,50,6,37,121,49,11,37,49,213,218
P59998-O15143,0.274449,250,66.563800,45.798690,88.441989,0,0,45,123,286,48,5,33,28,168,372
P59998-O15144,0.712160,190,93.659737,91.278214,92.318633,136,19,12,1,258,25,10,7,2,168,300
P59998-P61158,0.325658,82,85.623049,89.565833,91.843828,100,66,1,1,360,35,6,17,0,168,418
P59998-P61160,0.631238,112,93.836250,91.453631,94.229467,117,49,2,0,361,23,10,0,2,168,394
P59998-Q9BPX5,0.554536,154,83.637208,81.735179,82.249608,57,82,23,6,102,15,3,33,6,168,153
P60228-O00303,0.084575,173,59.843410,85.156382,70.134230,224,184,19,18,46,203,20,88,0,445,357
P60228-O15371,0.721041,577,79.419515,81.481101,75.737920,161,222,16,46,209,170,55,114,91,445,548
P60228-Q99613,0.570249,428,70.151028,83.817281,70.810077,156,253,19,17,200,406,69,238,14,445,913
P60228-Q9Y262,0.296798,221,68.892217,83.001416,76.199291,173,216,33,23,105,315,81,63,2,445,564
P60842-Q04637,0.270624,1368,50.790673,77.696133,51.602770,32,292,60,22,62,526,75,936,510,406,1599
P60900-O14818,0.665683,167,89.263713,93.852317,93.226492,216,22,2,6,214,25,4,5,4,246,248
P60900-P25788,0.683967,164,91.560366,93.990569,91.298353,227,12,2,5,208,32,10,5,2,246,255
P60900-P28065,0.391440,141,78.653972,87.579472,82.295114,169,54,8,15,96,89,16,18,12,246,219
P60900-P28072,0.352841,210,71.494190,86.730732,75.458619,166,54,5,21,75,93,31,40,25,246,239
P60900-P28074,0.396291,241,71.126058,87.553171,75.041027,164,57,11,14,105,81,18,59,32,246,263
P60900-P49721,0.602579,206,81.399320,86.066545,83.485572,160,60,9,17,96,75,15,15,23,246,201
P60900-Q99436,0.281135,93,81.377634,88.732358,75.989928,179,47,7,13,98,89,43,47,0,246,277
P61024-P06493,0.492055,81,92.831975,89.938987,89.039125,68,2,5,4,219,44,26,8,0,79,297
P61024-Q13309,0.492130,253,73.726996,73.697215,80.577642,0,57,13,9,287,32,9,96,71,79,424
P61026-P31150,0.470893,203,76.005714,75.932850,92.025727,68,70,28,34,366,70,5,6,6,200,447
P61081-Q15843,0.604308,117,91.174444,88.808033,89.214815,154,4,3,22,70,3,2,6,2,183,81
P61088-Q15819,0.514489,89,91.896180,94.476184,93.722759,144,4,4,0,131,8,3,3,0,152,145
P61158-O15144,0.710930,196,92.821888,92.983206,90.562733,369,26,12,11,239,41,5,15,0,418,300
P61158-P61160,0.727687,315,90.482667,87.885789,91.217538,276,112,7,23,310,66,16,2,90,418,394
P61160-O15145,0.564459,107,90.659346,93.441294,90.776124,355,27,12,0,129,44,5,0,2,394,178
P61160-Q9BPX5,0.640587,165,87.379697,94.270990,79.575294,365,21,8,0,53,68,12,20,4,394,153
P61163-Q9NZ32,0.692545,199,89.320804,92.413298,89.070096,326,34,9,7,325,49,16,27,0,376,417
P61201-Q13098,0.369324,206,72.310874,81.244650,81.381894,107,272,22,42,303,82,33,73,0,443,491
P61201-Q7L5N1,0.393362,285,68.922772,82.971490,69.189021,187,196,20,40,29,147,88,63,70,443,327
P61218-P62487,0.224076,88,79.707955,67.553228,88.498430,0,76,20,31,88,83,1,0,9,127,172
P61247-P62263,0.548103,195,79.611487,82.709583,75.306026,165,46,12,41,45,58,21,27,0,264,151
P61313-P42766,0.118135,52,82.401731,77.340196,77.646098,59,83,38,24,1,106,11,5,0,204,123
P61313-Q9Y3U8,0.154396,53,85.281132,77.996863,80.267524,77,65,28,34,37,39,27,2,0,204,105
P61326-P38919,0.681332,188,88.861277,92.393219,88.441873,128,10,5,3,277,107,6,21,0,146,411
P61326-Q9Y5S9,0.717922,224,92.311786,94.128219,82.556897,124,16,6,0,111,15,24,24,6,146,174
P61353-P49207,0.321495,70,88.630286,89.539853,78.709915,80,56,0,0,19,73,25,0,0,136,117
P61353-P62424,0.050362,55,68.399455,82.790221,68.847406,9,116,11,0,2,145,71,48,0,136,266
P61353-P62888,0.478915,76,93.604342,92.899412,90.369478,115,20,1,0,94,12,3,6,2,136,115
P61513-P62917,0.499603,186,78.352419,81.694674,71.684708,50,23,11,8,92,39,61,65,4,92,257
P61758-Q9UHV9,0.593124,156,85.352564,81.494315,72.933442,124,26,24,23,63,37,7,47,2,197,154
P61956-P63279,0.547126,96,91.923021,83.756105,96.528544,65,10,5,15,155,3,0,0,0,95,158
P61964-Q15291,0.685732,353,79.788697,89.962784,78.721654,294,10,1,29,310,73,42,113,5,334,538
P61981-P62258,0.681457,130,95.611538,93.780162,91.969843,219,18,3,7,215,19,3,18,0,247,255
P61981-P63104,0.682863,131,95.638168,94.250000,93.810286,219,19,4,5,212,22,6,5,0,247,245
P61981-Q04917,0.672657,129,94.735891,93.809838,94.154390,219,18,4,6,217,23,5,1,0,247,246
P62068-Q8TBZ3,0.643031,167,87.355868,89.018361,76.174148,262,72,20,12,338,45,20,166,0,366,569
P62081-P62244,0.356348,72,89.537500,86.919845,91.272462,132,37,16,9,98,28,2,2,4,194,130
P62081-P62277,0.045794,51,67.443529,86.069330,79.322980,111,60,17,6,40,83,2,26,0,194,151
P62140-P36873,0.725584,365,87.246685,89.171193,90.197647,272,22,3,30,269,25,4,25,34,327,323
P62191-P62333,0.500449,378,69.018942,68.375000,75.821697,16,242,84,98,16,265,80,28,17,440,389
P62191-Q99460,0.459981,260,72.251115,66.121636,82.309024,2,249,66,123,347,474,30,102,25,440,953
P62195-O00231,0.589092,363,72.937025,73.036330,80.815711,13,247,93,53,28,348,33,13,60,406,422
P62195-O00487,0.366455,349,65.711662,76.318621,66.003935,65,243,55,43,2,153,87,68,67,406,310
P62195-O43242,0.274648,370,62.157568,71.339360,75.278895,10,256,59,81,91,304,39,100,43,406,534
P62195-P43686,0.634401,472,72.094534,77.329089,76.335646,21,303,49,33,36,297,40,45,11,406,418
P62195-P62191,0.571598,355,72.442197,74.736749,69.911841,21,269,74,42,35,236,67,102,7,406,440
P62195-P62333,0.590319,433,70.873095,74.572635,78.504704,27,247,91,41,56,252,64,17,31,406,389
P62195-Q15008,0.099331,117,66.542222,72.059335,85.195424,10,248,97,51,196,150,17,26,0,406,389
P62195-Q99460,0.347982,177,73.685198,74.474828,82.054176,6,299,63,38,338,486,15,114,0,406,953
P62241-P62280,0.434786,93,87.607419,85.856394,83.853165,111,74,20,3,52,89,8,9,0,208,158
P62249-P39019,0.038847,56,60.638036,75.011164,82.811241,17,84,18,27,58,61,26,0,0,146,145
P62258-P61981,0.682377,130,95.727000,91.980118,93.871700,215,19,3,18,218,19,3,7,0,255,247
P62258-P63104,0.682668,131,95.613282,91.874157,92.978041,214,21,3,17,210,24,4,7,0,255,245
P62258-Q04917,0.686594,134,95.683657,91.603882,94.586545,215,20,2,18,218,24,1,3,0,255,246
P62269-P62851,0.073736,81,68.413333,77.506118,57.780800,41,73,14,24,0,49,26,50,2,152,125
P62277-P42677,0.395329,97,85.237938,88.293311,84.989167,118,12,18,3,50,24,7,3,0,151,84
P62277-P62888,0.298783,101,80.663366,81.839139,86.105652,59,64,9,19,70,30,8,7,11,151,115
P62280-P62266,0.031833,12,63.805833,76.132722,78.128252,55,58,9,36,27,76,35,5,0,158,143
P62304-P62308,0.634689,114,93.743509,91.050652,93.071579,75,10,7,0,63,11,2,0,2,92,76
P62310-O95777,0.511082,135,83.947185,83.458235,87.842396,53,31,4,14,49,42,4,1,2,102,96
P62310-Q9UK45,0.456841,143,80.835804,82.473039,81.881068,51,32,4,15,58,20,9,16,13,102,103
P62310-Q9Y333,0.636358,122,92.545574,82.533529,93.090526,66,15,4,17,75,20,0,0,2,102,95
P62312-P62310,0.612374,113,92.356018,89.874500,87.920588,58,15,5,2,81,5,7,9,2,80,102
P62314-P62304,0.534928,122,86.770000,74.356050,84.670326,58,16,13,32,57,18,13,4,4,119,92
P62314-P62308,0.532162,104,89.622308,75.578067,91.338158,59,15,15,30,60,13,3,0,4,119,76
P62314-P62316,0.622938,109,93.780092,80.023193,89.689237,73,9,14,23,78,31,9,0,4,119,118
P62314-P62318,0.200009,166,68.699217,63.975126,67.304762,0,64,14,41,16,54,8,48,15,119,126
P62314-Q15029,0.161554,183,65.415027,61.770504,86.943663,0,68,13,38,696,161,36,79,30,119,972
P62314-Q96DI7,0.657749,307,79.129674,66.958487,87.674594,26,51,4,38,298,10,2,47,84,119,357
P62316-O43172,0.486561,270,72.674704,74.483814,83.482011,2,78,28,10,350,70,9,93,44,118,522
P62316-P62304,0.613105,126,90.322937,88.657712,86.149348,71,41,5,1,62,15,6,9,2,118,92
P62316-P62318,0.592799,110,91.677636,88.552034,78.231746,69,43,6,0,69,10,25,22,2,118,126
P62316-Q9BUQ8,0.410414,397,65.618564,65.971102,70.668427,0,54,46,18,234,199,173,214,17,118,820
P62318-P62304,0.568428,110,90.332091,78.356587,84.838696,70,8,27,21,61,14,11,6,4,126,92
P62318-Q15029,0.538450,280,74.114714,57.248968,86.851564,0,54,25,47,688,170,31,83,72,126,972
P62333-O00232,0.253291,141,73.396241,77.465707,83.102566,35,259,74,21,106,293,43,14,6,389,456
P62333-O00487,0.180620,206,64.976505,79.731440,61.753613,76,237,60,16,3,116,105,86,40,389,310
P62333-O43242,0.277441,236,67.374576,77.037198,75.183146,12,284,81,12,56,339,45,94,7,389,534
P62333-P62195,0.530948,502,66.892470,73.228920,71.362611,1,253,100,35,18,214,114,60,109,389,406
P62424-P61313,0.623173,122,91.596639,80.200714,78.128480,125,77,29,35,92,51,30,31,0,266,204
P62424-P61353,0.050538,65,65.734154,67.139511,80.609412,0,141,67,58,3,118,14,1,0,266,136
P62424-P62750,0.258836,131,74.739389,73.316805,66.855769,39,133,45,49,1,77,46,32,4,266,156
P62424-P62917,0.035622,100,49.114100,68.802068,59.596576,23,126,57,60,0,110,39,108,20,266,257
P62424-Q9Y3U8,0.193374,66,83.425909,72.803459,75.803619,57,110,56,43,3,69,27,6,0,266,105
P62701-P46781,0.270307,79,83.923924,89.486692,83.394845,159,96,4,4,115,49,10,20,0,263,194
P62701-P62753,0.297109,75,86.149867,86.189848,83.964618,118,133,9,3,87,141,21,0,0,263,249
P62750-P42766,0.414421,108,84.017685,80.976218,81.669106,37,94,25,0,4,110,8,1,0,156,123
P62805-P84243,0.694818,171,92.290000,84.044951,82.687500,70,5,23,5,79,13,43,1,2,103,136
P62805-Q9UER7,0.072730,421,49.618741,55.500000,53.157135,0,25,44,34,32,221,53,434,54,103,740
P62820-Q9H0U4,0.442883,250,72.187280,81.124000,77.656915,116,47,9,33,53,105,13,30,28,205,201
P62841-P62269,0.260532,89,81.253596,80.136069,80.271382,54,55,19,17,66,53,9,24,2,145,152
P62888-P49207,0.148460,45,88.450000,85.087391,81.519145,56,46,6,7,3,107,7,0,0,115,117
P62888-P62277,0.339867,109,80.984679,86.584522,78.360596,75,27,6,7,44,74,13,20,13,115,151
P62906-P26373,0.031333,2,66.045000,86.360092,55.284929,54,161,1,1,0,15,131,65,0,217,211
P62913-P62269,0.485147,180,78.295833,85.512303,73.021974,75,93,3,7,9,99,16,28,56,178,152
P62913-P62841,0.031322,0,0.000000,82.023146,76.052759,60,88,21,9,37,71,12,25,0,178,145
P62917-P61513,0.496635,180,78.732722,70.905331,81.666522,90,41,63,63,48,25,13,6,6,257,92
P62917-P62753,0.224690,211,66.709242,61.530584,79.711084,1,113,49,94,32,160,57,0,29,257,249
P62979-P62987,0.031322,0,0.000000,84.154359,88.936172,80,51,18,7,76,48,4,0,0,156,128
P63096-A8MTJ3,0.721749,367,85.733406,89.169661,88.971949,247,76,25,6,257,70,20,7,55,354,354
P63096-P08754,0.668418,277,81.472780,88.772458,88.919463,245,76,27,6,246,75,27,6,34,354,354
P63096-P09471,0.714341,358,84.054581,89.297627,88.537881,259,62,27,6,249,72,28,5,66,354,354
P63104-P61981,0.677997,127,95.650866,93.450286,94.044049,211,23,5,6,218,19,5,5,0,245,247
P63104-Q04917,0.676035,128,95.267266,93.476204,94.803821,211,22,6,6,220,21,4,1,0,245,246
P63272-O00267,0.362592,350,65.560657,89.796154,62.275207,74,42,1,0,154,419,54,460,44,117,1087
P63279-Q9UBT2,0.558191,99,91.866061,93.752405,79.755406,149,7,2,0,324,163,47,106,4,158,640
P67775-P30153,0.678802,171,90.207485,91.730583,92.806808,269,22,4,14,510,61,7,11,0,309,589
P68371-P07437,0.582114,209,80.127799,85.345685,85.378491,204,208,12,21,206,205,13,20,20,445,444
P68371-Q9BQE3,0.684067,191,88.915602,91.319326,89.879866,366,53,12,14,362,55,17,15,0,445,449
P68400-P67870,0.610222,182,83.771429,86.153606,86.288419,309,24,3,55,145,43,16,11,21,391,215
P68402-Q15102,0.712597,162,96.703333,93.113144,93.119048,208,7,2,12,208,9,3,11,0,229,231
P68431-Q96QV6,0.679179,167,90.667605,73.657279,81.434198,70,5,31,30,76,22,15,18,4,136,131
P68431-Q9Y5B9,0.626117,486,71.289486,50.614118,80.122703,0,14,58,64,503,333,43,168,101,136,1047
P78346-O95707,0.558084,282,74.816950,82.451978,70.848364,120,103,22,23,34,100,32,54,6,268,220
P78368-Q9Y6M4,0.324884,501,60.671956,74.679325,71.933803,212,83,6,114,217,76,7,147,118,415,447
P81877-Q86U70,0.268913,550,58.070600,46.257064,66.041460,42,45,14,260,157,61,8,185,79,361,411
P81877-Q9BWG4,0.085938,576,48.655538,46.527729,45.571662,64,22,6,269,64,23,5,293,73,361,385
P81877-Q9BWW4,0.102187,568,50.193697,46.472438,45.614304,55,30,6,270,59,27,5,297,111,361,388
P82650-P82663,0.136977,111,70.667207,81.229528,81.802832,221,65,9,65,70,79,17,7,11,360,173
P82650-P82675,0.317728,217,69.860922,80.891361,68.614000,220,72,4,64,89,166,46,129,15,360,430
P82650-P82930,0.111547,94,71.037979,81.805222,77.598945,239,49,8,64,38,137,18,25,0,360,218
P82663-P82675,0.284587,253,66.781660,72.330983,66.761047,22,88,27,36,70,165,48,147,34,173,430
P82663-Q9Y3D3,0.363934,91,85.192637,87.409133,80.096788,96,64,8,5,37,71,21,8,0,173,137
P82673-P51398,0.591379,241,78.497054,73.578514,87.260352,82,125,69,47,317,36,1,44,7,323,398
P82673-P82933,0.368998,187,73.637273,76.269721,70.733460,54,193,25,51,49,204,52,91,4,323,396
P82673-Q96EL2,0.511048,240,75.133042,79.341765,74.511497,103,158,17,45,67,52,10,38,22,323,167
P82914-P82932,0.215082,111,75.338829,72.643346,84.358880,93,74,18,72,91,8,2,24,0,257,125
P82921-P82912,0.224218,134,72.871194,76.037816,69.070515,3,60,21,3,37,68,34,55,4,87,194
P82933-P51398,0.299045,323,64.441610,69.333813,85.960327,69,163,77,87,288,63,3,44,45,396,398
P82933-P82675,0.158568,384,57.116146,67.800985,61.394930,22,215,67,92,10,199,60,161,46,396,430
P83731-P62753,0.267995,101,79.355644,70.040255,85.148876,0,99,45,13,59,187,3,0,2,157,249
P83731-P62829,0.313458,111,79.635676,70.568280,84.986929,29,59,38,31,90,28,14,8,7,157,140
P83916-Q13185,0.217508,226,65.560841,60.490378,63.728798,0,83,35,67,0,104,17,62,11,185,183
P84098-P35268,0.221786,90,79.194111,83.682857,75.062813,34,145,16,1,6,89,11,22,0,196,128
Q00266-P31153,0.734335,431,90.885104,93.347063,93.731747,351,28,2,14,351,29,2,13,13,395,395
Q00535-Q15078,0.634398,271,79.234945,92.166096,67.150651,238,42,11,1,138,15,11,143,8,292,307
Q00535-Q8IZL9,0.293331,193,70.539067,87.913116,79.139480,185,83,20,4,146,113,39,48,27,292,346
Q02080-Q02080,0.243159,493,58.233834,51.735589,51.938000,82,9,15,259,82,9,18,256,71,365,365
Q02080-Q06413,0.166765,546,54.312875,49.573863,46.490233,74,15,24,252,77,13,6,377,118,365,473
Q02108-Q02153,0.723495,790,76.419380,77.174029,81.851325,215,307,67,101,161,366,62,30,52,690,619
Q02543-P46778,0.403009,98,85.348776,80.385682,84.522125,67,65,30,14,59,87,13,1,2,176,160
Q02543-P50914,0.537606,173,81.003410,86.444091,72.838512,118,33,10,15,103,34,6,72,0,176,215
Q02750-P15056,0.201145,234,64.427009,78.993232,59.016358,160,143,33,57,76,276,50,364,5,393,766
Q02750-P36507,0.704740,409,80.347995,80.527150,81.277050,202,100,25,66,206,101,34,59,27,393,400
Q02878-P18077,0.526357,126,85.807460,69.255521,88.951909,93,47,69,79,68,34,8,0,2,288,110
Q02878-P18124,0.050330,58,67.491207,66.967569,87.788306,22,121,70,75,148,87,3,10,0,288,248
Q02878-P46779,0.098812,118,66.367034,67.258681,69.825693,14,130,72,72,0,65,60,12,17,288,137
Q02878-P50914,0.167149,101,74.196238,68.100799,68.756930,47,100,72,69,48,87,5,75,0,288,215
Q02878-P62910,0.032509,19,62.902105,63.115139,77.417556,0,119,79,90,1,114,15,5,0,288,135
Q03518-Q03519,0.723679,738,77.268266,72.997339,78.589373,46,542,101,119,18,567,85,16,37,808,686
Q04917-P63104,0.675947,128,95.257187,94.811057,93.353878,219,21,4,2,211,22,6,6,0,246,245
Q05193-Q9UQ16,0.625594,1061,63.275203,65.996863,66.076099,64,395,198,207,64,392,211,202,323,864,869
Q06265-Q9NPD3,0.689949,366,79.783033,76.828087,89.459224,238,54,40,107,189,34,10,12,8,439,245
Q06265-Q9NQT4,0.707033,343,83.172012,77.763986,86.901532,257,57,7,118,179,29,2,25,13,439,235
Q06265-Q9Y3B2,0.450563,360,67.957167,72.151435,78.893179,224,53,11,151,29,130,26,10,47,439,195
Q06330-Q92585,0.259580,1165,51.628584,82.387440,34.651535,307,108,10,75,8,47,58,903,233,500,1016
Q06587-Q99496,0.604856,398,72.555327,60.946305,68.045685,27,178,35,166,36,173,31,96,23,406,336
Q07020-P46776,0.067699,103,63.752233,77.698298,62.074527,83,46,27,32,2,70,19,57,0,188,148
Q07812-Q07817,0.329885,284,66.931937,66.619792,61.360172,0,107,57,28,0,109,31,93,80,192,233
Q08945-Q9Y5B9,0.707026,985,70.441584,66.006742,76.273954,29,412,53,215,298,486,93,170,214,709,1047
Q08AG7-Q96RT7,0.081262,403,51.040571,70.519146,57.223145,0,56,15,11,109,655,195,860,27,82,1819
Q09028-Q13330,0.642495,553,70.760940,87.276588,66.912266,298,81,17,29,76,348,63,228,32,425,715
Q12824-Q8TAQ2,0.323910,1121,53.687636,64.516026,51.679992,0,192,97,96,81,327,105,701,303,385,1214
Q12874-O75533,0.516702,645,63.832620,68.787186,66.665736,0,306,109,86,28,762,141,373,112,501,1304
Q12874-Q13435,0.291504,404,61.797574,78.027285,49.371486,84,307,82,28,0,145,236,514,66,501,895
Q12874-Q15393,0.533950,276,74.128297,72.155409,87.389244,3,316,135,47,581,591,19,26,18,501,1217
Q12874-Q15428,0.162581,391,57.145473,80.159261,48.823772,117,295,60,29,30,111,48,275,61,501,464
Q13042-P30260,0.635121,835,66.019737,73.442677,65.425231,30,445,25,120,183,288,48,305,89,620,824
Q13042-Q9BS18,0.169125,172,66.633081,82.427726,33.030000,352,144,43,81,0,0,0,74,34,620,74
Q13084-Q9BYD2,0.663120,178,87.927809,85.143906,80.079700,152,65,24,15,139,73,11,44,0,256,267
Q13084-Q9BZE1,0.188669,139,70.588417,73.087461,80.608818,29,132,66,29,204,130,37,52,14,256,423
Q13084-Q9HD33,0.387385,179,74.895307,81.662852,68.019880,77,143,27,9,47,77,69,57,9,256,250
Q13084-Q9NQ50,0.299487,278,66.174604,78.558320,47.169660,88,110,37,21,0,5,83,118,19,256,206
Q13098-P61201,0.432715,213,73.995211,80.358595,80.547833,309,67,29,86,103,277,8,55,16,491,443
Q13098-Q9UNS2,0.674964,309,80.519676,85.832424,87.570875,350,70,18,53,307,81,8,27,8,491,423
Q13123-Q2TAY7,0.609015,657,67.140000,47.171329,87.951228,0,35,186,336,302,183,21,7,96,557,513
Q13131-O43741,0.495828,542,64.920941,73.871753,63.616544,195,184,36,144,29,106,38,99,95,559,272
Q13131-P54619,0.227914,142,72.186479,73.616798,82.688338,177,198,45,139,158,120,27,26,0,559,331
Q13131-Q9Y478,0.689136,647,72.672612,76.469839,65.973111,253,149,23,134,48,97,29,96,80,559,270
Q13155-O43324,0.507632,236,75.235890,72.213219,86.974195,133,59,48,80,97,66,3,8,5,320,174
Q13283-Q9UN86,0.514014,615,64.218959,59.896824,58.827054,84,124,24,234,99,104,26,253,29,466,482
Q13309-P20248,0.665395,570,71.972456,82.499646,68.994954,271,65,23,65,216,39,4,173,84,424,432
Q13405-Q9BYD3,0.311682,94,82.476170,77.197169,74.085916,80,31,26,29,121,74,45,71,0,166,311
Q13409-P63172,0.171264,356,58.486180,71.900392,71.285752,297,101,41,199,0,78,23,12,142,638,113
Q13435-Q15393,0.613985,1234,61.407455,40.939106,86.163566,0,42,189,664,461,699,32,25,308,895,1217
Q13547-Q13330,0.691121,696,72.076135,79.987448,68.390993,328,38,5,111,224,167,89,235,62,482,715
Q13547-Q6PJG2,0.452968,1274,56.007818,78.525041,43.872986,291,76,1,114,83,84,30,848,147,482,1045
Q13547-Q9UBB5,0.315946,395,62.806354,80.201680,58.193966,312,55,7,108,36,158,28,189,67,482,411
Q13564-Q8TBC4,0.735594,392,94.275791,95.095431,90.575767,506,25,3,0,389,42,7,25,0,534,463
Q13573-O43660,0.566635,739,64.215832,53.298657,72.449300,13,84,166,273,248,69,48,149,100,536,514
Q13573-O60508,0.496923,676,62.753388,45.931772,74.967047,0,13,176,347,282,84,70,143,99,536,579
Q13573-O95926,0.065679,392,49.162781,45.787631,58.821646,0,3,166,367,0,53,127,63,55,536,243
Q13573-Q99459,0.186082,629,53.946900,47.227687,61.078928,0,16,187,333,10,285,287,220,38,536,802
Q13573-Q9BZJ0,0.180992,521,55.354990,46.788601,70.904717,0,6,177,353,122,451,45,230,21,536,848
Q13573-Q9Y3C6,0.473166,348,69.079770,51.374030,93.139518,30,35,173,298,141,23,1,1,18,536,166
Q13636-Q9UL26,0.607976,215,81.046605,86.675000,86.106289,133,35,3,23,131,36,2,25,14,194,194
Q13765-P20290,0.441340,243,72.508642,69.059628,60.743204,31,91,29,64,33,47,34,92,20,215,206
Q13769-Q96FV9,0.524754,296,72.868311,79.475095,75.347291,181,364,75,63,157,318,78,104,0,683,657
Q13825-Q86YB7,0.604731,282,76.979681,79.862891,88.010822,231,34,1,73,222,44,0,26,35,339,292
Q13838-O00148,0.690836,401,78.672344,83.951308,83.566768,237,133,13,45,233,132,18,44,89,428,427
Q13868-Q9NPD3,0.715926,242,90.458306,90.148396,91.373796,234,27,24,8,202,23,11,9,0,293,245
Q13888-Q13889,0.696298,290,83.897862,83.741747,80.667662,234,92,37,32,132,112,28,36,6,395,308
Q13889-Q92759,0.665101,211,85.310284,81.928864,88.344957,167,81,22,38,309,119,15,19,4,308,462
Q13895-Q96GA3,0.609591,572,68.632360,75.962243,55.213747,215,79,41,102,10,103,151,211,23,437,475
Q14141-Q16181,0.728529,559,82.693936,83.723756,82.113890,178,202,28,26,143,236,30,28,2,434,437
Q14152-O00303,0.154269,397,56.576700,58.714624,63.560224,4,576,288,514,1,190,77,89,14,1382,357
Q14152-O15372,0.141303,833,49.711789,55.395637,68.793949,1,452,332,597,0,224,87,41,199,1382,352
Q14152-Q7L2H7,0.335928,270,67.734593,55.757902,76.993209,0,468,341,573,0,323,41,10,25,1382,374
Q14181-P09884,0.485079,654,62.712768,76.747508,71.464138,178,258,81,81,357,667,49,389,64,598,1462
Q14194-Q14195,0.728044,620,81.122710,85.926066,86.420825,451,39,3,79,463,29,1,77,68,572,570
Q14197-Q96DV4,0.187315,351,59.371567,57.638981,75.614711,0,80,41,85,182,74,27,97,83,206,380
Q14197-Q9P015,0.664044,219,84.627078,76.913495,76.190574,74,75,20,37,183,17,17,79,0,206,296
Q14232-P49770,0.633797,180,85.436667,90.850525,86.965242,216,79,10,0,250,49,32,20,3,305,351
Q14232-Q13144,0.595908,163,84.768528,87.931672,82.197309,161,130,12,2,405,193,20,103,10,305,721
Q14232-Q9UI10,0.654052,285,79.885614,92.271377,75.989675,243,60,2,0,277,66,66,114,11,305,523
Q14566-P33991,0.666108,800,68.374725,72.971839,69.800881,11,589,93,128,6,566,132,159,52,821,863
Q14691-Q9BRX5,0.715318,250,89.767040,91.901020,89.576343,156,32,8,0,153,45,10,8,0,196,216
Q14982-Q9P121,0.536776,176,80.698636,80.775304,80.940785,203,63,18,61,201,63,19,61,0,345,344
Q14997-P25786,0.206355,150,70.398133,87.555383,75.729240,1023,720,42,58,72,125,25,41,7,1843,263
Q15006-Q8N4V1,0.267867,182,70.370769,80.200673,59.041832,61,185,24,27,0,44,33,54,0,297,131
Q15008-O43242,0.265819,193,69.507358,87.967532,78.300243,252,100,28,9,178,238,37,81,7,389,534
Q15018-P46736,0.718751,560,79.158036,72.469904,82.992753,213,52,17,133,213,37,14,52,20,415,316
Q15019-Q14141,0.666589,284,80.951761,80.086814,81.046889,159,116,46,40,188,168,37,41,9,361,434
Q15022-O75530,0.591972,846,63.897482,53.266360,81.518526,53,184,101,401,252,110,14,65,251,739,441
Q15022-Q92833,0.104135,1432,43.938478,46.999594,55.228539,0,130,176,433,223,313,25,685,745,739,1246
Q15024-Q06265,0.682704,390,78.133513,90.871065,75.046469,231,45,10,5,244,40,23,132,23,291,439
Q15024-Q13868,0.715850,212,92.672689,93.747801,90.297918,252,32,7,0,203,72,15,3,2,291,293
Q15024-Q5RKV6,0.700862,198,90.681515,92.908247,83.538676,247,31,10,3,188,23,15,46,8,291,272
Q15024-Q9NPD3,0.681111,167,90.891737,92.898454,91.704367,258,19,13,1,196,38,9,2,0,291,245
Q15024-Q9NQT4,0.648524,164,88.091341,90.314811,84.026170,215,62,10,4,140,66,4,25,4,291,235
Q15024-Q9Y3B2,0.596070,160,85.087750,92.703711,82.119077,251,30,8,2,78,84,22,11,13,291,195
Q15029-P62308,0.370519,220,71.469227,87.149784,70.667368,704,156,30,82,0,48,20,8,32,972,76
Q15029-Q9BUQ8,0.715519,1066,71.135441,81.312407,64.674500,326,508,35,103,48,360,123,289,316,972,820
Q15046-Q13155,0.546908,231,77.083203,85.567320,72.521000,409,92,41,55,88,105,66,61,8,597,320
Q15118-Q15119,0.718375,349,85.445186,82.069518,86.568624,270,75,23,68,269,78,47,13,2,436,407
Q15369-Q15370,0.497732,137,83.145620,79.652946,80.418729,10,79,18,5,37,58,8,15,2,112,118
Q15369-Q96DX5,0.597629,97,94.491753,83.950089,88.504626,76,13,11,12,247,12,2,33,0,112,294
Q15393-Q7RTV0,0.525149,88,92.628977,92.069277,80.920909,997,188,21,11,63,23,4,20,0,1217,110
Q15393-Q9BWJ5,0.727530,268,93.014179,92.622062,81.174767,1046,136,13,22,47,14,17,8,0,1217,86
Q15427-Q13435,0.235084,590,56.320373,54.807264,51.134358,33,154,20,217,7,136,276,476,100,424,895
Q15435-P62136,0.714835,410,82.272829,85.204306,89.563030,279,16,2,63,274,20,3,33,45,360,330
Q15459-Q15393,0.646390,1157,63.570354,46.473758,86.412810,0,171,113,509,494,664,38,21,307,793,1217
Q15459-Q15428,0.231649,595,56.127630,56.911084,48.330862,40,261,109,383,23,120,53,268,99,793,464
Q15542-P49848,0.348193,558,60.313459,73.302400,64.119306,385,157,44,214,175,196,47,259,44,800,677
Q15631-Q99598,0.705844,220,89.791091,90.485614,80.854586,179,31,8,10,183,28,18,61,0,228,290
Q15831-Q7RTN6,0.508341,300,72.096233,76.794249,78.834501,261,44,4,124,246,72,11,102,17,433,431
Q15910-O75530,0.729569,509,84.508762,72.351863,85.143356,203,256,107,180,324,42,13,62,22,746,441
Q15910-Q15022,0.572207,926,62.296728,69.063539,56.445913,121,311,135,179,71,190,117,361,95,746,739
Q16186-Q9Y5K5,0.687376,505,75.373010,61.297420,87.360669,43,163,14,187,207,93,15,14,59,407,329
Q16531-Q13619,0.731249,542,84.734391,90.208430,82.374875,776,339,20,5,233,443,42,41,23,1140,759
Q16531-Q13620,0.708151,766,73.291084,89.393974,73.163395,711,401,24,4,215,469,37,192,64,1140,913
Q16531-Q92466,0.695172,362,80.588729,92.916412,80.619368,948,173,12,7,232,117,7,71,0,1140,427
Q16531-Q9BW61,0.726728,378,87.239153,93.853386,63.774804,999,123,15,3,26,26,12,38,8,1140,102
Q16539-P49137,0.646345,296,78.796622,88.273278,80.131725,249,81,9,21,182,125,37,56,2,360,400
Q16718-O75489,0.621818,193,83.529171,86.486293,71.928788,88,8,9,11,121,36,17,90,3,116,264
Q16778-P62805,0.613433,188,83.439947,78.009841,76.641262,44,48,13,21,30,40,25,8,0,126,103
Q16795-O75489,0.258486,219,67.599269,83.164960,70.142083,211,100,28,38,88,73,17,86,18,377,264
Q3SYG4-Q8NFJ9,0.714950,733,75.051664,79.663641,80.003406,356,343,79,109,202,282,54,55,81,887,593
Q4U2R6-Q9HD33,0.111220,213,60.172066,53.322031,64.007200,0,34,21,73,1,105,64,80,35,128,250
Q5J8M3-Q15006,0.195669,204,65.832745,53.311421,75.665657,0,40,61,82,0,244,34,19,16,183,297
Q5J8M3-Q9P0I2,0.105374,262,57.448206,56.122678,59.748199,0,63,37,83,0,62,140,59,8,183,261
Q5T653-Q9BZE1,0.248037,236,66.275297,71.283377,81.739362,110,66,46,83,292,38,14,79,4,305,423
Q5TA45-Q96HW7,0.713040,339,84.544484,87.890867,82.428754,300,270,23,7,423,395,46,99,2,600,963
Q5TA45-Q9NV88,0.729300,373,88.782922,91.088783,91.237614,441,144,9,6,505,124,15,14,18,600,658
Q5TBB1-Q8TDP1,0.693330,329,81.674073,75.241571,83.714817,174,26,15,97,105,25,14,20,24,312,164
Q676U5-Q9H1Y0,0.666452,218,84.915505,79.523542,91.334218,289,199,22,97,216,48,6,5,0,607,275
Q68E01-Q9BQ15,0.429432,344,67.819564,82.463500,62.772559,735,130,15,163,81,32,3,95,66,1043,211
Q69YH5-P36873,0.278964,1018,53.197534,37.420371,89.065728,7,15,32,969,244,50,8,21,110,1023,323
Q69YH5-P62136,0.326889,1016,54.529813,38.422923,87.206061,7,31,15,970,247,48,3,32,225,1023,330
Q6I9Y2-Q13769,0.715709,397,82.922846,81.134216,82.812855,81,86,19,18,318,257,44,64,0,204,683
Q6I9Y2-Q96FV9,0.568060,171,82.563509,79.163578,80.843577,42,123,17,22,256,257,76,68,0,204,657
Q6P1J9-Q6PD62,0.632006,947,64.645576,69.091281,71.748986,51,281,65,134,133,737,18,285,159,531,1173
Q6P1K2-Q96IY1,0.256966,251,65.873984,78.288732,65.858790,66,96,13,30,18,136,24,103,2,205,281
Q6P1K2-Q9H410,0.146243,292,59.184007,73.405610,60.944438,22,129,18,36,5,166,53,132,38,205,356
Q6P1K8-Q6P1K8,0.275578,323,63.651115,71.160380,71.654228,120,116,64,95,122,118,60,95,26,395,395
Q6P2I3-Q96GK7,0.714344,161,97.274286,92.210064,92.483185,285,4,1,24,287,2,2,23,0,314,314
Q6P4R8-Q9Y5K5,0.276981,1130,52.351876,48.690916,78.999848,34,331,100,834,27,250,31,21,401,1299,329
Q7L2H7-O00303,0.631015,312,77.083109,87.616283,65.149496,151,214,9,0,59,132,22,144,2,374,357
Q7L523-Q9HB90,0.686867,232,86.074224,89.074601,79.877469,208,90,4,11,253,52,15,79,6,313,399
Q7L5N1-Q13098,0.172268,299,60.326154,67.889021,81.734033,17,157,92,61,308,74,45,64,43,327,491
Q7L5N1-Q92905,0.646053,398,74.879975,73.670459,79.692126,125,70,65,67,149,80,77,28,14,327,334
Q7L5N1-Q9BT78,0.575367,288,75.284965,70.309419,90.693374,83,99,59,86,316,71,16,3,0,327,406
Q7L5N1-Q9H9Q2,0.472443,266,72.379436,72.340642,82.867955,63,140,59,65,127,103,3,31,0,327,264
Q7L5N1-Q9UBW8,0.575885,295,74.990136,72.792324,79.903018,66,136,71,54,128,93,6,48,6,327,275
Q7RTV0-Q15393,0.540537,107,89.471402,79.346909,92.071479,53,32,5,20,1006,176,19,16,0,110,1217
Q7Z2W9-Q9H9J2,0.254067,356,61.853006,48.874390,69.502229,0,18,78,109,18,195,40,79,72,205,332
Q7Z3B4-Q9BVL2,0.169916,855,50.839041,63.203590,46.384057,0,292,81,134,0,131,65,403,258,507,599
Q7Z6K3-P53611,0.715446,243,90.264403,81.919851,93.576405,232,80,31,59,304,7,9,11,0,402,331
Q7Z7C8-O00268,0.079439,941,44.533751,54.553645,43.789051,0,90,61,159,7,221,89,768,185,310,1085
Q7Z7C8-P49848,0.491162,578,64.118893,59.957032,65.838390,0,133,43,134,180,200,39,258,69,310,677
Q7Z7C8-Q15542,0.293441,530,59.182830,54.664419,74.525662,0,105,55,150,416,120,61,203,95,310,800
Q7Z7C8-Q16594,0.128280,278,58.572554,61.046935,56.480720,0,119,89,102,5,70,48,141,29,310,264
Q7Z7F7-Q96GC5,0.318973,137,76.438613,66.909453,69.694575,1,64,28,35,64,54,42,52,2,128,212
Q7Z7F7-Q9H2W6,0.484212,151,81.000927,68.328125,79.792796,1,67,29,31,121,99,17,42,0,128,279
Q7Z7F7-Q9NQ50,0.248954,142,73.108028,60.818672,65.121456,0,60,18,50,17,77,59,53,2,128,206
Q86SZ2-Q8IUR0,0.309409,154,74.308052,82.972468,73.910106,70,59,26,3,44,79,27,38,0,158,188
Q86SZ2-Q9Y5R8,0.369162,70,90.675429,91.305063,90.929241,122,29,7,0,105,37,3,0,0,158,145
Q86TS9-Q96DV4,0.158159,170,66.153882,61.252927,77.935842,3,53,30,37,195,63,53,69,4,123,380
Q86U70-Q9BWG4,0.119657,550,51.699455,65.969951,43.160494,154,64,9,184,28,57,6,294,110,411,385
Q86VN1-Q9BRG1,0.511532,82,93.465610,79.560544,90.432727,178,111,43,54,121,52,1,2,0,386,176
Q86W42-Q13769,0.698239,373,80.600268,91.882053,78.888668,295,35,2,9,282,231,102,68,33,341,683
Q86W42-Q6I9Y2,0.414498,243,71.616831,92.208563,54.227451,296,33,2,10,0,30,93,81,4,341,204
Q86W42-Q96FV9,0.503441,341,70.341584,89.210499,72.064079,252,71,6,12,128,301,91,137,63,341,657
Q86WV5-Q9H668,0.684118,141,94.375390,94.003496,83.596277,112,8,2,1,215,77,36,40,0,123,368
Q8IXH7-Q9H3P2,0.715994,858,73.523019,86.103153,60.728845,340,200,7,43,120,145,20,243,107,590,528
Q8N142-P30520,0.732775,405,90.116568,92.172341,92.309232,412,15,2,28,413,16,2,25,0,457,456
Q8N4V1-Q15006,0.204505,186,67.414624,57.599237,77.723906,0,40,35,56,22,214,29,32,0,131,297
Q8N5N7-Q8N983,0.434224,158,78.415570,73.434367,60.034279,52,47,31,28,33,51,15,116,25,158,215
Q8N766-Q15006,0.216142,51,90.303529,87.827362,86.794377,668,237,39,49,196,65,24,12,0,993,297
Q8N766-Q5J8M3,0.660692,217,84.479770,87.000171,67.360437,593,311,60,29,1,116,10,56,4,993,183
Q8N766-Q5UCC4,0.663714,253,82.391462,87.615086,69.841374,648,258,40,47,95,76,15,76,4,993,262
Q8N766-Q8N4V1,0.360491,117,80.566325,88.507533,65.336565,679,237,53,24,25,37,31,38,0,993,131
Q8N766-Q9NPA0,0.712163,416,81.489495,87.286908,66.062397,628,283,38,44,66,65,29,82,34,993,242
Q8N766-Q9P0I2,0.593582,178,83.203876,85.637966,71.008812,546,346,50,51,1,178,46,36,0,993,261
Q8N7H5-Q6P1J9,0.140430,687,51.132387,48.087665,61.554746,0,137,57,337,29,231,32,239,239,531,531
Q8N7H5-Q6PD62,0.659495,1297,63.331303,53.981563,72.427826,0,211,67,253,309,559,19,286,187,531,1173
Q8N9I0-P21579,0.572859,650,65.725785,71.687446,71.168791,186,81,22,130,164,102,28,128,244,419,422
Q8NFJ9-Q96RK4,0.731857,483,86.771822,86.357589,79.751464,327,211,24,31,314,88,18,99,2,593,519
Q8NHZ8-Q13042,0.706287,274,86.361022,60.109294,85.448935,26,10,2,47,439,72,28,81,2,85,620
Q8NI27-Q96J01,0.415282,420,65.152500,70.824457,84.060399,496,570,69,458,222,83,5,41,45,1593,351
Q8TAF3-P62068,0.657456,124,93.984919,87.632984,86.568607,514,78,27,58,237,81,22,26,0,677,366
Q8TAF3-Q8TBZ3,0.729319,867,77.723287,84.670650,71.838928,417,160,33,67,285,92,17,175,315,677,569
Q8TAQ2-Q969G3,0.313471,1111,53.478983,53.349325,52.976667,136,277,131,670,0,135,76,200,242,1214,411
Q8TAQ2-Q96GM5,0.452975,1192,56.534027,54.211161,61.350932,110,336,148,620,2,241,120,152,236,1214,515
Q8WTW4-O75140,0.661601,367,77.033733,89.561316,69.098522,241,127,9,3,480,496,101,526,3,380,1603
Q8WUF5-P62136,0.537085,710,63.564704,51.567186,88.564939,162,58,71,537,254,40,9,27,46,828,330
Q8WUM0-P57740,0.690605,888,69.435259,78.027050,73.030670,231,712,84,129,97,582,81,165,259,1156,925
Q8WV22-Q96MG7,0.481199,302,71.066159,82.220602,67.341480,46,187,20,13,15,183,16,90,10,266,304
Q8WVC0-Q8N7H5,0.328613,707,57.591909,45.264054,55.566648,12,134,52,468,26,165,57,283,94,666,531
Q8WVM7-O60216,0.635276,1318,61.832830,74.537417,48.137734,405,533,23,297,1,153,91,386,216,1258,631
Q8WWY3-O94906,0.466146,570,63.497211,63.453707,74.395611,3,267,48,181,246,406,82,207,11,499,941
Q92506-Q8N4T8,0.696582,183,91.356339,89.135556,94.429030,211,32,2,16,215,20,2,0,0,261,237
Q92552-P82930,0.684928,181,89.940994,88.329734,78.918119,334,27,17,36,81,83,23,31,0,414,218
Q92552-Q9Y676,0.212210,271,63.214723,86.923792,53.837481,315,44,4,51,3,83,29,143,16,414,258
Q92665-O60783,0.310855,186,71.675538,56.922759,75.533437,25,89,111,170,16,77,10,25,2,395,128
Q92665-P82664,0.150505,486,54.534115,51.050633,61.408209,0,87,61,247,0,94,22,85,83,395,201
Q92665-P82673,0.294468,467,60.433490,57.053696,72.744954,59,80,38,218,76,133,47,67,55,395,323
Q92665-P82675,0.222692,619,55.469709,49.187848,63.477000,0,92,50,253,73,123,73,161,121,395,430
Q92665-Q96EL2,0.086814,350,52.886829,57.723949,61.073772,40,89,79,187,0,77,27,63,12,395,167
Q92665-Q96EY7,0.577771,655,65.839878,53.427443,80.573599,12,102,64,217,365,185,30,109,67,395,689
Q92665-Q9Y291,0.178268,292,60.870822,54.307722,72.422170,0,101,88,206,0,67,38,1,33,395,106
Q92759-Q6ZYL4,0.524590,137,84.271022,89.303009,80.446479,355,72,15,20,34,22,7,8,10,462,71
Q92785-Q12824,0.456303,455,65.531912,58.557187,74.807610,10,132,83,166,50,223,54,58,27,391,385
Q92785-Q8TAQ2,0.120547,1120,46.514688,51.553504,52.084061,0,121,42,228,135,244,134,701,198,391,1214
Q92797-Q9P2I0,0.658657,1096,64.800903,68.417174,72.500844,56,796,92,330,179,360,74,169,321,1274,782
Q92871-O15305,0.626520,115,92.972348,89.165267,91.314959,197,50,1,14,187,54,1,4,2,262,246
Q92905-Q9BT78,0.233116,238,65.584958,70.498503,88.713966,59,108,102,65,310,52,27,17,15,334,406
Q92905-Q9H9Q2,0.422430,249,71.560964,74.005419,83.398030,84,119,87,44,128,102,4,30,21,334,264
Q92905-Q9UBW8,0.222596,241,65.005726,72.005479,80.436436,69,129,88,48,129,91,7,48,38,334,275
Q92905-Q9UNS2,0.211128,262,63.552176,69.648024,84.773452,54,124,81,75,266,92,42,23,15,334,423
Q93050-P61421,0.266865,136,74.503015,75.087085,79.386781,4,643,116,74,6,306,34,5,0,837,351
Q96BH1-P62837,0.654731,303,79.080363,67.165403,95.665102,199,38,24,198,143,4,0,0,11,459,147
Q96C36-P32322,0.714100,394,82.652411,86.308281,85.432445,264,9,1,46,252,20,2,45,27,320,319
Q96CW5-Q08AG7,0.557209,263,75.716426,78.817960,71.973415,498,191,46,172,1,54,13,14,14,907,82
Q96CW5-Q9BSJ2,0.668871,650,70.778938,72.563528,73.387029,176,436,99,196,166,428,134,174,57,907,902
Q96DE0-Q9BRJ7,0.706931,182,93.279725,92.063128,92.447630,169,10,12,4,176,27,5,3,4,195,211
Q96DE5-P30260,0.119209,304,57.028750,57.875455,68.350473,0,51,8,51,391,95,26,312,47,110,824
Q96DE5-Q9UJX3,0.143420,231,61.559351,42.906636,84.500017,0,0,33,77,442,58,17,82,41,110,599
Q96DI7-Q99459,0.629570,628,68.635557,85.206695,58.761833,273,35,1,48,0,277,217,308,64,357,802
Q96DI7-Q9BUQ8,0.702263,773,72.300880,84.288936,67.755707,255,52,3,47,167,268,139,246,197,357,820
Q96EL2-P82675,0.129373,216,61.399120,64.438922,69.361744,24,58,21,64,102,144,63,121,18,167,430
Q96EL2-P82933,0.147190,336,57.809583,58.584311,67.882778,4,72,11,80,23,215,64,94,121,167,396
Q96EY7-P82673,0.472039,328,69.748323,81.230029,76.108452,362,193,32,102,47,202,30,44,33,689,323
Q96EY7-P82675,0.361035,448,62.863571,79.713875,64.192605,337,199,50,103,47,184,46,153,116,689,430
Q96EY9-Q7Z6V5,0.676737,175,89.574629,88.072165,85.965131,270,37,13,31,149,8,4,30,0,351,191
Q96FW1-P62837,0.641411,169,87.032426,88.648266,95.816735,213,29,7,22,144,3,0,0,0,271,147
Q96FX7-Q9UJA5,0.730499,370,89.667622,93.156505,81.451469,248,31,8,2,332,42,15,108,8,289,497
Q96GM5-Q969G3,0.220329,467,57.924839,65.692350,57.702968,23,278,67,147,0,175,54,182,67,515,411
Q96H20-Q86VN1,0.722488,365,86.062329,84.682752,84.310207,141,78,28,11,185,152,23,26,4,258,386
Q96H20-Q9BRG1,0.556036,126,87.180159,81.758023,91.503182,123,80,38,17,137,36,1,2,0,258,176
Q96I99-P53597,0.716640,319,86.306959,87.828843,86.934133,309,85,3,35,263,38,5,40,0,432,346
Q96IY1-Q9H081,0.641144,297,78.396094,69.867224,89.107805,51,128,15,87,125,77,1,2,9,281,205
Q96IY1-Q9H410,0.638716,574,70.121655,71.028327,65.243315,61,91,59,70,68,109,53,126,18,281,356
Q96K17-Q13765,0.590609,217,79.988664,73.273924,71.209814,59,31,37,31,49,73,34,59,18,158,215
Q96L21-P46777,0.059643,71,67.362113,80.446869,83.741818,86,76,38,14,183,57,44,13,0,214,297
Q96LZ2-Q9UBF1,0.414251,581,61.801480,68.005043,60.313029,52,167,13,115,8,168,49,148,152,347,373
Q96N28-O43715,0.653253,144,90.790694,91.316047,83.012500,130,36,6,0,54,5,4,13,0,172,76
Q96QK1-O75436,0.624974,131,90.381756,90.695327,84.434281,599,176,14,7,194,88,17,28,3,796,327
Q96RT8-P23258,0.709886,438,80.347922,73.734180,88.299911,369,303,117,235,273,151,15,12,0,1024,451
Q96RT8-Q9UGJ1,0.688519,719,71.442378,68.891855,77.104498,98,527,126,273,91,445,32,99,38,1024,667
Q99436-P20618,0.357163,248,69.479355,79.430903,83.071286,135,83,7,52,146,57,8,30,35,277,241
Q99436-P28070,0.108855,246,58.402683,69.104368,71.650152,67,92,39,79,79,91,29,65,57,277,264
Q99436-P60900,0.273177,113,77.691062,78.231047,88.016260,117,77,39,44,175,49,8,14,0,277,246
Q99459-O75934,0.720005,303,88.042838,68.073379,84.342133,95,318,199,190,104,103,9,9,0,802,225
Q99459-Q9UMS4,0.637215,621,69.177552,57.446658,83.838671,4,250,227,321,279,154,33,38,66,802,504
Q99460-P48556,0.607326,276,77.410543,86.023505,72.786114,691,141,21,100,152,82,26,90,23,953,350
Q99460-P62191,0.387671,322,67.288727,82.159696,66.214227,374,449,13,117,3,252,59,126,42,953,440
Q99460-P62195,0.416813,177,76.082599,82.706674,74.583128,368,457,23,105,13,286,70,37,0,953,406
Q99460-Q13200,0.732901,950,79.015600,80.200451,80.347478,309,498,25,121,283,488,41,96,214,953,908
Q99471-O15212,0.655307,155,89.640000,88.457532,88.914031,102,44,6,2,90,32,2,5,2,154,129
Q99471-P61758,0.606028,128,89.590078,88.707857,85.306802,92,54,5,3,123,51,4,19,8,154,197
Q99547-Q9NQT5,0.335391,226,69.939292,60.587875,74.642291,0,60,41,59,31,172,31,41,9,160,275
Q99547-Q9Y3B2,0.158869,76,78.501579,63.094938,82.842718,0,59,68,33,56,115,16,8,2,160,195
Q99613-O00303,0.055975,220,52.388818,70.695060,66.660532,188,404,87,234,11,207,51,88,50,913,357
Q99613-O15371,0.662671,733,69.031569,69.162300,76.035657,137,428,86,262,170,217,61,100,46,913,548
Q99613-O15372,0.201630,350,60.019343,70.470230,70.691165,215,368,95,235,2,235,69,46,39,913,352
Q99627-Q7L5N1,0.157969,239,62.028159,78.015455,66.112599,98,56,12,43,44,120,65,98,17,209,327
Q99627-Q92905,0.184871,266,62.205075,78.568469,69.387305,105,49,8,47,89,87,67,91,31,209,334
Q99627-Q9H9Q2,0.520850,170,80.575471,80.323349,87.517311,125,29,20,35,181,51,19,13,5,209,264
Q99627-Q9UBW8,0.520767,163,81.237178,80.882392,84.540982,134,22,18,35,200,28,13,34,4,209,275
Q99627-Q9UNS2,0.699337,332,82.377470,81.246699,85.116572,138,17,8,46,304,50,12,57,17,209,423
Q99832-P17987,0.717928,328,86.236250,89.042210,89.201079,383,126,13,21,415,98,17,26,4,543,556
Q99832-P40227,0.717601,346,85.360000,88.108766,91.821959,376,123,11,33,427,89,10,5,9,543,531
Q99832-P48643,0.730452,410,88.105634,89.579853,91.550573,413,94,10,26,448,68,17,8,6,543,541
Q99832-P50990,0.725758,399,86.022882,91.355470,90.534891,452,66,8,17,458,47,15,28,15,543,548
Q99832-P50991,0.717534,329,86.083860,88.917330,90.271503,406,96,8,33,446,60,8,25,8,543,539
Q9BPX5-P59998,0.538576,167,81.604012,82.396993,79.963214,100,17,3,33,47,87,28,6,0,153,168
Q9BPX6-Q8IYU8,0.351403,307,66.707980,67.428214,68.226152,43,234,62,137,12,253,35,134,42,476,434
Q9BQE3-P07437,0.683403,185,89.379135,90.177171,91.096914,363,55,16,15,347,70,14,13,2,449,444
Q9BRT9-Q14691,0.711749,210,91.810857,87.356996,90.544031,157,43,4,19,135,51,10,0,0,223,196
Q9BRX5-Q14691,0.711419,249,88.902731,88.786343,91.011224,146,52,10,8,143,42,11,0,0,216,196
Q9BSJ2-Q6P582,0.540652,458,68.242074,81.055920,45.032342,385,326,115,76,0,44,8,106,41,902,158
Q9BT78-P61201,0.192602,136,71.108015,87.641010,83.654898,296,66,22,22,195,188,21,39,0,406,443
Q9BT78-Q9H9Q2,0.518732,159,81.550943,90.532709,87.859924,350,12,34,10,182,50,18,14,2,406,264
Q9BUF5-Q9BQE3,0.683497,187,89.206738,91.072422,90.144232,353,65,14,14,366,53,14,16,0,446,449
Q9BUI4-O14802,0.682818,269,83.333532,83.938521,84.530748,130,361,13,30,421,859,64,46,2,534,1390
Q9BUL8-Q9P289,0.546720,280,74.444000,85.179245,78.401370,126,63,4,19,215,99,15,87,20,212,416
Q9BUQ8-Q8WWY3,0.507410,640,63.612641,65.801305,60.578697,64,351,152,253,22,223,33,221,154,820,499
Q9BV35-Q6KCM7,0.713903,847,73.229953,75.231026,72.970618,122,189,108,49,100,199,93,77,385,468,469
Q9BV81-Q15006,0.317916,157,74.339682,64.293727,85.546869,0,54,24,32,191,68,7,31,21,110,297
Q9BV81-Q8N4V1,0.124080,152,65.288092,68.755909,58.625267,0,72,22,16,0,47,36,48,0,110,131
Q9BW85-Q99459,0.160717,341,58.390704,60.004551,65.007207,2,132,68,121,25,381,157,239,42,323,802
Q9BWW4-Q86U70,0.227155,562,56.475302,44.440515,66.041825,41,46,4,297,159,59,8,185,89,388,411
Q9BWW4-Q9BWG4,0.046329,561,42.079768,39.692732,39.092182,0,26,54,308,0,26,51,308,134,388,385
Q9BXJ9-P41227,0.729063,462,85.552641,90.428661,75.156128,722,78,21,45,135,30,5,65,33,866,235
Q9BXJ9-Q9GZZ1,0.599921,127,89.369370,90.623083,90.175266,716,81,27,42,146,5,4,14,3,866,169
Q9BYD2-Q13084,0.649176,184,86.198315,78.829738,84.593086,124,81,20,42,138,75,32,11,2,267,256
Q9BYD2-Q9BYD6,0.549790,120,87.765750,74.885843,78.614369,75,107,40,45,153,85,33,54,2,267,325
Q9BYD3-Q4U2R6,0.650840,204,84.654363,78.614244,75.746328,166,64,11,70,53,32,15,28,8,311,128
Q9BYD3-Q8N5N7,0.626766,219,81.875068,72.415595,71.495759,121,60,57,73,65,18,35,40,0,311,158
Q9BYD3-Q8TAE8,0.250638,180,69.837889,71.232379,68.032432,33,171,33,74,0,138,40,44,30,311,222
Q9BYN8-P82914,0.268397,101,79.373168,74.849122,69.961089,81,49,41,34,14,148,22,73,15,205,257
Q9BYN8-P82930,0.230736,146,71.910274,77.454195,74.657339,84,55,40,26,33,108,52,25,0,205,218
Q9BZE1-Q9HD33,0.244913,289,63.788720,82.275745,59.095440,267,64,40,52,0,94,67,89,19,423,250
Q9BZE4-Q13823,0.511536,881,60.739432,66.532524,61.763557,76,245,125,188,39,277,130,285,122,634,731
Q9BZJ0-O60508,0.563472,784,63.531071,68.957229,70.613903,101,454,38,255,217,132,47,183,258,848,579
Q9BZJ0-Q96DI7,0.489247,484,65.898657,70.863974,83.970280,244,323,34,247,243,65,2,47,115,848,357
Q9BZJ0-Q99459,0.652949,706,68.766856,71.445012,64.020200,81,506,61,200,1,322,308,171,48,848,802
Q9C086-Q9Y265,0.519130,506,66.402470,47.968736,86.952610,0,44,99,213,250,162,39,5,19,356,456
Q9GZQ3-Q9H0A8,0.310504,208,70.161971,77.845268,82.127236,80,95,22,27,65,109,18,7,13,224,199
Q9GZS3-Q6PD62,0.635481,220,82.369955,91.190230,72.812813,233,67,3,2,310,564,14,285,0,305,1173
Q9H009-P20290,0.582005,246,77.750285,70.252186,61.253689,37,97,21,60,38,45,37,86,12,215,206
Q9H009-Q96K17,0.584678,226,79.095973,71.465860,72.913418,43,91,24,57,55,38,22,43,22,215,158
Q9H081-Q9H410,0.483499,444,66.646509,79.119024,59.980758,0,182,15,8,3,148,70,135,23,205,356
Q9H0U3-Q8TCJ2,0.686427,354,79.827768,78.201194,76.324649,59,207,41,28,284,344,41,157,0,335,826
Q9H0U6-Q14197,0.104054,124,66.231371,65.946500,63.172379,3,93,29,55,2,98,35,71,0,180,206
Q9H0U6-Q96DV4,0.700175,373,80.880590,78.249222,80.371816,97,36,8,39,236,48,25,71,0,180,380
Q9H147-Q6PJG2,0.167323,464,55.778707,68.320182,44.559675,47,148,27,107,1,120,112,812,21,329,1045
Q9H1D9-O14802,0.135727,101,72.016535,69.836646,85.884058,0,192,92,32,549,748,64,29,0,316,1390
Q9H1D9-O15318,0.333333,212,70.703774,81.309589,48.849686,90,182,18,26,0,3,97,123,0,316,223
Q9H2W6-Q7Z7F7,0.448238,148,79.958716,79.495125,67.492891,102,117,17,43,1,66,28,33,0,279,128
Q9H2W6-Q96GC5,0.444898,268,71.356231,80.664409,69.224623,119,100,19,41,43,88,11,70,3,279,212
Q9H2W6-Q9NQ50,0.705484,243,88.099136,82.760502,69.513204,179,44,16,40,59,51,38,58,4,279,206
Q9H2X3-Q9NNX6,0.053400,578,43.861661,56.192180,57.254851,76,51,21,251,95,31,37,241,451,399,404
Q9H668-Q2NKJ3,0.708371,550,77.177145,78.535462,80.495292,86,210,25,47,450,529,110,128,105,368,1217
Q9H936-Q9H1K4,0.566951,256,76.506484,76.374087,72.972794,0,258,39,26,0,236,45,34,53,323,315
Q9H9J2-Q8N983,0.454613,273,71.443187,81.293283,59.271070,182,84,15,51,57,28,8,122,8,332,215
Q9H9Q2-Q92905,0.230023,207,67.172899,83.000379,72.148862,122,107,5,30,79,108,95,52,11,264,334
Q9H9Q2-Q9UNS2,0.405676,125,81.146800,84.293674,86.593901,138,91,9,26,299,59,48,17,12,264,423
Q9HCS7-Q99459,0.385639,552,61.486341,78.728713,58.879900,132,577,17,129,0,265,272,265,10,855,802
Q9HD33-Q16540,0.582625,192,81.446198,69.109440,74.549216,68,59,61,62,57,36,33,27,8,250,153
Q9HD33-Q8IXM3,0.313308,246,68.119146,67.112640,65.571606,41,83,62,64,6,54,34,43,11,250,137
Q9HD33-Q96A35,0.458635,259,72.255676,70.285160,79.090231,31,127,25,67,8,173,24,11,4,250,216
Q9HD33-Q9BQ48,0.138329,55,83.168727,72.125440,58.846739,61,94,33,62,1,37,16,38,0,250,92
Q9NP92-Q16540,0.093431,148,62.777162,83.632893,53.071765,268,95,28,48,0,40,41,72,10,439,153
Q9NP92-Q9BZE1,0.647197,303,78.533663,83.801708,80.670095,278,91,16,54,274,56,7,86,6,439,423
Q9NP92-Q9NRX2,0.336897,173,73.619769,84.445285,78.366800,265,101,30,43,77,52,25,21,19,439,175
Q9NP97-Q96EX3,0.415083,276,70.013080,86.342604,82.092948,39,55,2,0,366,49,16,105,8,96,536
Q9NPD3-Q06265,0.692307,362,80.219751,90.016327,75.383326,195,29,10,11,243,38,24,134,20,245,439
Q9NPD3-Q5RKV6,0.656394,212,84.487736,89.668122,84.078676,182,41,18,4,168,43,38,23,3,245,272
Q9NPD3-Q9NQT4,0.686175,146,93.981507,90.833061,87.794128,191,36,9,9,188,20,3,24,2,245,235
Q9NPF4-Q14657,0.670482,185,87.974432,94.566239,71.489860,303,32,0,0,74,11,2,56,4,335,143
Q9NQP4-P61758,0.671670,159,90.725094,88.575597,85.891980,97,21,12,4,124,51,3,19,0,134,197
Q9NQT4-Q5RKV6,0.660753,312,79.143397,83.786383,78.903272,144,61,4,26,141,60,19,52,65,235,272
Q9NQT5-Q06265,0.525972,430,68.423721,77.305782,72.749248,86,130,20,39,239,42,8,150,30,275,439
Q9NQT5-Q9NQT4,0.648818,156,88.987372,82.879345,87.192340,138,90,12,35,175,27,9,24,0,275,235
Q9NQT5-Q9Y3B2,0.470482,179,77.834078,75.171091,82.487385,62,149,20,44,63,105,16,11,28,275,195
Q9NR50-Q13144,0.599064,309,75.467023,85.221394,83.183662,283,106,16,47,425,175,21,100,29,452,721
Q9NRR4-Q8WYQ5,0.212682,1064,50.826137,66.397533,52.933739,255,564,117,438,6,259,122,386,337,1374,773
Q9NRX2-P49406,0.192804,177,67.498136,77.771143,78.646541,75,54,17,29,149,69,8,66,2,175,292
Q9NRY2-Q68E01,0.592993,280,76.485964,62.306346,83.415168,31,15,14,44,778,87,14,164,31,104,1043
Q9NSD9-Q9Y285,0.736676,435,95.150322,95.280102,91.168622,552,36,1,0,357,138,7,6,4,589,508
Q9NV88-Q96HW7,0.722175,397,84.748136,87.785729,81.917850,358,261,18,21,469,332,31,131,18,658,963
Q9NW08-P05423,0.585412,690,65.619812,85.969938,48.027764,625,386,76,46,3,91,24,280,140,1133,398
Q9NW08-Q9Y535,0.108923,80,73.381000,85.047855,83.365294,636,348,80,69,101,74,10,19,0,1133,204
Q9NWU5-Q9NYK5,0.618539,202,82.612772,62.369126,85.880888,0,88,51,67,258,33,8,39,35,206,338
Q9NWV8-Q9NXR7,0.704354,329,83.299878,75.638237,92.644621,173,60,19,77,319,63,1,0,31,329,383
Q9NX18-P31040,0.713796,308,86.132987,74.905904,90.601370,86,25,6,49,535,83,6,40,0,166,664
Q9NX20-Q7Z7H8,0.437536,150,79.350067,78.288207,66.484406,66,128,19,38,22,116,38,85,2,251,261
Q9NX55-P41227,0.446614,193,75.867927,63.924884,74.615617,10,59,3,57,90,70,24,51,11,129,235
Q9NX55-Q9BXJ9,0.714412,334,85.075180,71.964729,90.417656,71,10,7,41,720,81,26,39,22,129,866
Q9NYB9-Q7L576,0.273920,706,56.013017,45.524600,83.805730,0,153,32,328,367,775,63,48,93,513,1253
Q9NYB9-Q8WUW1,0.450908,226,73.805841,58.480292,84.366000,103,77,69,264,45,19,5,6,4,513,75
Q9NYB9-Q92558,0.225418,740,54.064122,53.805634,49.867281,74,102,48,289,20,117,87,335,215,513,559
Q9NYB9-Q9Y2A7,0.525970,626,64.432955,47.839649,86.390824,2,163,46,302,434,628,56,10,39,513,1128
Q9NYK5-Q9BYC8,0.276501,172,71.478895,85.167041,51.694521,248,39,9,42,0,41,39,108,7,338,188
Q9NYK5-Q9NRX2,0.448099,97,87.337732,87.447692,81.297486,270,19,13,36,80,59,17,19,0,338,175
Q9NZL9-P31153,0.642037,220,82.821045,88.718084,91.359949,262,34,13,25,330,50,2,13,4,334,395
Q9P000-Q9H0A8,0.621050,213,81.946385,83.308535,85.253668,72,94,29,3,76,107,13,3,4,198,199
Q9P000-Q9NX08,0.329413,177,73.029153,78.370960,73.971749,22,130,36,10,0,144,16,23,6,198,183
Q9P015-Q13405,0.649047,168,87.718452,78.861655,81.243494,184,21,28,63,116,14,3,33,6,296,166
Q9P015-Q14197,0.660415,237,83.094473,76.229426,76.318544,180,19,12,85,74,72,23,37,0,296,206
Q9P015-Q8TAE8,0.528643,145,83.484414,74.740405,78.397387,178,22,7,89,101,62,20,39,0,296,222
Q9P015-Q96DV4,0.197049,359,59.567187,71.562466,74.875211,106,93,7,90,181,76,11,112,77,296,380
Q9P015-Q9BYD3,0.266900,213,68.269859,77.914155,71.766817,121,102,14,59,82,113,43,73,0,296,311
Q9P0I2-Q15006,0.427801,213,73.827746,66.409923,75.798519,0,127,100,34,1,239,38,19,0,261,297
Q9P0I2-Q8N4V1,0.052598,206,52.127573,60.359962,44.349466,0,41,172,48,0,0,48,83,33,261,131
Q9P0N9-Q92574,0.204831,253,63.680830,85.480546,55.620842,150,114,16,13,62,363,176,563,17,293,1164
Q9P2I0-Q9C0J8,0.285106,1793,49.339013,72.198159,41.933720,206,293,125,158,96,215,54,971,674,782,1336
Q9UBB5-Q13330,0.110839,432,53.132245,54.491071,65.947972,0,164,70,177,49,316,134,216,73,411,715
Q9UBI1-Q9GZQ3,0.458715,234,73.602863,81.402051,77.172009,79,78,32,6,85,89,22,28,12,195,224
Q9UBI1-Q9H0A8,0.457736,230,73.802435,79.059846,79.704523,66,75,46,8,49,116,22,12,5,195,199
Q9UBI1-Q9NX08,0.490452,244,74.152459,78.818513,72.947213,19,134,35,7,0,142,16,25,5,195,183
Q9UBI1-Q9P000,0.264907,146,73.362671,80.876718,77.104242,26,136,32,1,19,128,41,10,5,195,198
Q9UBI1-Q9Y6G5,0.241722,195,68.418564,77.801795,76.455446,52,90,44,9,64,69,54,15,0,195,202
Q9UBQ0-Q96QK1,0.728282,242,95.162273,94.763846,93.319749,173,9,0,0,704,79,8,5,0,182,796
Q9UBQ5-O00303,0.340046,314,66.086975,79.869633,61.836359,47,137,7,27,9,150,70,128,13,218,357
Q9UBQ5-O15372,0.465444,342,69.033450,83.540229,63.167415,135,53,3,27,9,136,105,102,64,218,352
Q9UBQ5-Q9Y262,0.665771,301,80.056944,83.701376,79.643582,71,120,15,12,212,226,64,62,2,218,564
Q9UBT2-Q9UBE0,0.714763,418,81.992990,83.222547,89.456879,424,85,29,102,278,35,7,26,11,640,346
Q9UBU8-Q15014,0.333972,410,62.971780,67.748039,62.112604,67,153,29,113,40,115,13,120,21,362,288
Q9UBU9-Q9UKK6,0.716382,254,89.788780,77.367027,92.071714,269,199,22,129,122,12,3,3,2,619,140
Q9UBW8-Q9BT78,0.512583,114,87.009386,85.254145,92.459680,185,44,17,29,351,38,14,3,0,275,406
Q9UGJ1-P23258,0.720403,272,89.864779,84.203328,91.526053,441,114,24,88,371,57,17,6,0,667,451
Q9UHE8-Q6NZ63,0.299579,276,66.262717,67.210472,64.549551,12,169,88,70,0,108,81,56,0,339,245
Q9UHN1-P54098,0.660080,547,72.046362,76.296144,79.857627,92,289,26,78,496,498,63,182,71,485,1239
Q9UHV9-O60925,0.444198,105,85.695238,74.508766,91.641721,66,36,6,46,93,26,3,0,2,154,122
Q9UHV9-P61758,0.562530,171,82.302164,72.606039,81.446294,62,37,8,47,119,34,22,22,4,154,197
Q9UHV9-Q99471,0.602874,196,82.182959,72.568052,84.347792,46,56,5,47,70,59,23,2,4,154,154
Q9UI08-P50552,0.185107,602,54.276561,55.857115,56.354342,76,77,40,223,76,66,29,209,100,416,380
Q9UI09-O95182,0.035922,70,53.744571,53.823655,46.663274,0,13,59,73,0,0,36,77,7,145,113
Q9UI10-P49770,0.686483,314,81.498949,75.937476,90.153248,293,45,64,121,274,47,25,5,14,523,351
Q9UI10-Q13144,0.572197,509,68.277917,72.250994,81.398960,197,141,57,128,355,239,26,101,131,523,721
Q9UI10-Q9NR50,0.634233,270,79.276704,76.088642,86.321062,282,76,45,120,315,78,11,48,10,523,452
Q9UIV1-P62324,0.687426,247,85.163239,89.143018,80.857836,237,16,3,29,103,17,29,22,10,285,171
Q9UIV1-P78543,0.578001,202,80.441782,88.867684,78.892722,233,20,4,28,83,38,6,31,15,285,158
Q9UJX2-Q13042,0.663217,447,74.668412,83.057621,78.429952,268,248,17,64,227,266,14,113,10,597,620
Q9UJX2-Q9BS18,0.345912,133,77.914511,89.724858,52.638108,495,31,34,37,7,17,2,48,0,597,74
Q9UJX3-P30260,0.508754,610,64.131689,79.190818,64.601893,197,297,15,90,192,276,31,325,84,599,824
Q9UJX4-Q9UJX2,0.515897,219,76.595982,80.089219,85.578157,212,415,48,80,399,120,21,57,0,755,597
Q9UJX5-Q9UJX4,0.726757,435,85.235517,81.673899,81.868371,354,317,58,79,299,345,32,79,0,808,755
Q9UJX6-Q13042,0.160626,142,68.707042,79.066606,77.755145,79,580,102,61,139,336,60,85,0,822,620
Q9UJX6-Q9UJX5,0.349606,267,68.316367,78.776363,78.145037,51,625,84,62,141,505,64,98,0,822,808
Q9UK45-O95777,0.468521,136,82.110735,78.317379,82.351146,42,33,9,19,54,23,4,15,9,103,96
Q9UK45-Q9Y333,0.575654,131,87.464885,80.349417,87.028105,60,15,12,16,47,44,4,0,2,103,95
Q9UKF6-Q9P2I0,0.716157,654,76.638853,85.880614,79.268862,327,301,35,21,428,186,13,155,83,684,782
Q9UKK9-Q96C36,0.365676,187,73.522888,85.918265,84.447500,164,29,5,21,235,36,3,46,31,219,320
Q9ULG1-Q9Y265,0.449085,1218,56.260386,52.829049,73.583268,11,361,366,818,2,346,61,47,404,1556,456
Q9ULR0-Q99459,0.327945,211,70.580948,65.020281,66.691658,1,127,89,68,0,430,188,184,8,285,802
Q9UM07-Q9ULW8,0.726120,410,85.789098,88.240769,89.172846,404,216,23,20,428,201,25,10,0,663,664
Q9UM11-Q13042,0.555811,443,69.183567,71.951935,78.451694,254,50,43,149,273,206,30,111,57,496,620
Q9UM11-Q9UJX2,0.693530,437,77.885423,75.195988,85.573434,249,75,40,132,435,83,17,62,19,496,597
Q9UM13-P30260,0.688894,367,79.621798,89.843838,71.075328,127,48,9,1,455,47,15,307,48,185,824
Q9UMS4-Q99459,0.691277,650,72.854308,83.891052,58.889165,284,143,36,41,18,253,235,296,67,504,802
Q9UNM6-O00232,0.570759,96,93.152500,91.592154,93.428838,299,70,7,0,394,54,5,3,2,376,456
Q9UNM6-O00487,0.229450,139,72.568345,89.590745,65.508935,255,113,8,0,28,98,121,63,9,376,310
Q9UNP9-Q9HCS7,0.691448,522,75.427318,80.993256,80.925801,185,60,4,52,320,393,20,122,119,301,855
Q9UNP9-Q9ULR0,0.507801,436,67.643142,80.449635,57.387474,177,64,5,55,9,69,101,106,95,301,285
Q9UNS2-P61201,0.156779,152,67.543421,82.882293,82.677336,221,130,41,31,159,223,19,42,25,423,443
Q9UNS2-Q7L5N1,0.248069,188,69.154574,85.789504,70.765688,235,147,25,16,31,153,90,53,0,423,327
Q9Y230-Q9C086,0.649591,520,71.906058,82.328963,51.796404,202,185,26,50,1,71,83,201,49,463,356
Q9Y230-Q9ULG1,0.533939,1180,58.901822,73.792311,52.611138,6,350,48,59,16,343,414,783,375,463,1556
Q9Y248-Q14691,0.511105,212,76.875236,81.083027,83.987602,98,45,27,15,80,92,17,7,18,185,196
Q9Y248-Q9BRT9,0.714577,213,92.255587,90.873081,86.434439,150,22,2,11,149,44,12,18,4,185,223
Q9Y248-Q9BRX5,0.670165,213,85.631268,90.486919,82.147685,149,24,3,9,115,55,29,17,7,185,216
Q9Y265-Q9Y230,0.651315,355,76.701268,80.258114,79.229201,67,320,34,35,70,315,39,39,10,456,463
Q9Y285-Q9NSD9,0.736678,431,95.300000,91.441043,95.312801,367,130,6,5,555,33,1,0,12,508,589
Q9Y291-P82675,0.093461,166,61.370964,68.576038,69.131535,0,47,54,5,43,220,58,109,18,106,430
Q9Y296-Q9Y5R8,0.704387,169,94.123314,92.805205,95.114276,188,21,7,3,132,10,3,0,4,219,145
Q9Y2L1-Q15024,0.448193,160,78.728813,86.490543,84.253711,544,301,79,34,101,161,22,7,5,958,291
Q9Y2Q9-Q9Y399,0.605573,276,77.318261,65.079519,82.007973,62,19,41,65,179,53,11,53,2,187,296
Q9Y2R9-P82912,0.033688,32,59.765625,75.449463,67.044175,66,106,28,42,66,37,17,74,0,242,194
Q9Y2R9-P82933,0.495476,355,69.587239,75.861860,70.093460,26,166,16,34,59,178,81,78,36,242,396
Q9Y2Y1-O14802,0.698843,338,82.051686,73.782407,87.104475,0,69,35,4,774,534,46,36,8,108,1390
Q9Y333-O43172,0.380176,241,70.597925,74.807789,83.652835,0,66,29,0,348,70,11,93,17,95,522
Q9Y399-P82933,0.216156,215,66.111488,79.007669,74.216540,176,47,12,61,106,166,50,74,15,296,396
Q9Y399-Q9Y3D9,0.673654,267,82.497303,81.920507,71.616789,184,42,12,58,75,35,22,58,2,296,190
Q9Y3B1-O43715,0.674914,146,92.627466,88.999381,82.548026,143,24,24,3,53,7,3,13,0,194,76
Q9Y3B2-Q06265,0.458153,300,70.378167,79.805487,73.215877,31,132,22,10,237,43,12,147,20,195,439
Q9Y3B2-Q5RKV6,0.597445,162,84.955741,86.795744,81.459191,124,51,15,5,161,42,27,42,0,195,272
Q9Y3B2-Q9NPD3,0.551784,130,86.416923,86.723897,89.777347,127,47,12,9,185,38,9,13,0,195,245
Q9Y3B2-Q9NQT4,0.442550,130,81.872615,86.885538,85.827532,131,41,17,6,167,31,12,25,4,195,235
Q9Y3B6-Q15006,0.708967,202,91.865050,91.549087,92.810572,171,28,3,6,251,34,11,1,0,208,297
Q9Y3C4-Q96S44,0.690924,145,94.765379,95.745143,89.937154,166,8,1,0,191,40,8,14,0,175,253
Q9Y3D3-P82930,0.139751,170,64.990765,69.068832,74.517202,0,81,37,19,31,132,22,33,21,137,218
Q9Y3D5-P82912,0.035468,46,58.771087,63.866056,68.597113,15,51,27,49,66,35,30,63,10,142,194
Q9Y3D5-P82932,0.443019,124,82.693145,63.547394,89.044160,41,18,22,61,95,10,18,2,0,142,125
Q9Y3D9-P82675,0.163146,153,67.837516,64.558895,68.960512,15,82,27,66,81,164,65,120,22,190,430
Q9Y3U8-P26373,0.052960,69,65.723768,75.820095,68.797299,2,73,18,12,0,109,79,23,2,105,211
Q9Y3U8-P46776,0.035858,28,68.388929,75.146476,62.122027,15,56,22,12,0,69,23,56,0,105,148
Q9Y3U8-P61313,0.136033,50,84.987800,79.475619,78.599657,34,40,29,2,81,62,35,26,0,105,204
Q9Y3U8-P62424,0.158494,69,80.266087,76.262381,71.963271,9,63,25,8,68,94,35,69,0,105,266
Q9Y478-P54619,0.302794,242,67.961281,59.745963,85.237462,42,68,26,134,215,68,24,24,10,270,331
Q9Y4Y9-Q9Y4Z0,0.478823,105,87.099524,83.616044,70.433094,39,40,5,7,50,34,12,43,2,91,139
Q9Y4Z0-O43172,0.381062,313,67.413994,54.718561,82.582452,0,57,28,54,343,67,30,82,31,139,522
Q9Y4Z0-O95777,0.554332,99,91.668788,73.923885,86.616354,75,12,12,40,62,19,11,4,2,139,96
Q9Y4Z0-P62310,0.228774,123,74.381138,67.395827,78.601471,39,42,8,50,32,48,5,17,2,139,102
Q9Y4Z0-Q9Y333,0.388165,96,85.149271,64.521223,77.298737,15,62,8,54,3,66,26,0,7,139,95
Q9Y5B9-Q08945,0.709499,1074,69.958101,76.748644,65.962652,312,473,100,162,32,411,48,218,255,1047,709
Q9Y5J7-P62072,0.634243,128,91.472656,87.465056,87.515778,59,19,8,3,55,27,4,4,0,89,90
Q9Y5K8-P21281,0.477972,205,76.121073,77.123158,84.855519,54,129,36,28,286,157,20,48,7,247,511
Q9Y5R8-Q8IUR0,0.249663,152,72.147434,84.080069,72.960638,58,72,14,1,58,60,32,38,3,145,188
Q9Y676-P82650,0.402393,328,67.531433,68.271434,80.342389,71,66,39,82,213,70,12,65,48,258,360
Q9Y676-P82930,0.220675,309,62.111133,58.215039,74.071651,6,92,42,118,27,133,25,33,34,258,218
Q9Y6G3-Q9NYK5,0.157688,178,65.539045,44.496127,85.915917,0,8,30,104,254,32,17,35,11,142,338
Q9Y6G5-Q9H0A8,0.458688,238,73.373992,77.510941,80.658241,55,93,40,14,47,122,23,7,0,202,199
Q9Y6G5-Q9NX08,0.217095,197,67.246904,76.721436,70.850219,39,105,41,17,0,126,36,21,6,202,183
