Name,pDockQ,NumRes,IF_plDDT,plDDT1,plDDT2,NumDiso1+90,NumDiso1-70-90,NumDiso1-50-70,NumDiso1-50,NumDiso2+90,NumDiso2-70-90,NumDiso2-50-70,NumDiso2-50,NumOverlap,len1,len2
A0AVF1-Q86WT1_1,0.034946,15,81.503333,85.751498,87.942857,285,225,18,26,428,185,25,27,0,554,665
A0JLT2-O43513_1,0.057779,50,72.824800,54.257131,77.696695,0,39,95,110,84,93,18,38,0,244,233
A0JLT2-O60244_1,0.233594,229,66.069607,44.314180,72.230069,0,10,71,163,283,713,165,293,0,244,1454
A0JLT2-O75448_1,0.130523,115,69.646435,47.193934,79.881749,0,18,78,148,349,434,107,99,0,244,989
A0JLT2-O95402_1,0.110290,108,68.810741,56.897336,51.942600,0,53,92,99,20,130,67,383,0,244,600
A0JLT2-P24863_1,0.255873,92,80.445435,48.446762,89.299187,0,17,78,149,236,21,2,24,0,244,283
A0JLT2-Q13503_1,0.031385,5,58.198000,56.420328,83.555556,0,44,102,98,83,28,26,7,0,244,144
A0JLT2-Q15528_1,0.067590,68,70.001912,57.077664,75.905350,0,45,106,93,91,30,37,42,0,244,200
A0JLT2-Q15648_1,0.033969,128,43.426406,47.011025,49.458077,0,17,85,142,154,268,123,1036,5,244,1581
A0JLT2-Q6P2C8_1,0.141329,121,69.711570,50.398279,80.221801,0,22,91,131,103,140,38,30,0,244,311
A0JLT2-Q71SY5_1,0.066059,93,64.848172,49.982008,60.286078,0,21,84,139,150,153,87,357,0,244,747
A0JLT2-Q96HR3_1,0.096514,80,71.976250,55.534754,74.874382,0,38,107,99,76,31,36,35,0,244,178
A0JLT2-Q96RN5_1,0.037372,73,55.260411,51.724344,59.322944,0,32,89,123,98,229,91,370,0,244,788
A0JLT2-Q9BTT4_1,0.622082,227,81.046740,60.912910,88.356815,23,66,48,107,93,33,4,5,2,244,135
A0JLT2-Q9BUE0_1,0.074094,86,67.557093,55.807664,85.895817,0,46,89,109,139,40,12,17,0,244,208
A0JLT2-Q9H204_1,0.115662,68,76.915294,58.510861,76.657472,2,46,104,92,85,17,43,33,0,244,178
A0JLT2-Q9H944_1,0.048309,45,71.028222,57.165615,89.086792,0,54,90,100,156,34,12,10,0,244,212
A0JLT2-Q9NPJ6_1,0.047004,37,74.158649,57.008525,70.738148,0,47,106,91,107,37,38,88,0,244,270
A0JLT2-Q9NVC6_1,0.197788,205,65.872098,46.686066,74.475806,0,16,68,160,134,305,122,90,2,244,651
A0JLT2-Q9NWA0_1,0.044532,40,71.083750,59.768484,73.003014,3,63,97,81,55,23,33,35,0,244,146
A0JLT2-Q9NX70_1,0.066151,49,75.547959,57.039959,69.664700,0,47,102,95,65,38,41,56,0,244,200
A0JLT2-Q9P086_1,0.186213,77,80.039351,56.645451,85.007692,0,43,101,100,64,36,16,1,0,244,117
A0JLT2-Q9ULK4_1,0.353345,195,72.516308,41.647951,86.293640,0,12,48,184,685,580,70,33,0,244,1368
A1A519-Q9P0L0_1,0.054590,87,62.846092,47.092424,77.198835,1,51,38,240,99,77,21,52,0,330,249
A1IGU5-Q9NQY0_1,0.733553,394,91.320685,82.585526,88.462609,312,252,39,72,162,72,7,12,0,675,253
A1KXE4-O43251_1,0.031878,13,62.847692,42.202718,53.274436,0,0,21,174,76,7,46,261,0,195,390
A1X283-O43639_1,0.210372,106,75.845566,54.769594,74.439184,125,192,46,548,140,136,13,91,0,911,380
A2A368-P43358_1,0.061971,139,58.721727,64.571975,63.954416,48,136,27,113,54,120,17,126,0,324,317
A2VDF0-Q7Z5A8_1,0.082740,40,83.274000,94.255974,78.611654,140,9,4,1,61,26,38,8,0,154,133
A5D8V6-Q99816_1,0.725975,381,86.784541,62.023324,81.976974,119,39,11,186,254,47,16,73,0,355,390
A5YM69-Q12774_1,0.075560,620,46.979242,28.998388,46.592699,0,0,0,484,222,206,53,1116,19,484,1597
A6ND36-O95292_1,0.048142,45,70.943556,52.355140,72.173621,141,84,58,540,48,115,24,56,0,823,243
A6NGB9-O00401_1,0.494337,217,75.911843,52.191698,68.754297,13,74,108,288,104,144,138,119,0,483,505
A6NGB9-O43639_1,0.073705,104,64.726250,48.041946,76.297421,0,40,126,317,159,118,13,90,0,483,380
A6NGE4-Q5TAQ9_1,0.172825,144,69.226389,69.307583,70.108660,215,143,55,187,218,138,46,195,0,600,597
A6NHQ4-Q15022_1,0.102283,262,57.177176,35.638470,63.157375,0,0,7,372,133,212,98,296,0,379,739
A6NI28-Q9H4E7_1,0.040130,78,57.187179,61.146476,74.772678,60,347,157,310,115,347,70,99,0,874,631
A6NIJ9-O43240_1,0.506940,223,75.998161,85.619423,76.435797,136,153,18,5,113,65,60,38,0,312,276
A6NKF2-Q99856_1,0.154162,206,63.537087,58.193422,56.545228,59,89,43,221,64,120,71,338,6,412,593
A6NKQ9-Q6NT52_1,0.049469,114,57.542193,52.974759,56.637055,0,53,39,95,0,60,23,80,0,187,163
A6PVS8-Q7Z5L2_1,0.058453,214,53.247150,62.077372,40.211528,57,261,39,267,12,97,62,621,0,624,792
A6ZKI3-Q86TG7_1,0.386930,139,78.717410,78.513717,68.272020,55,28,6,24,150,249,99,210,0,113,708
A8K8V0-Q5T5X7_1,0.139000,221,61.783756,64.773827,60.537379,0,237,27,141,74,288,116,350,0,405,828
A8K8V0-Q9H4L7_1,0.391988,288,68.751701,61.064222,67.636140,0,219,52,134,173,441,104,308,0,405,1026
A8MZ97-P62136_1,0.199333,112,74.392768,43.188711,89.082818,14,21,7,152,271,19,7,33,0,194,330
B2RXF5-Q99592_1,0.638952,174,86.361609,62.130237,56.293046,69,124,41,188,68,124,43,287,4,422,522
B5ME19-O00303_1,0.059246,116,60.307241,67.658972,69.620812,30,522,125,237,28,205,39,85,0,914,357
B5ME19-O15371_1,0.095195,142,63.498451,68.395799,77.275620,57,507,95,255,240,128,108,72,0,914,548
B5ME19-O15372_1,0.134553,99,72.238384,64.115875,70.859375,0,474,192,248,3,226,87,36,0,914,352
B5ME19-P55884_1,0.196633,276,62.335217,68.216893,69.838157,79,494,90,251,85,445,89,195,6,914,814
B5ME19-Q13347_1,0.653684,284,79.907535,67.618611,85.851385,28,529,115,242,109,194,20,2,33,914,325
B9A064-P15814_1,0.074527,116,63.376034,64.321402,63.458122,77,24,20,93,72,31,18,92,4,214,213
C9JRZ8-F5H284_1,0.172561,48,88.853125,95.141835,92.727256,277,34,5,0,123,40,1,0,0,316,164
C9JRZ8-O60218_1,0.108249,34,91.098529,95.121741,95.643766,284,29,3,0,286,29,1,0,0,316,316
C9JRZ8-P11586_1,0.043429,17,91.556471,93.459620,92.268663,263,46,7,0,727,196,12,0,0,316,935
F5H284-P37837_1,0.070586,26,91.475769,93.760671,94.378932,144,19,1,0,311,11,6,9,0,164,337
O00148-Q13838_1,0.081401,76,70.723421,80.973888,80.620234,211,137,28,51,208,140,27,53,0,427,428
O00159-P62158_1,0.038380,57,59.864211,80.943904,77.391680,233,710,68,52,142,125,68,52,0,1063,387
O00294-O75386_1,0.129102,121,68.796860,61.195756,66.384321,115,120,51,256,126,113,42,161,0,542,442
O00303-O15372_1,0.608118,370,73.613622,66.148599,66.140341,2,198,69,88,0,192,98,62,0,357,352
O00303-O75821_1,0.202979,120,73.508167,73.526583,64.280188,84,172,14,87,41,100,91,88,0,357,320
O00303-Q13347_1,0.045651,28,79.482857,69.833165,90.747446,41,192,36,88,253,54,15,3,0,357,325
O00399-Q9UJW0_1,0.331470,83,85.630723,83.028579,77.356478,97,62,15,16,95,246,66,53,0,190,460
O00409-Q9UIJ7_1,0.153517,117,71.042222,49.876837,87.922247,47,50,59,334,129,84,5,9,0,490,227
O00411-Q8N5Z5_1,0.545640,457,68.449453,78.287211,55.370062,437,494,142,157,43,73,36,169,0,1230,321
O00425-P11940_1,0.227018,122,74.425738,76.065130,71.348616,121,312,44,102,175,226,70,165,0,579,636
O00425-P46783_1,0.031579,10,59.472000,75.517876,68.529212,86,345,54,94,58,35,6,66,0,579,165
O00425-P62277_1,0.031426,7,55.894286,76.425803,84.072583,116,320,59,84,63,69,9,10,0,579,151
O00425-Q02878_1,0.037423,37,65.735135,76.884491,70.594410,128,310,52,89,51,114,72,51,0,579,288
O00425-Q9NZI8_1,0.233938,185,68.784486,74.246857,74.822600,62,367,46,104,65,360,63,89,0,579,577
O00459-P27986_1,0.343848,147,76.276667,78.892761,77.900649,144,438,79,67,126,452,74,72,0,728,724
O00459-Q92569_1,0.306207,178,72.114551,78.857637,74.856985,129,457,78,64,72,283,26,80,0,728,461
O00469-Q8NBJ5_1,0.136433,65,79.680308,87.297273,82.541559,469,210,24,34,359,146,44,73,0,737,622
O00470-O14770_1,0.314048,236,68.661907,56.860077,54.095262,18,121,50,201,15,121,56,285,0,390,477
O00471-Q8IYI6_1,0.266948,140,74.069357,81.821003,74.150179,157,463,71,17,49,481,96,99,0,708,725
O00471-Q8TAG9_1,0.719011,415,83.164651,84.248898,80.535087,219,422,46,21,127,560,58,59,0,708,804
O00471-Q9UPT5_1,0.189031,145,70.007862,82.863870,77.462014,240,373,72,23,345,210,50,130,0,708,735
O00471-Q9Y2D4_1,0.706881,434,79.922903,83.655381,78.192441,218,420,49,21,47,633,72,59,14,708,811
O00472-Q96JC9_1,0.673701,328,79.571433,66.080797,64.391343,163,170,51,256,71,46,39,112,20,640,268
O00472-Q9UHB7_1,0.390800,353,66.330312,61.807969,47.233018,154,146,42,298,173,73,32,885,4,640,1163
O00478-P78410_1,0.558669,195,80.077487,78.685462,81.762695,246,198,68,72,141,137,43,13,8,584,334
O00487-P51665_1,0.713556,341,84.575103,76.471968,82.339660,57,169,45,39,77,207,35,5,0,310,324
O00487-P62195_1,0.035042,20,73.956000,71.472871,80.709507,9,177,79,45,69,270,47,20,0,310,406
O00487-Q15008_1,0.033531,23,65.365217,72.628710,79.257018,7,197,65,41,8,322,49,10,0,310,389
O00487-Q16186_1,0.051056,68,65.236912,75.727355,57.640000,41,179,53,37,24,127,72,184,0,310,407
O00487-Q99460_1,0.474772,184,77.580435,73.334581,74.594586,3,191,97,19,72,652,140,89,0,310,953
O00487-Q9BRP4_1,0.031339,2,80.925000,73.073161,91.880000,25,181,63,41,292,90,8,2,0,310,392
O00487-Q9Y5K5_1,0.034656,17,76.962941,74.904387,84.405897,37,181,49,43,155,134,22,18,0,310,329
O00499-Q9UBW5_1,0.697319,319,82.654514,64.169511,59.136354,205,87,44,257,177,31,32,325,0,593,565
O00505-O00629_1,0.046776,101,57.919307,82.071324,82.893493,339,71,18,93,350,61,30,80,3,521,521
O00506-Q9BUL8_1,0.661655,229,83.724760,78.200869,84.719528,218,102,25,81,109,79,8,16,0,426,212
O00506-Q9P289_1,0.366855,291,67.829485,75.167981,76.098197,160,138,43,85,156,141,38,81,0,426,416
O00506-Q9Y6E0_1,0.063849,175,56.486114,70.739906,69.208375,163,80,61,122,160,82,63,138,0,426,443
O00522-O14713_1,0.559184,228,77.794035,80.098872,69.937800,267,328,58,83,61,67,13,59,5,736,200
O00541-P46087_1,0.106660,195,60.781949,74.033724,60.585259,51,355,95,87,224,140,43,405,0,588,812
O00541-Q9GZL7_1,0.034003,14,79.995000,74.690459,84.721158,98,312,94,84,173,209,17,24,0,588,423
O00567-O76021_1,0.034292,70,50.459286,72.418636,62.947633,91,331,40,132,56,203,27,204,0,594,490
O00567-P05388_1,0.031435,5,69.264000,71.847306,70.494227,90,334,36,134,0,234,36,47,0,594,317
O00567-P23396_1,0.031724,7,77.570000,72.155219,85.333251,105,317,38,134,123,90,26,4,0,594,243
O00567-P46087_1,0.036032,88,51.165682,72.422879,60.907389,89,340,32,133,214,159,44,395,0,594,812
O00567-P46782_1,0.039071,36,68.377222,71.592441,86.271225,88,332,42,132,110,79,8,7,0,594,204
O00567-P55769_1,0.505450,109,87.529541,73.832593,86.422266,129,309,24,132,58,63,4,3,0,594,128
O00567-P62750_1,0.031670,9,66.630000,72.197980,81.239231,95,328,39,132,58,62,30,6,0,594,156
O00567-P62888_1,0.031506,9,57.548889,71.565286,81.703130,77,346,38,133,37,58,13,7,0,594,115
O00567-P62910_1,0.031322,0,0.000000,72.481902,83.931704,106,325,30,133,29,97,5,4,0,594,135
O00567-Q49A26_1,0.054996,89,62.654382,72.952155,73.506329,110,323,28,133,282,95,6,170,0,594,553
O00567-Q8TDN6_1,0.033206,52,50.587500,71.425488,76.765326,80,334,47,133,128,128,34,63,0,594,353
O00567-Q99848_1,0.033494,44,54.015682,73.895808,67.519216,128,305,28,133,3,162,74,67,0,594,306
O00567-Q9BVP2_1,0.037423,53,59.784717,73.771061,71.423752,124,307,32,131,151,214,44,140,0,594,549
O00567-Q9BZE4_1,0.038114,81,54.796420,72.200017,73.234574,104,327,29,134,150,227,163,94,0,594,634
O00567-Q9GZR7_1,0.182396,154,68.824091,72.674545,63.014936,98,333,30,133,164,271,76,348,0,594,859
O00567-Q9H0A0_1,0.038669,74,56.532297,69.589781,76.390273,26,391,41,136,137,612,183,93,0,594,1025
O00567-Q9Y2X3_1,0.594741,292,76.005616,70.199040,71.326862,33,376,50,135,65,291,57,116,0,594,529
O00567-Q9Y3B9_1,0.034544,31,63.182581,73.514074,54.816170,114,320,28,132,0,87,61,134,0,594,282
O00570-P35711_1,0.081651,114,64.704825,48.130793,54.587916,42,30,37,282,108,126,59,470,0,391,763
O00571-O15523_1,0.619530,527,70.022922,64.512764,65.503727,98,274,73,217,77,301,68,214,179,662,660
O00571-Q99543_1,0.060222,106,61.716792,68.379275,77.439066,154,238,62,208,140,340,73,68,0,662,621
O00602-O60279_1,0.080308,77,70.337143,83.230215,47.633466,202,30,66,28,32,77,83,437,0,326,629
O00602-Q15485_1,0.250380,193,68.902176,77.595767,79.135911,189,28,24,85,186,30,28,69,2,326,313
O00628-Q92968_1,0.513479,132,84.434924,92.821269,60.272308,278,33,5,7,8,186,42,167,0,323,403
O00712-Q14938_1,0.626555,389,73.975604,63.272405,59.066892,150,42,18,210,152,41,20,289,4,420,502
O00716-Q5H9I0_1,0.689657,367,79.711471,56.799957,65.000988,103,67,40,255,140,65,28,172,16,465,405
O00743-O15084_1,0.105706,81,72.830617,91.641016,86.510731,252,40,4,9,742,203,32,76,0,305,1053
O00743-O75170_1,0.687585,378,79.075423,91.791607,60.935642,243,47,7,8,303,150,27,486,0,305,966
O00743-Q8N8A2_1,0.133979,75,76.835600,91.302557,87.763696,251,42,3,9,644,274,40,35,0,305,993
O00762-Q92945_1,0.089476,105,66.916381,82.450000,60.102630,117,29,4,29,119,152,79,361,0,179,711
O00762-Q96AE4_1,0.108964,101,69.678812,83.065866,61.522826,124,22,4,29,95,179,72,298,0,179,644
O00764-O95861_1,0.043122,19,87.816842,92.986731,93.347240,244,61,6,1,258,41,6,3,0,312,308
O00764-P31948_1,0.089638,62,75.481613,93.367340,87.663573,254,51,6,1,336,158,23,26,0,312,543
O14492-Q9BRX9_1,0.591116,183,82.631694,59.043465,91.919937,137,128,39,328,267,30,13,5,0,632,315
O14512-Q93034_1,0.528861,355,70.762648,46.640207,84.933718,19,106,78,378,350,346,56,28,12,581,780
O14530-Q99832_1,0.075002,63,72.803175,76.491018,85.854328,27,153,15,31,275,209,35,24,0,226,543
O14531-Q9BPU6_1,0.728199,300,91.532233,86.304318,87.103777,442,49,3,78,443,49,4,68,0,572,564
O14561-Q9NU23_1,0.574186,127,87.948189,75.089936,87.658068,76,17,30,33,60,18,8,2,0,156,88
O14579-P35606_1,0.301385,90,82.840667,84.524416,84.264812,130,152,10,16,397,417,29,63,0,308,906
O14579-P48444_1,0.137395,84,75.145714,85.808279,78.422466,159,124,9,16,226,176,17,92,0,308,511
O14579-P53621_1,0.690323,295,82.854915,83.045032,80.975539,66,215,10,17,385,657,74,108,7,308,1224
O14579-Q9Y678_1,0.265832,142,73.811761,81.739416,83.315000,63,207,22,16,238,551,45,40,0,308,874
O14595-Q9GZU7_1,0.105167,140,64.713786,71.619520,73.009234,126,52,5,88,122,52,10,77,0,271,261
O14617-Q92572_1,0.719471,329,86.631489,74.882385,79.019585,400,406,109,238,96,52,5,40,0,1153,193
O14639-Q9HD40_1,0.329773,186,72.348710,54.980347,89.864351,60,252,39,427,386,74,11,30,0,778,501
O14641-Q92997_1,0.173697,224,63.619554,53.253043,53.058115,89,153,41,453,69,173,26,448,6,736,716
O14709-P17040_1,0.492434,647,63.040556,56.464062,49.504871,0,276,433,320,0,270,214,559,0,1029,1043
O14744-Q9BQA1_1,0.705695,234,88.747906,91.136656,87.900526,499,108,17,13,250,53,15,24,2,637,342
O14744-Q9NY12_1,0.039766,42,66.295000,90.644239,57.668295,504,89,26,18,56,37,5,119,0,637,217
O14770-P40424_1,0.662973,339,78.193156,56.409706,64.236116,66,83,53,275,78,136,47,169,0,477,430
O14770-P40425_1,0.641599,344,76.453750,55.947547,64.658209,62,86,54,275,77,138,55,160,0,477,430
O14770-P40426_1,0.655026,331,77.897613,56.222998,65.293387,71,81,50,275,78,153,42,161,0,477,434
O14770-Q99687_1,0.339183,290,66.985966,54.360210,57.939013,20,122,47,288,16,121,54,184,0,477,375
O14770-Q9BYU1_1,0.670170,372,77.564597,56.444948,66.687513,52,102,49,274,60,145,55,114,0,477,374
O14770-Q9Y2B2_1,0.033212,29,59.390690,52.547862,87.343214,18,122,39,298,139,89,24,0,0,477,252
O14776-P17844_1,0.148530,267,60.266180,64.240301,73.115684,69,530,97,402,250,178,17,169,2,1098,614
O14776-Q5VWI1_1,0.152913,300,59.280867,64.475756,53.043754,106,498,91,403,19,177,44,346,19,1098,586
O14777-O95229_1,0.036994,27,71.310741,77.361121,66.611480,164,337,47,94,0,174,36,67,0,642,277
O14777-Q8NBT2_1,0.500673,145,82.316069,77.898785,71.691777,197,298,52,95,0,121,64,12,0,642,197
O14777-Q9BZD4_1,0.736419,880,84.628136,77.776760,85.518664,217,269,53,103,194,229,31,10,0,642,464
O14777-Q9H081_1,0.074162,82,68.299512,77.058910,81.739707,202,293,51,96,31,146,25,3,0,642,205
O14777-Q9H410_1,0.135290,86,74.580814,78.074673,59.515506,198,302,45,97,9,151,40,156,0,642,356
O14777-Q9HBM1_1,0.386841,137,78.946058,76.351121,79.296116,157,312,78,95,0,207,17,0,0,642,224
O14788-O95249_1,0.159946,95,74.726526,70.777445,74.951280,81,96,72,68,60,100,72,18,0,317,250
O14802-O75575_1,0.131167,75,76.597067,83.485468,71.765743,372,875,126,17,0,103,20,25,0,1390,148
O14802-P05423_1,0.229032,270,63.945407,82.612094,45.431106,276,954,137,23,0,78,50,270,0,1390,398
O14802-Q9NWS0_1,0.078393,124,63.102419,82.955576,74.057345,335,903,128,24,38,170,28,54,0,1390,290
O14802-Q9Y535_1,0.377599,180,74.476278,83.285763,78.122941,352,887,132,19,11,160,15,18,4,1390,204
O14818-P20618_1,0.051134,43,73.220465,90.854758,84.435187,181,57,10,0,156,48,5,32,0,248,241
O14818-P28062_1,0.365297,76,88.792763,90.845968,78.843152,177,68,3,0,146,57,23,50,0,248,276
O14818-P28065_1,0.055656,40,76.483250,91.125081,84.392694,181,58,9,0,122,64,13,20,0,248,219
O14818-P28066_1,0.654445,165,88.469576,92.638629,91.547469,198,48,2,0,194,29,12,6,2,248,241
O14818-P28070_1,0.034718,24,68.799583,90.159476,83.778295,173,64,9,2,170,43,13,38,0,248,264
O14818-P28072_1,0.060053,47,74.703191,91.779194,83.112762,180,63,5,0,149,48,9,33,0,248,239
O14818-P28074_1,0.414446,79,90.031139,91.527944,79.701901,185,59,4,0,157,44,4,58,0,248,263
O14818-P49721_1,0.411569,68,93.107059,92.003024,92.749851,182,64,2,0,162,35,2,2,0,248,201
O14818-Q99436_1,0.406285,69,92.560725,90.796048,84.457329,176,69,3,0,144,91,26,16,0,248,277
O14867-O60675_1,0.492892,218,75.793761,53.708030,76.139744,146,81,54,455,80,19,25,32,0,736,156
O14867-Q9Y5Q3_1,0.376951,244,70.333566,54.127473,54.172229,131,114,42,449,51,43,22,207,0,736,323
O14874-Q5VZV1_1,0.093411,86,70.425465,78.172597,76.119848,176,137,26,73,141,49,10,64,0,412,264
O14920-Q9Y6K9_1,0.335602,93,83.648925,83.181481,71.303055,417,215,55,69,19,266,49,85,0,756,419
O14929-P62805_1,0.209584,71,82.932254,89.814558,76.372524,303,87,29,0,31,43,7,22,0,419,103
O14948-P19484_1,0.641602,232,81.983017,57.568674,59.141933,83,23,38,203,83,79,71,243,0,347,476
O14949-P31930_1,0.031525,8,62.320000,72.173171,88.336937,14,31,29,8,383,57,4,36,0,82,480
O14967-Q96GX1_1,0.102199,154,63.200974,72.233115,66.343917,158,260,36,156,26,335,179,157,0,610,697
O14972-O60826_1,0.031382,3,83.840000,88.018485,74.001754,184,88,25,0,103,326,93,105,0,297,627
O14972-Q567U6_1,0.035751,17,80.162941,86.871886,74.093645,168,100,29,0,71,359,104,97,0,297,631
O14972-Q9UBI1_1,0.304546,83,84.494458,90.364478,80.599897,219,62,15,1,55,99,32,9,0,297,195
O14977-Q9UMX2_1,0.594681,218,80.127936,84.422790,58.740511,237,144,39,28,7,101,30,97,0,448,235
O14979-2-Q00839_1,0.116177,167,63.455389,61.171794,64.972291,24,128,27,122,272,143,57,353,0,301,825
O14979-P09651_1,0.035325,51,56.942745,56.331429,60.576048,1,139,58,222,46,120,19,187,0,420,372
O15042-Q8IWX8_1,0.520309,357,70.385154,60.930816,59.314269,239,220,75,495,185,225,47,459,5,1029,916
O15084-O75170_1,0.647792,564,70.868989,84.987550,56.402526,639,305,24,85,135,296,31,504,4,1053,966
O15084-Q5H9R7_1,0.575401,528,68.007292,84.552811,59.156117,607,337,23,86,78,351,37,407,18,1053,873
O15084-Q8N8A2_1,0.721216,613,78.721892,81.826068,81.909325,271,667,31,84,103,791,58,41,41,1053,993
O15111-Q9Y6K9_1,0.048470,35,76.135429,84.616644,72.780835,394,255,43,53,45,250,39,85,0,745,419
O15143-O15144_1,0.161237,44,90.028182,89.355699,87.452367,287,40,28,17,153,121,25,1,0,372,300
O15143-P59998_1,0.606480,158,85.890190,89.098710,88.793571,295,31,25,21,86,80,2,0,0,372,168
O15143-P61158_1,0.081348,40,83.019250,86.713065,88.243110,263,58,19,32,292,94,10,22,0,372,418
O15143-P61160_1,0.083651,29,91.405517,88.227608,91.850584,275,49,28,20,312,67,14,1,0,372,394
O15143-Q9BPX5_1,0.505704,101,88.986436,90.191747,82.256536,299,28,32,13,86,31,24,12,0,372,153
O15144-P61158_1,0.683999,182,89.731978,88.982800,89.726388,190,89,20,1,319,68,15,16,0,300,418
O15144-Q8WVV9_1,0.145683,145,67.471517,85.968933,74.322601,156,112,23,9,244,134,16,148,0,300,542
O15144-Q92747_1,0.254667,60,88.782667,86.864400,89.828973,161,105,33,1,275,62,24,9,0,300,370
O15144-Q9BPX5_1,0.103952,62,77.342903,90.602833,80.688431,227,52,21,0,81,36,14,22,0,300,153
O15145-O15143_1,0.164939,45,89.784889,90.497753,89.466640,128,45,2,3,280,48,28,16,0,178,372
O15145-O15144_1,0.226730,72,83.588056,91.608090,89.420767,133,40,2,3,199,75,25,1,0,178,300
O15145-P61158_1,0.641419,119,93.421008,92.582416,90.576148,148,25,2,3,336,52,14,16,0,178,418
O15145-P61160_1,0.391165,77,89.596623,90.385169,93.437614,127,46,2,3,341,44,8,1,0,178,394
O15145-Q92747_1,0.203237,50,89.974600,90.849831,90.373135,130,43,2,3,286,49,27,8,0,178,370
O15145-Q9BPX5_1,0.112536,36,90.186667,92.703315,81.946993,152,20,3,3,76,41,25,11,0,178,153
O15145-Q9P1U1_1,0.613815,113,92.449912,92.263146,90.926890,145,28,2,3,342,47,13,16,0,178,418
O15151-P04637_1,0.033721,44,54.853182,55.475367,70.933461,82,81,36,291,176,49,19,149,0,490,393
O15155-Q9P2W9_1,0.088597,55,77.582545,73.589407,67.157433,6,73,23,16,10,180,61,84,0,118,335
O15160-P62875_1,0.657483,141,91.547305,90.621416,89.161791,223,119,4,0,49,14,4,0,0,346,67
O15162-Q86VR2_1,0.033197,34,56.641176,67.457013,57.043112,97,67,44,110,0,170,82,214,0,318,466
O15194-Q99618_1,0.078921,44,80.480000,77.033732,45.217463,175,7,9,85,0,0,72,196,0,276,268
O15194-Q9GZU7_1,0.218443,174,68.925632,71.400217,73.492759,128,49,7,92,129,46,9,77,4,276,261
O15212-O60925_1,0.365320,81,87.506296,89.634961,88.155082,95,27,3,4,68,47,5,2,0,129,122
O15212-Q99471_1,0.575306,88,95.217386,90.893488,90.678117,100,22,3,4,124,19,8,3,4,129,154
O15212-Q9NQP4_1,0.352759,70,89.978286,92.386899,86.258209,111,12,2,4,97,17,8,12,0,129,134
O15212-Q9UHV9_1,0.373135,60,94.264000,92.486357,76.692013,114,9,2,4,85,19,10,40,0,129,154
O15239-P51970_1,0.548160,93,92.618925,91.540857,86.547442,52,18,0,0,96,54,21,1,0,70,172
O15247-Q9NZA1_1,0.334318,201,71.448209,85.604130,63.371195,115,105,17,10,127,86,26,171,0,247,410
O15264-P53778_1,0.315923,141,75.879149,83.472192,83.419782,174,138,25,28,165,151,32,19,0,365,367
O15318-O14802_1,0.318111,256,67.791523,45.837578,82.906511,0,23,61,139,317,915,136,22,0,223,1390
O15318-P05423_1,0.040812,66,60.039697,61.624529,61.144447,12,68,78,65,44,80,120,154,0,223,398
O15318-Q9BUI4_1,0.700353,273,85.408535,58.072691,87.374981,21,41,69,92,351,139,20,24,0,223,534
O15318-Q9NW08_1,0.318005,225,69.403467,43.784081,84.590035,0,23,45,155,400,623,84,26,0,223,1133
O15318-Q9Y535_1,0.031419,5,66.254000,59.414081,85.877010,12,63,73,75,119,64,7,14,0,223,204
O15335-Q8N129_1,0.090846,36,87.130278,90.575822,68.020081,289,34,21,15,51,94,25,78,0,359,248
O15371-O00303_1,0.042160,54,64.133333,79.156606,69.334370,268,113,103,64,10,220,39,88,0,548,357
O15371-O15372_1,0.051240,55,68.766727,73.590493,71.351790,88,256,117,87,4,227,85,36,0,548,352
O15371-O75821_1,0.034408,16,77.758125,80.146971,65.182625,290,105,81,72,60,93,70,97,0,548,320
O15371-P60228_1,0.203174,243,64.074897,76.963814,68.332966,167,195,141,45,0,228,199,18,2,548,445
O15371-Q13347_1,0.147767,108,71.863333,77.356807,90.339600,283,96,61,108,248,59,16,2,2,548,325
O15371-Q14152_1,0.374407,467,62.830664,72.921679,60.599631,175,179,57,137,171,460,194,557,26,548,1382
O15371-Q7L2H7_1,0.031355,4,53.995000,72.890529,63.889920,72,267,128,81,0,86,262,26,0,548,374
O15371-Q9Y262_1,0.077049,81,68.993086,78.567901,80.008635,274,97,101,76,120,350,60,34,0,548,564
O15372-Q13347_1,0.031429,5,68.192000,69.814602,90.398154,1,223,89,39,247,61,15,2,0,352,325
O15372-Q7L2H7_1,0.034397,35,60.607143,63.140256,56.245936,0,147,132,73,0,22,265,87,0,352,374
O15372-Q99613_1,0.167002,86,76.864651,71.024176,65.052935,0,226,91,35,0,496,165,252,0,352,913
O15372-Q9Y262_1,0.031659,8,69.927500,68.595369,63.851082,0,214,99,39,0,165,344,55,0,352,564
O15392-Q53HL2_1,0.650484,143,90.684825,92.414648,66.456750,120,17,2,3,45,83,69,83,4,142,280
O15400-O14653_1,0.302105,115,78.590000,75.516782,74.295660,60,132,23,46,0,150,46,16,0,261,212
O15400-O95249_1,0.249541,105,77.876571,76.739770,75.728480,75,121,20,45,60,108,63,19,0,261,250
O15400-O95721_1,0.548355,290,74.049000,73.684751,67.501550,62,107,53,39,22,126,50,60,0,261,258
O15400-Q5SQN1_1,0.479652,165,79.420788,77.285977,67.463233,74,123,20,44,32,258,32,142,0,261,464
O15400-Q9UNK0_1,0.310673,166,73.263855,74.574521,67.972203,43,150,24,44,32,87,65,52,0,261,236
O15439-Q5T2W1_1,0.519741,319,71.738433,80.375223,73.202158,305,828,87,105,71,309,43,96,2,1325,519
O15446-O15160_1,0.035668,41,60.997073,44.255902,89.641965,0,79,65,366,202,140,4,0,0,510,346
O15460-2-P07237_1,0.479081,130,83.288077,84.722101,83.412382,270,199,36,28,253,193,15,47,0,533,508
O15460-Q15393_1,0.063874,60,71.260333,83.459346,88.417214,199,283,25,28,686,491,28,12,0,535,1217
O15482-O75069_1,0.626179,412,73.248762,65.381634,54.516516,27,188,76,119,22,216,50,421,0,410,709
O15482-O94876_1,0.434590,389,66.579717,62.631073,54.822175,36,159,70,145,16,199,72,366,0,410,653
O15482-Q9ULS5_1,0.641975,421,73.921758,65.862951,63.329644,56,153,74,127,66,165,59,187,0,410,477
O15488-O95210_1,0.198424,156,69.466603,67.425210,49.120894,176,104,29,192,57,37,20,244,0,501,358
O15511-O15143_1,0.503713,109,87.454404,82.531523,90.480161,90,27,22,12,300,31,28,13,0,151,372
O15511-O15144_1,0.041463,21,83.323810,81.317351,90.533667,88,28,19,16,216,63,21,0,0,151,300
O15511-O15145_1,0.048113,22,87.350000,83.838013,93.186966,94,23,22,12,159,14,2,3,0,151,178
O15511-P59998_1,0.599150,118,90.700339,86.948940,91.762976,98,30,19,4,130,35,3,0,0,151,168
O15511-P61158_1,0.218512,90,79.027111,78.306821,90.169115,70,43,13,25,318,70,15,15,0,151,418
O15511-P61160_1,0.301311,80,85.064125,81.344834,93.416371,74,49,11,17,339,45,9,1,0,151,394
O15511-Q92747_1,0.474048,100,87.822600,82.634834,91.217676,94,23,20,14,297,41,27,5,0,151,370
O15511-Q9BPX5_1,0.085655,37,85.596216,84.318079,84.170261,101,16,17,17,98,19,23,13,0,151,153
O15514-P0CAP1_1,0.031322,0,0.000000,84.374648,74.214270,73,54,4,11,209,85,46,126,0,142,466
O15514-P36954_1,0.031889,6,90.308333,87.254648,80.987200,95,33,3,11,39,63,16,7,0,142,125
O15514-P62487_1,0.714559,179,95.343687,89.741479,95.636047,117,12,2,11,163,8,1,0,4,142,172
O15514-Q9NQG5_1,0.035302,17,78.958824,86.720070,78.905184,91,37,3,11,139,109,28,50,0,142,326
O15525-O14867_1,0.503079,194,77.859072,74.711852,53.801793,79,19,16,48,141,94,53,448,0,162,736
O15533-P30101_1,0.127047,49,84.575714,81.158750,87.326772,179,180,67,22,330,130,12,33,0,448,505
O15540-P00441_1,0.178694,46,90.283913,94.798939,96.243312,111,21,0,0,144,10,0,0,0,132,154
O15540-P07954_1,0.031394,4,70.507500,93.663939,90.871961,109,23,0,0,437,24,3,46,0,132,510
O15540-P09417_1,0.277754,61,89.563770,93.754242,94.657295,109,23,0,0,226,8,8,2,0,132,244
O15540-P29401_1,0.039780,16,89.390625,93.423030,96.247528,109,23,0,0,602,17,2,2,0,132,623
O15540-P35754_1,0.249099,52,91.703077,94.533333,95.300755,112,20,0,0,103,3,0,0,0,132,106
O15540-P37802_1,0.132337,49,85.085714,92.902121,83.956080,107,25,0,0,117,37,41,4,0,132,199
O15540-P37837_1,0.241524,61,87.749836,93.456061,94.029377,110,22,0,0,298,25,4,10,0,132,337
O15540-P61960_1,0.101559,32,91.761250,95.414242,89.894941,115,17,0,0,69,9,4,3,0,132,85
O15540-P62937_1,0.330695,63,91.294603,94.592727,96.625576,113,19,0,0,158,6,1,0,0,132,165
O15540-Q01995_1,0.086491,43,82.315814,92.123333,83.178706,101,31,0,0,112,41,43,5,0,132,201
O15540-Q8WUM4_1,0.220227,82,80.786098,90.063106,79.585565,90,36,6,0,410,275,28,155,0,132,868
O15540-Q99798_1,0.231783,60,87.585333,92.166439,92.534038,99,33,0,0,655,94,4,27,0,132,780
O15540-Q9H0I9_1,0.073464,27,91.151852,93.393485,95.479249,109,23,0,0,590,30,2,4,0,132,626
O15540-Q9UI15_1,0.158549,53,85.603774,93.143106,83.709196,106,26,0,0,107,50,37,5,0,132,199
O15550-P61964_1,0.244073,139,73.214460,66.088951,88.273024,343,503,54,501,267,33,5,29,2,1401,334
O43143-O75533_1,0.297487,196,70.484133,80.704755,66.568106,271,395,40,89,57,751,103,393,3,795,1304
O43143-P11142_1,0.230623,65,85.844308,83.106642,82.707601,385,287,42,81,264,288,56,38,0,795,646
O43143-P11940_1,0.231715,90,79.689889,84.088415,70.852107,444,241,27,83,189,199,86,162,0,795,636
O43143-P13639_1,0.245172,134,73.809925,80.649245,85.647855,320,338,31,106,325,473,52,8,0,795,858
O43143-P52272_1,0.365905,280,68.262964,83.196478,51.613507,380,301,36,78,84,152,46,448,0,795,730
O43143-Q00839_1,0.583961,373,72.371501,81.949849,62.584558,335,329,49,82,234,183,52,356,12,795,825
O43159-Q9H8H2_1,0.051585,80,63.014750,64.100154,65.667333,150,73,27,206,220,245,47,339,0,456,851
O75832-O00231_1,0.108280,34,91.102647,93.577168,84.235735,201,16,5,4,94,307,21,0,0,226,422
O75832-Q9UNM6_1,0.031455,4,83.945000,93.498053,79.406489,199,19,4,4,0,322,53,1,0,226,376
O75874-P52209_1,0.108688,32,92.750625,93.902995,94.277743,357,54,2,1,430,46,7,0,0,414,483
O75874-Q92506_1,0.031342,2,88.420000,94.837754,91.780536,375,35,4,0,217,25,9,10,0,414,261
O75874-Q9BRA2_1,0.095326,34,89.258824,95.332729,92.849675,381,32,1,0,103,16,4,0,0,414,123
O75874-Q9P2T1_1,0.034846,11,91.672727,94.383913,92.244052,368,42,4,0,279,55,10,4,0,414,348
O95861-P09104_1,0.186434,42,93.034762,92.946721,95.198479,257,42,7,2,395,34,5,0,0,308,434
P00338-C9JRZ8_1,0.102441,38,87.547368,93.311687,94.936582,269,60,3,0,279,33,4,0,0,332,316
P00441-P29401_1,0.031549,4,95.942500,95.108182,96.178234,141,13,0,0,603,16,2,2,0,154,623
P00441-Q9H0I9_1,0.036802,12,94.140000,95.137273,95.205064,138,16,0,0,574,48,4,0,0,154,626
P02689-P00441_1,0.087571,31,90.354194,94.474545,96.155844,118,12,1,1,143,11,0,0,0,132,154
P02689-P29401_1,0.054078,21,91.946667,93.295379,96.129053,109,21,2,0,598,21,2,2,0,132,623
P02689-P60174_1,0.061099,27,87.626667,94.205833,94.632369,117,13,2,0,223,18,6,2,0,132,249
P04075-P06733_1,0.038092,14,91.206429,93.046181,95.384954,322,19,21,2,399,33,2,0,0,364,434
P04406-O43175_1,0.036969,15,86.736000,95.638418,89.643959,314,20,1,0,352,149,24,8,0,335,533
P04406-P68032_1,0.247691,54,90.760926,95.193134,92.701512,307,27,1,0,320,42,9,6,0,335,377
P05141-P35232_1,0.044575,22,84.865909,83.585470,85.525000,94,179,24,1,115,131,25,1,0,298,272
P05413-P00441_1,0.179032,43,91.927209,94.585188,96.379545,111,22,0,0,145,9,0,0,0,133,154
P06733-P62937_1,0.060662,23,91.951304,95.934194,96.174667,406,26,2,0,158,6,1,0,0,434,165
P06733-P78417_1,0.041272,19,85.948947,95.758940,93.275519,402,30,2,0,210,25,5,1,0,434,241
P06744-P51857_1,0.359503,71,89.965070,95.482294,92.549693,521,33,4,0,272,43,6,5,0,558,326
P07108-P09417_1,0.031322,0,0.000000,94.330690,95.251230,74,12,1,0,231,3,8,2,0,87,244
P07195-C9JRZ8_1,0.063226,28,87.358214,93.155509,94.907848,269,58,7,0,286,26,4,0,0,334,316
P09104-C9JRZ8_1,0.045609,16,95.491250,95.539147,94.668133,403,28,3,0,287,23,6,0,0,434,316
P09104-P30085_1,0.103026,35,89.653714,95.772143,89.023010,400,32,2,0,111,76,9,0,0,434,196
P09104-Q96AT9_1,0.032754,8,91.937500,96.007581,94.427368,409,24,1,0,204,20,3,1,0,434,228
P09960-P09417_1,0.353823,69,90.329565,95.581080,92.816721,579,29,2,1,211,23,2,8,0,611,244
P10768-P40925_1,0.042145,19,86.869474,96.485035,94.815389,273,8,1,0,294,35,5,0,0,282,334
P11766-P07864_1,0.034346,13,83.800000,94.995428,93.843735,346,25,3,0,276,55,1,0,0,374,332
P11766-P09104_1,0.033368,10,87.951000,94.891925,95.286498,344,27,3,0,391,41,2,0,0,374,434
P11766-P13929_1,0.031344,2,91.400000,95.086791,95.362788,345,26,3,0,398,34,2,0,0,374,434
P11766-Q01469_1,0.063409,32,84.047188,95.856765,93.045852,355,16,3,0,106,28,1,0,0,374,135
P11766-Q08623_1,0.055699,25,87.668800,95.666979,94.068333,349,22,3,0,200,25,2,1,0,374,228
P11766-Q9BY32_1,0.031322,0,0.000000,95.864439,90.750825,356,16,2,0,135,56,2,1,0,374,194
P11766-Q9NQR4_1,0.032339,7,92.667143,95.426390,95.888080,347,25,2,0,260,14,2,0,0,374,276
P12955-P29401_1,0.031402,3,91.656667,93.522231,94.821926,435,41,10,7,574,44,3,2,0,493,623
P13929-P51857_1,0.081775,30,90.126667,95.313295,93.823006,390,42,2,0,283,34,7,2,0,434,326
P13929-P78417_1,0.052292,24,87.240417,95.845092,93.062490,404,28,2,0,208,27,5,1,0,434,241
P14550-F5H284_1,0.229308,56,88.950000,94.692092,93.436220,281,39,4,1,134,29,1,0,0,325,164
P14550-P15121_1,0.077589,33,86.825455,94.273908,95.609051,280,39,4,2,299,14,3,0,0,325,316
P14550-Q9P2T1_1,0.117432,36,90.775278,93.973877,92.412759,278,42,3,2,283,50,11,4,0,325,348
P15104-Q9Y5B8_1,0.082508,48,79.311875,91.528391,89.506729,270,90,10,3,242,119,12,3,0,373,376
P16930-O00764_1,0.038992,13,95.402308,96.310286,93.149423,401,18,0,0,257,49,5,1,0,419,312
P16930-P49591_1,0.275998,59,90.210678,95.918282,88.269630,394,24,1,0,359,90,56,9,2,419,514
P16930-Q96G03_1,0.149818,34,95.605294,95.725752,92.948480,392,26,1,0,517,77,10,8,0,419,612
P16930-Q9P2T1_1,0.035716,12,91.297500,96.244224,92.525172,396,22,1,0,284,52,8,4,0,419,348
P17174-P29401_1,0.031322,0,0.000000,94.134504,94.978652,360,51,2,0,572,46,3,2,0,413,623
P17174-P52209_1,0.098540,29,93.984828,94.529274,94.120248,365,48,0,0,428,48,7,0,0,413,483
P17174-Q9H0I9_1,0.031453,4,83.627500,94.233850,94.152508,367,44,2,0,559,61,2,4,0,413,626
P17516-P42330_1,0.076534,28,90.871429,94.235820,94.091858,287,29,6,1,278,39,3,3,0,323,323
P18077-P39019_1,0.423828,88,88.241818,88.145455,86.741448,68,36,4,2,51,91,2,1,0,110,145
P18077-P62241_1,0.037075,21,77.346667,87.881455,87.462740,66,35,7,2,98,98,11,1,0,110,208
P18077-P62244_1,0.246894,75,83.816133,87.894364,88.389692,60,42,7,1,76,50,2,2,0,110,130
P18077-P62701_1,0.414205,84,88.774286,86.087818,90.821559,50,52,6,2,181,75,7,0,0,110,263
P18077-P62753_1,0.462893,93,88.760215,90.621273,87.275582,81,27,1,1,113,127,8,1,2,110,249
P18124-P18621_1,0.047771,19,91.472105,91.663992,88.798207,209,27,8,4,132,33,16,3,0,248,184
P18124-P26373_1,0.031322,0,0.000000,91.172016,82.108152,205,31,4,8,51,130,30,0,0,248,211
P18124-P27635_1,0.031322,0,0.000000,90.397379,86.438364,189,47,4,8,127,62,24,1,0,248,214
P18124-P32969_1,0.051781,23,88.166957,90.235242,87.492760,189,47,4,8,90,95,6,1,0,248,192
P18124-P42766_1,0.341836,67,90.443433,91.842137,89.073577,210,26,9,3,66,56,1,0,0,248,123
P18124-P49207_1,0.228357,68,84.806765,91.162984,81.935128,195,42,8,3,7,103,7,0,0,248,117
P18124-P61254_1,0.050457,35,77.140286,91.197097,88.043655,190,46,7,5,105,22,18,0,0,248,145
P18124-P62241_1,0.031322,0,0.000000,91.343710,86.593462,207,29,9,3,95,94,18,1,0,248,208
P18124-P62750_1,0.265051,75,84.688133,90.678185,81.746923,198,38,9,3,70,50,35,1,0,248,156
P18124-P62753_1,0.031322,0,0.000000,91.154435,86.693173,207,29,8,4,111,123,14,1,0,248,249
P18124-P62979_1,0.033027,12,79.163333,91.156774,82.048141,199,37,9,3,61,67,21,7,0,248,156
P18124-P62987_1,0.031322,0,0.000000,91.662944,88.454375,200,36,9,3,89,30,8,1,0,248,128
P18124-P63173_1,0.437292,83,89.966867,92.136210,89.499571,201,35,10,2,33,37,0,0,0,248,70
P18621-P42766_1,0.201654,45,92.363111,90.175707,90.197724,139,33,12,0,83,39,1,0,0,184,123
P18621-P46778_1,0.105733,44,84.579091,88.854783,88.110188,125,46,13,0,81,75,4,0,0,184,160
P18621-P46779_1,0.031415,6,58.900000,89.652228,88.164088,143,27,12,2,86,40,10,1,0,184,137
P18621-P61254_1,0.031322,0,0.000000,89.903859,88.821379,133,37,14,0,107,26,12,0,0,184,145
P18621-P61353_1,0.031322,0,0.000000,89.932554,90.022574,143,27,12,2,100,34,1,1,0,184,136
P18621-P62241_1,0.138649,47,86.593191,88.665435,85.903942,123,48,13,0,105,83,15,5,0,184,208
P18621-P62249_1,0.031322,0,0.000000,90.203587,90.869247,139,32,13,0,107,32,7,0,0,184,146
P18621-P62266_1,0.031322,0,0.000000,89.416467,87.519720,131,40,13,0,79,55,8,1,0,184,143
P18621-P62269_1,0.097053,41,85.009756,88.354728,86.844539,120,49,14,1,90,45,15,2,0,184,152
P18621-P62277_1,0.031379,5,56.226000,88.374402,86.535298,123,45,14,2,99,38,5,9,0,184,151
P18621-P62750_1,0.032161,8,83.771250,89.068641,84.378910,134,35,15,0,77,56,22,1,0,184,156
P18621-P62753_1,0.033114,10,86.117000,89.523478,87.975221,132,40,12,0,130,108,10,1,0,184,249
P18621-P62910_1,0.031322,0,0.000000,90.235272,86.999852,147,24,13,0,69,57,7,2,0,184,135
P18621-P84098_1,0.037926,18,83.001111,89.974022,87.928622,146,24,14,0,126,54,14,2,0,184,196
P18621-Q02543_1,0.031322,0,0.000000,89.846902,89.286023,144,26,14,0,119,52,3,2,0,184,176
P19387-P19388_1,0.302177,62,90.357581,88.970509,87.297762,197,56,19,3,100,98,9,3,0,275,210
P19388-P52434_1,0.259687,62,88.328710,91.236905,85.657800,152,55,3,0,77,57,13,3,0,210,150
P19388-P62875_1,0.197475,74,81.448514,90.395619,80.546418,151,56,3,0,30,21,10,6,0,210,67
P22061-P29401_1,0.032494,8,88.876250,94.384890,95.969486,206,14,4,3,598,20,3,2,0,227,623
P22234-P06733_1,0.031322,0,0.000000,92.351412,95.154424,331,83,8,3,398,32,4,0,0,425,434
P22392-P00441_1,0.031322,0,0.000000,95.366316,96.927597,139,11,2,0,149,5,0,0,0,152,154
P22392-P37802_1,0.114992,40,87.901250,93.417368,84.932161,122,28,2,0,123,35,35,6,0,152,199
P23396-P39019_1,0.133684,49,85.212041,85.319794,87.001310,113,102,27,1,60,82,2,1,0,243,145
P23396-P42677_1,0.031322,0,0.000000,84.684527,84.317143,112,97,31,3,35,41,7,1,0,243,84
P23396-P42766_1,0.064111,29,86.718276,86.586872,86.824390,129,87,26,1,36,85,2,0,0,243,123
P23396-P62241_1,0.031339,2,81.290000,85.428436,81.263221,119,93,30,1,75,86,41,6,0,243,208
P23396-P62244_1,0.061165,26,88.664231,86.744156,89.274308,134,82,26,1,81,45,2,2,0,243,130
P23396-P62266_1,0.031322,0,0.000000,86.073663,85.679790,123,91,28,1,55,78,10,0,0,243,143
P23396-P62701_1,0.035672,14,85.843571,85.026790,89.863726,113,100,27,3,162,96,3,2,0,243,263
P23396-P62753_1,0.031480,4,87.875000,85.484115,86.518554,122,89,29,3,105,129,14,1,0,243,249
P23396-P62979_1,0.032580,16,67.465000,85.616626,79.985385,117,98,27,1,46,75,33,2,0,243,156
P23526-C9JRZ8_1,0.038577,13,94.706923,95.196412,94.642785,396,33,1,2,285,26,5,0,0,432,316
P23526-P09104_1,0.031322,0,0.000000,94.913981,95.051544,396,33,2,1,397,32,5,0,0,432,434
P23526-Q96AT9_1,0.031322,0,0.000000,95.614745,94.573947,400,30,2,0,207,16,4,1,0,432,228
P23526-Q9P2T1_1,0.031322,0,0.000000,95.100625,92.102730,397,33,2,0,281,51,12,4,0,432,348
P23528-O75083_1,0.053941,22,90.498636,89.115301,94.635050,97,63,5,1,529,77,0,0,0,166,606
P23528-P06733_1,0.131547,43,87.963256,91.053072,95.818088,128,32,5,1,401,31,2,0,0,166,434
P23528-P29401_1,0.031322,0,0.000000,90.524277,96.178876,117,43,5,1,600,19,2,2,0,166,623
P23919-P22061_1,0.341368,77,87.527273,91.898302,94.245463,162,43,6,1,195,24,5,3,0,212,227
P26373-P18077_1,0.035423,13,87.589231,82.714313,87.408182,47,147,17,0,58,44,6,2,0,211,110
P26373-P18621_1,0.031322,0,0.000000,81.335213,88.572609,59,119,25,8,130,39,12,3,0,211,184
P26373-P39019_1,0.327130,91,83.706593,81.151043,87.913448,50,127,33,1,62,80,2,1,0,211,145
P26373-P42677_1,0.113703,72,75.689444,83.210332,82.444286,66,117,27,1,25,49,8,2,0,211,84
P26373-P46778_1,0.032237,13,68.992308,82.849431,87.862188,58,126,27,0,80,74,6,0,0,211,160
P26373-P46779_1,0.031393,3,88.486667,84.630995,88.056715,77,122,12,0,81,49,7,0,0,211,137
P26373-P46782_1,0.069488,65,71.168308,75.945972,84.863235,25,144,18,24,77,105,19,3,0,211,204
P26373-P49207_1,0.058909,50,73.178000,84.425024,82.917863,78,113,20,0,22,88,7,0,0,211,117
P26373-P60866_1,0.050449,43,72.915116,81.121754,80.244538,56,122,25,8,27,68,22,2,0,211,119
P26373-P61254_1,0.031322,0,0.000000,82.567867,88.598414,55,125,30,1,97,41,7,0,0,211,145
P26373-P61313_1,0.041209,54,63.390926,77.547488,84.561912,28,130,52,1,104,54,46,0,0,211,204
P26373-P61353_1,0.031343,2,89.145000,84.543649,90.188235,70,129,12,0,99,35,2,0,0,211,136
P26373-P61513_1,0.046832,56,66.434464,82.655118,83.997391,65,116,29,1,35,44,11,2,2,211,92
P26373-P61927_1,0.032290,10,77.633000,82.859289,70.974227,69,112,30,0,6,41,46,4,0,211,97
P26373-P62241_1,0.090648,43,82.983488,82.037062,86.184663,52,134,25,0,102,88,16,2,0,211,208
P26373-P62244_1,0.262353,69,86.226087,80.125972,89.010692,33,146,29,3,78,49,2,1,0,211,130
P26373-P62266_1,0.096104,48,81.416875,81.370284,85.548112,40,142,28,1,61,72,9,1,0,211,143
P26373-P62277_1,0.032024,11,70.305455,81.810190,87.332980,48,135,28,0,93,47,8,3,0,211,151
P26373-P62280_1,0.031322,0,0.000000,82.511090,82.212595,51,130,29,1,74,45,32,7,0,211,158
P26373-P62701_1,0.147044,75,77.877867,78.920569,90.691521,30,137,42,2,181,77,4,1,0,211,263
P26373-P62750_1,0.072095,30,88.000333,82.696303,82.717949,64,119,25,3,72,52,31,1,0,211,156
P26373-P62753_1,0.065743,41,79.068293,83.134929,86.459960,57,127,27,0,94,142,12,1,0,211,249
P26373-P62841_1,0.118928,65,78.075846,81.464692,82.326000,55,127,18,11,32,94,17,2,0,211,145
P26373-P62891_1,0.031322,0,0.000000,85.791991,86.849020,89,105,17,0,14,35,1,1,0,211,51
P26373-P62910_1,0.031322,0,0.000000,83.893365,87.104889,76,110,25,0,61,67,5,2,0,211,135
P26373-P62979_1,0.031516,10,55.657000,80.338910,80.895769,54,115,38,4,58,63,25,10,0,211,156
P26373-P63173_1,0.031322,0,0.000000,86.457156,91.819429,89,116,6,0,58,12,0,0,0,211,70
P26373-P84098_1,0.088214,84,70.115238,81.991706,86.560867,69,112,20,10,105,69,20,2,0,211,196
P26373-Q02543_1,0.031986,13,65.032308,79.092559,88.269886,41,122,47,1,120,38,16,2,0,211,176
P26373-Q07020_1,0.031322,0,0.000000,83.532654,82.994574,59,130,22,0,99,55,25,9,0,211,188
P26373-Q969Q0_1,0.047905,22,87.218636,84.058057,82.523491,71,118,22,0,31,61,12,2,0,211,106
P27635-P39019_1,0.039544,19,83.864737,85.938318,87.655034,123,62,24,5,67,75,2,1,0,214,145
P27635-P42766_1,0.034271,18,74.088889,86.016028,86.909756,126,58,29,1,39,81,3,0,0,214,123
P27635-P46778_1,0.032107,9,78.332222,86.340280,86.091750,119,71,22,2,67,84,6,3,0,214,160
P27635-P61254_1,0.031322,0,0.000000,86.405374,87.521172,124,65,25,0,93,38,14,0,0,214,145
P27635-P61353_1,0.033184,14,75.601429,86.920935,87.644926,129,58,26,1,70,61,4,1,0,214,136
P27635-P62241_1,0.167197,80,78.146125,84.686121,84.831683,102,82,27,3,86,97,23,2,0,214,208
P27635-P62753_1,0.035538,15,83.288000,85.769533,85.964538,118,64,31,1,101,131,16,1,0,214,249
P27635-P62891_1,0.148368,66,80.357273,87.231215,79.873725,134,53,26,1,3,40,6,2,0,214,51
P27635-P63173_1,0.031322,0,0.000000,87.830093,91.148714,132,62,19,1,54,16,0,0,0,214,70
P27635-P84098_1,0.154585,54,84.896296,86.970421,85.980765,120,73,19,2,104,69,20,3,0,214,196
P27635-Q96L21_1,0.035291,16,80.653750,88.294346,86.465280,121,86,6,1,120,71,22,1,0,214,214
P29401-Q99497_1,0.031322,0,0.000000,95.800738,96.601799,595,24,3,1,182,5,2,0,0,623,189
P30050-P84098_1,0.031322,0,0.000000,73.923455,87.155204,0,122,40,3,112,66,18,0,0,165,196
P30566-P07864_1,0.031322,0,0.000000,93.718326,94.201747,427,44,6,7,281,51,0,0,0,484,332
P30566-P09104_1,0.031322,0,0.000000,93.255579,95.245300,423,46,7,8,398,34,2,0,0,484,434
P30566-P52209_1,0.031550,4,96.102500,93.072045,94.291801,417,53,6,8,429,48,6,0,0,484,483
P32969-P18077_1,0.245817,84,81.620714,86.850365,87.050455,77,107,7,1,67,32,10,1,0,192,110
P32969-P26373_1,0.031422,4,77.732500,88.661510,79.392844,104,83,4,1,42,126,41,2,0,192,211
P32969-P39019_1,0.094329,44,83.032500,86.560573,86.228483,69,116,6,1,39,103,2,1,0,192,145
P32969-P42766_1,0.055026,33,80.444242,87.936250,87.652276,99,87,5,1,53,68,2,0,0,192,123
P32969-P46778_1,0.033440,12,81.935833,87.528385,86.640688,83,102,6,1,68,85,7,0,0,192,160
P32969-P49207_1,0.031562,5,83.702000,88.692760,83.041282,108,79,4,1,25,85,7,0,0,192,117
P32969-P61353_1,0.033989,12,84.891667,86.021719,85.806765,61,124,6,1,46,78,11,1,0,192,136
P32969-P61513_1,0.037627,22,77.131818,84.602292,85.563261,47,138,6,1,36,50,4,2,0,192,92
P32969-P62244_1,0.031542,5,82.060000,85.068490,88.535308,52,133,6,1,77,49,2,2,0,192,130
P32969-P62266_1,0.035144,15,82.129333,87.074115,85.153776,74,111,6,1,55,77,8,3,0,192,143
P32969-P62701_1,0.031322,0,0.000000,87.081302,90.130951,80,105,6,1,171,86,4,2,0,192,263
P32969-P62753_1,0.044378,20,87.404000,87.392083,85.720402,83,102,6,1,104,129,15,1,0,192,249
P32969-P62891_1,0.031322,0,0.000000,88.074375,84.768627,93,92,6,1,5,43,3,0,0,192,51
P32969-P62910_1,0.170776,52,86.925577,88.385312,85.996519,101,86,4,1,55,71,6,3,0,192,135
P32969-P63173_1,0.031322,0,0.000000,87.480000,87.575429,85,100,6,1,24,46,0,0,0,192,70
P32969-P84098_1,0.031359,3,71.136667,87.661615,87.315510,82,104,5,1,113,66,15,2,0,192,196
P35232-P60709_1,0.096675,34,89.465588,84.805699,92.595920,92,155,25,0,314,48,11,2,0,272,375
P35232-Q9Y277_1,0.031674,7,75.457143,85.270956,77.320707,103,147,22,0,1,219,61,2,0,272,283
P35544-P23396_1,0.031339,2,82.030000,85.146622,86.658395,13,57,3,1,141,75,25,2,0,74,243
P35544-P26373_1,0.039684,33,70.778182,86.819324,80.418626,28,42,3,1,72,89,47,3,0,74,211
P35544-P46777_1,0.042079,30,75.145000,86.539459,89.541044,35,34,2,3,202,81,11,3,0,74,297
P35544-P46778_1,0.031322,0,0.000000,86.679459,89.461062,30,40,3,1,94,64,2,0,0,74,160
P35544-P61254_1,0.031333,2,66.850000,87.141351,90.177793,34,36,3,1,108,35,2,0,0,74,145
P35544-P61353_1,0.031727,7,77.720000,89.431486,91.722500,51,19,3,1,106,28,1,1,0,74,136
P35544-P61513_1,0.031322,0,0.000000,88.504054,90.818804,40,30,3,1,64,26,2,0,0,74,92
P35544-P62701_1,0.258253,64,87.583437,86.426622,91.530798,26,44,3,1,193,66,3,1,0,74,263
P35544-P62753_1,0.031322,0,0.000000,87.573243,89.113414,36,34,3,1,149,91,8,1,0,74,249
P35544-P62979_1,0.042572,28,77.134643,86.331216,83.146603,24,46,3,1,62,64,29,1,0,74,156
P35544-P84098_1,0.031401,5,62.376000,88.860135,89.996020,47,23,3,1,142,43,10,1,0,74,196
P35544-Q9UNX3_1,0.031333,2,66.895000,87.703108,90.473241,34,36,3,1,108,36,1,0,0,74,145
P35544-Q9Y3U8_1,0.031322,0,0.000000,88.830811,86.005048,40,31,2,1,63,32,10,0,0,74,105
P36959-O00764_1,0.180115,57,85.591404,92.846580,92.966186,276,61,7,1,246,59,6,1,0,345,312
P36959-O75874_1,0.031683,5,91.700000,93.357130,94.425435,284,57,3,1,367,44,3,0,0,345,414
P36959-P00338_1,0.107535,36,89.552778,93.473623,93.114367,284,56,4,1,267,62,3,0,0,345,332
P36959-P11586_1,0.050194,29,81.314138,91.365420,92.111102,265,66,12,2,722,201,12,0,0,345,935
P36959-P49591_1,0.137460,41,89.665610,93.196841,88.376012,281,56,7,1,355,101,47,11,0,345,514
P38117-P09211_1,0.112722,37,89.525135,94.277725,95.500143,217,36,2,0,196,12,2,0,0,255,210
P38117-P09382_1,0.058390,28,85.722857,94.895686,92.498000,225,28,2,0,113,16,4,2,0,255,135
P38117-P14550_1,0.262738,60,89.188667,93.590196,94.312215,206,47,2,0,283,37,3,2,0,255,325
P38117-Q6P587_1,0.031395,3,89.090000,94.621647,92.203929,225,28,2,0,195,10,15,4,0,255,224
P38606-P36543_1,0.101529,46,83.059565,91.030243,85.061549,427,175,11,4,61,153,10,2,0,617,226
P38606-P61421_1,0.450448,104,86.121442,89.508801,83.920684,371,227,6,13,113,197,38,3,0,617,351
P39019-P42677_1,0.065810,39,80.165385,85.708276,81.974048,38,104,2,1,12,63,8,1,0,145,84
P39019-P42766_1,0.290908,82,84.134634,89.092483,87.632764,92,50,2,1,58,61,4,0,0,145,123
P39019-P62266_1,0.059759,40,77.876750,86.512828,85.725594,48,92,4,1,60,72,9,2,0,145,143
P39019-P62979_1,0.042931,27,78.293704,86.879517,79.977692,61,81,2,1,41,78,36,1,0,145,156
P40429-P18621_1,0.178073,65,82.765538,90.572660,86.328370,157,32,13,1,116,48,17,3,0,203,184
P40429-P23396_1,0.033124,9,90.331111,89.730296,85.896708,150,40,12,1,122,91,28,2,0,203,243
P40429-P26373_1,0.133245,68,78.556618,89.906158,75.788199,151,39,12,1,33,126,28,24,0,203,211
P40429-P32969_1,0.067437,43,78.494186,89.918374,86.584115,149,41,12,1,71,113,7,1,0,203,192
P40429-P39019_1,0.084069,46,80.462609,89.347685,88.772621,149,38,15,1,86,54,5,0,0,203,145
P40429-P42677_1,0.167269,53,86.255472,90.147192,84.355238,152,41,9,1,39,35,9,1,0,203,84
P40429-P46777_1,0.032362,11,75.490000,88.892463,87.515892,144,43,14,2,175,97,22,3,0,203,297
P40429-P46779_1,0.031857,7,82.217143,90.522217,85.669197,156,33,13,1,55,71,10,1,0,203,137
P40429-P46782_1,0.171258,51,87.389608,89.189754,85.946324,145,43,14,1,101,88,13,2,0,203,204
P40429-P49207_1,0.157498,55,84.732364,92.037537,83.137949,160,39,3,1,25,86,6,0,0,203,117
P40429-P61254_1,0.144678,54,84.095000,91.414877,87.187517,159,32,11,1,84,50,11,0,0,203,145
P40429-P61353_1,0.033334,12,81.283333,91.339852,88.201029,161,31,10,1,75,57,3,1,0,203,136
P40429-P62241_1,0.032140,14,65.705000,88.824039,84.570096,143,42,16,2,96,80,27,5,0,203,208
P40429-P62249_1,0.115776,41,87.407317,90.641034,88.164384,152,39,11,1,86,51,8,1,0,203,146
P40429-P62269_1,0.038061,30,70.725333,89.917044,84.196447,153,35,14,1,83,45,19,5,0,203,152
P40429-P62701_1,0.048981,32,78.379688,89.098424,90.760837,146,41,15,1,182,75,3,3,0,203,263
P40429-P62750_1,0.055702,42,75.501429,88.922512,80.008333,146,41,15,1,56,53,44,3,0,203,156
P40429-P62753_1,0.033567,16,74.101875,89.176355,85.370241,147,41,13,2,88,147,13,1,0,203,249
P40429-P62891_1,0.354064,74,88.871486,91.283005,83.593922,158,33,11,1,0,48,3,0,0,203,51
P40429-P62906_1,0.031334,2,70.080000,88.725616,80.989032,146,41,15,1,13,189,14,1,0,203,217
P40429-P62910_1,0.234661,54,90.057593,91.355813,85.997926,158,33,11,1,56,70,6,3,0,203,135
P40429-P63173_1,0.032249,7,91.161429,91.604877,90.235714,161,31,10,1,48,22,0,0,0,203,70
P40429-P84098_1,0.047587,48,69.479167,89.717685,85.587143,146,43,12,2,112,61,18,5,0,203,196
P40429-Q9Y3U8_1,0.034412,18,74.605556,91.077291,81.099524,160,29,13,1,26,54,25,0,0,203,105
P40925-O75083_1,0.099086,40,85.868500,93.395569,94.298911,289,37,7,1,523,83,0,0,0,334,606
P40925-P29401_1,0.060493,27,87.420000,93.865868,95.557673,291,36,7,0,592,26,3,2,0,334,623
P40925-Q00796_1,0.033114,8,95.355000,94.850629,94.267311,299,32,3,0,329,17,5,6,0,334,357
P40925-Q9H0I9_1,0.040168,18,86.246667,93.359491,94.684297,289,37,7,1,576,44,2,4,0,334,626
P42677-P42766_1,0.255058,57,89.929123,88.023214,89.390569,46,34,4,0,68,53,2,0,0,84,123
P42766-P35544_1,0.031322,0,0.000000,91.206829,89.579595,91,31,1,0,51,20,2,1,0,123,74
P42766-P40429_1,0.209051,50,90.333400,88.101545,91.765616,58,63,2,0,160,34,8,1,0,123,203
P42766-Q9UNX3_1,0.173178,60,84.052833,89.325854,90.584207,57,65,1,0,110,30,5,0,2,123,145
P42766-Q9Y3U8_1,0.034849,14,83.307143,88.106098,81.349905,55,66,2,0,42,40,22,1,0,123,105
P46776-P18077_1,0.037670,13,93.036923,77.947230,91.129909,44,61,40,3,91,13,5,1,0,148,110
P46776-P39019_1,0.341406,129,78.235194,73.308108,87.568690,24,62,53,9,69,73,2,1,0,148,145
P46776-P42677_1,0.040801,30,73.946667,77.708851,86.930595,39,63,44,2,50,26,7,1,0,148,84
P46776-P49207_1,0.033719,15,76.638000,77.610878,85.010427,48,49,47,4,30,86,1,0,0,148,117
P46776-P61513_1,0.031322,0,0.000000,76.177027,88.442174,35,66,43,4,58,29,4,1,0,148,92
P46776-P62241_1,0.032724,28,57.165714,75.311757,85.741154,37,55,49,7,115,65,22,6,0,148,208
P46776-P62249_1,0.181208,54,86.825370,73.405203,89.405479,43,41,36,28,92,48,4,2,0,148,146
P46776-P62701_1,0.041056,28,75.734643,74.350203,91.729240,34,51,59,4,199,58,4,2,0,148,263
P46776-P62753_1,0.031322,0,0.000000,76.180541,88.763936,44,49,47,8,144,94,10,1,0,148,249
P46776-P62891_1,0.031322,0,0.000000,81.083446,87.993922,57,52,39,0,30,19,1,1,0,148,51
P46776-P62910_1,0.032043,8,81.472500,76.397770,87.967481,40,61,34,13,75,53,5,2,0,148,135
P46777-P18077_1,0.031905,7,83.615714,89.919394,89.116545,201,89,6,1,76,28,4,2,0,297,110
P46777-P18621_1,0.143903,64,80.597187,88.891044,86.202989,202,78,16,1,117,44,18,5,0,297,184
P46777-P23396_1,0.031322,0,0.000000,86.741616,85.198971,150,126,20,1,107,107,27,2,0,297,243
P46777-P26373_1,0.032896,13,75.702308,88.973670,80.377346,188,99,7,3,40,138,30,3,0,297,211
P46777-P32969_1,0.031433,4,79.907500,88.489529,87.451823,179,106,9,3,84,101,6,1,0,297,192
P46777-P39019_1,0.034101,14,80.429286,89.570135,88.821103,190,97,9,1,85,57,2,1,0,297,145
P46777-P42677_1,0.153273,67,80.443134,88.711414,83.357381,185,96,14,2,30,44,8,2,0,297,84
P46777-P42766_1,0.042185,22,82.787273,88.477946,85.650976,172,109,13,3,35,85,3,0,0,297,123
P46777-P46779_1,0.031338,2,79.250000,89.403333,87.446423,189,100,7,1,88,36,12,1,0,297,137
P46777-P49207_1,0.120954,64,78.566563,88.745926,80.689402,184,103,8,2,26,77,14,0,0,297,117
P46777-P61254_1,0.031429,6,61.183333,89.756128,87.043517,197,89,10,1,94,34,16,1,0,297,145
P46777-P61353_1,0.031369,3,77.480000,89.841010,88.762500,207,80,9,1,81,52,3,0,0,297,136
P46777-P61513_1,0.230765,78,82.259103,89.124613,84.062609,189,96,9,3,20,64,6,2,0,297,92
P46777-P62241_1,0.031776,9,70.466667,88.358384,84.487019,169,119,7,2,92,86,26,4,0,297,208
P46777-P62244_1,0.043707,30,76.483333,88.823131,89.152154,189,93,11,4,88,38,2,2,0,297,130
P46777-P62249_1,0.256327,77,83.763247,88.670673,87.353904,193,86,17,1,86,49,8,3,0,297,146
P46777-P62266_1,0.033683,14,78.462143,89.279966,85.706084,186,101,9,1,62,72,8,1,0,297,143
P46777-P62701_1,0.052981,32,80.304375,88.452559,90.581673,179,99,16,3,177,80,4,2,0,297,263
P46777-P62750_1,0.060270,40,78.036500,87.553535,78.240321,146,141,9,1,57,41,53,5,0,297,156
P46777-P62753_1,0.150509,47,87.622766,88.621616,85.877831,173,117,4,3,101,131,16,1,0,297,249
P46777-P62891_1,0.141112,52,84.593077,90.609529,81.626667,216,74,5,2,1,47,2,1,0,297,51
P46777-P62910_1,0.196041,80,79.917375,89.036835,84.060667,199,82,11,5,30,95,7,3,0,297,135
P46777-P63173_1,0.031322,0,0.000000,90.816936,91.024714,217,73,6,1,53,17,0,0,0,297,70
P46777-P84098_1,0.158858,80,77.581875,88.510909,83.361990,172,113,10,2,83,81,28,4,0,297,196
P46777-Q02543_1,0.037807,17,84.469412,89.458788,86.650739,188,102,4,3,97,58,18,3,0,297,176
P46778-P18077_1,0.058788,22,92.567273,88.421250,90.188182,83,73,4,0,82,23,4,1,0,160,110
P46778-P23396_1,0.032643,9,85.835556,86.032625,86.530247,66,85,9,0,134,80,28,1,0,160,243
P46778-P39019_1,0.100200,41,85.451951,87.191500,87.535793,67,89,4,0,68,72,4,1,0,160,145
P46778-P42677_1,0.159999,72,79.574028,86.149000,82.775119,58,99,2,1,34,38,9,3,0,160,84
P46778-P42766_1,0.071099,27,90.560741,89.503562,89.845285,90,68,2,0,78,44,1,0,0,160,123
P46778-P46779_1,0.034615,14,82.477143,88.429125,87.581752,86,68,6,0,80,46,10,1,0,160,137
P46778-P46782_1,0.069020,50,75.835400,83.210313,86.414020,48,94,15,3,103,86,12,3,0,160,204
P46778-P49207_1,0.031322,0,0.000000,89.424937,85.137350,94,64,2,0,28,85,4,0,0,160,117
P46778-P61254_1,0.031955,7,84.957143,88.094500,88.706828,81,75,4,0,104,34,7,0,0,160,145
P46778-P61353_1,0.082686,36,85.712222,87.508625,87.915735,76,81,3,0,69,64,2,1,0,160,136
P46778-P62241_1,0.031322,0,0.000000,87.369562,86.004327,80,73,7,0,98,91,16,3,0,160,208
P46778-P62244_1,0.341546,79,87.021013,84.866000,88.407385,50,99,11,0,76,50,3,1,0,160,130
P46778-P62249_1,0.045894,25,82.450800,86.355562,88.945685,68,84,8,0,91,49,6,0,0,160,146
P46778-P62266_1,0.044821,32,75.862812,86.885375,85.997273,67,88,5,0,67,66,8,2,0,160,143
P46778-P62277_1,0.031322,0,0.000000,88.603813,85.912781,87,69,4,0,79,59,7,6,0,160,151
P46778-P62701_1,0.032174,9,79.503333,86.175375,91.084411,63,90,7,0,190,69,3,1,0,160,263
P46778-P62750_1,0.032340,14,68.337857,87.929000,81.379167,82,73,5,0,75,41,35,5,0,160,156
P46778-P62753_1,0.335577,83,85.801325,87.935562,86.784659,80,76,3,1,93,145,10,1,0,160,249
P46778-P62841_1,0.031322,0,0.000000,87.631125,83.621172,86,65,9,0,51,72,19,3,0,160,145
P46778-P62891_1,0.059814,29,85.333103,89.772313,85.178824,92,66,2,0,13,36,1,1,0,160,51
P46778-P62910_1,0.162494,50,87.182200,89.410875,87.118074,94,65,1,0,64,64,5,2,0,160,135
P46778-P63173_1,0.031425,4,78.355000,89.139250,91.121571,93,63,4,0,53,17,0,0,0,160,70
P46778-Q969Q0_1,0.149612,60,82.326333,87.343750,80.575660,70,86,4,0,26,55,23,2,0,160,106
P46779-P39019_1,0.271416,66,87.578485,86.416350,88.214069,52,74,11,0,72,70,2,1,0,137,145
P46779-P42766_1,0.031828,6,88.320000,89.189343,90.634878,91,41,5,0,84,38,1,0,0,137,123
P46779-P49207_1,0.103560,33,91.237576,89.302336,86.888889,92,41,4,0,34,81,2,0,0,137,117
P46779-P62244_1,0.462117,92,88.940000,86.122409,90.063308,53,73,11,0,88,39,2,1,0,137,130
P46779-P62249_1,0.034992,12,88.985000,87.168321,90.069932,62,70,5,0,93,47,4,2,0,137,146
P46779-P62263_1,0.031322,0,0.000000,86.576642,83.878013,50,77,10,0,84,36,28,3,0,137,151
P46779-P62753_1,0.031407,4,74.067500,86.597956,87.570161,69,55,13,0,123,116,9,1,0,137,249
P46779-P62841_1,0.074180,33,86.083333,88.075766,83.494276,76,57,4,0,52,71,20,2,0,137,145
P46782-P42766_1,0.162199,45,89.572222,87.261275,86.909919,111,78,12,3,35,85,3,0,0,204,123
P46782-P62753_1,0.031900,6,90.651667,86.490441,84.685020,110,79,12,3,75,157,16,1,0,204,249
P47755-Q12768_1,0.033745,22,67.257273,84.551608,89.402148,125,119,33,9,691,445,19,4,0,286,1159
P49207-P18077_1,0.080624,46,79.858696,82.562991,89.044273,4,108,5,0,79,23,6,2,0,117,110
P49207-P23396_1,0.032828,10,83.716000,80.567094,86.352675,22,86,9,0,135,80,26,2,0,117,243
P49207-P42677_1,0.062209,39,79.162821,84.061538,85.956071,23,90,4,0,41,34,8,1,0,117,84
P49207-P42766_1,0.162897,52,86.347115,84.187692,89.127805,12,103,2,0,72,49,2,0,0,117,123
P49207-P60866_1,0.192499,52,88.403269,84.943846,84.517731,30,83,4,0,59,42,17,1,0,117,119
P49207-P61513_1,0.050931,25,85.452400,83.615043,86.255109,7,105,5,0,35,53,3,1,0,117,92
P49207-P62241_1,0.033427,12,81.861667,83.924957,86.681298,25,87,5,0,97,94,15,2,0,117,208
P49207-P62249_1,0.031322,0,0.000000,82.874103,89.779178,27,80,10,0,93,46,7,0,0,117,146
P49207-P62263_1,0.164755,61,83.127541,81.599231,83.482252,24,79,14,0,77,42,31,1,0,117,151
P49207-P62266_1,0.076031,50,77.306000,82.265385,87.239860,25,85,7,0,68,67,8,0,0,117,143
P49207-P62269_1,0.031322,0,0.000000,82.958632,84.559013,25,86,6,0,67,64,14,7,0,117,152
P49207-P62277_1,0.033395,21,66.651429,84.869316,87.211656,25,89,3,0,89,49,9,4,0,117,151
P49207-P62753_1,0.104694,45,83.948667,84.572222,87.478153,26,89,2,0,119,120,9,1,0,117,249
P49207-P62841_1,0.109051,41,86.605610,83.100769,84.594690,27,83,7,0,57,69,18,1,0,117,145
P49207-P63173_1,0.031508,4,91.525000,86.415641,90.790000,37,76,4,0,47,23,0,0,0,117,70
P49207-Q969Q0_1,0.078843,47,79.086596,85.218889,81.615094,29,84,4,0,22,69,11,4,0,117,106
P49591-P30085_1,0.159923,71,79.829718,89.230350,87.802959,368,89,48,9,103,80,13,0,0,514,196
P49721-O14818_1,0.254557,55,90.704727,91.642537,92.040565,150,47,2,2,186,60,2,0,0,201,248
P49773-P09960_1,0.052867,28,83.470357,91.898413,95.891391,100,22,2,2,586,23,1,1,0,126,611
P51665-Q9BRP4_1,0.050956,26,84.436538,78.939969,92.610485,38,206,73,7,315,72,3,2,0,324,392
P51970-Q9UI09_1,0.031340,2,82.810000,88.393372,87.555310,95,65,10,2,45,99,1,0,0,172,145
P52209-P14550_1,0.124995,39,89.628205,94.620373,93.649108,432,45,6,0,270,50,3,2,0,483,325
P52434-O15160_1,0.032974,14,74.157857,84.845733,90.414104,74,56,19,1,237,97,12,0,0,150,346
P60174-Q99497_1,0.031677,5,91.362000,94.540361,97.027725,226,16,5,2,183,5,1,0,0,249,189
P60660-P06753_1,0.031322,0,0.000000,90.742781,87.187860,117,31,3,0,170,74,40,1,0,151,285
P60866-P42766_1,0.282925,84,83.326310,83.086387,87.793252,48,49,22,0,60,60,3,0,0,119,123
P60866-P62979_1,0.032169,9,79.433333,82.170336,82.180962,40,57,22,0,60,70,24,2,0,119,156
P60981-O00764_1,0.274081,80,83.855250,88.747758,93.724872,90,69,4,2,258,47,6,1,0,165,312
P61254-P23396_1,0.031322,0,0.000000,87.197517,86.509342,85,47,13,0,132,83,26,2,0,145,243
P61254-P39019_1,0.031389,3,86.840000,89.456828,88.860069,104,38,3,0,76,66,2,1,0,145,145
P61254-P42766_1,0.297908,73,86.728219,91.459379,89.995935,112,29,4,0,70,52,1,0,0,145,123
P61254-P46782_1,0.031335,2,72.270000,84.767241,86.520196,50,74,20,1,108,81,12,3,0,145,204
P61254-P49207_1,0.169301,85,77.216000,87.360069,80.607778,95,35,15,0,26,70,21,0,0,145,117
P61254-P61353_1,0.031322,0,0.000000,89.199655,89.028529,106,31,8,0,88,45,2,1,0,145,136
P61254-P61513_1,0.034337,16,77.490625,87.022759,85.019130,100,28,17,0,23,62,6,1,0,145,92
P61254-P62241_1,0.038252,19,82.001053,87.860207,85.852019,88,49,8,0,104,81,19,4,0,145,208
P61254-P62249_1,0.063285,33,83.270606,88.368069,89.080205,95,43,7,0,91,49,6,0,0,145,146
P61254-P62269_1,0.032222,9,80.296667,88.293586,85.768355,96,38,11,0,80,52,18,2,0,145,152
P61254-P62277_1,0.031334,2,69.795000,88.699448,86.269470,99,39,7,0,95,42,8,6,0,145,151
P61254-P62280_1,0.037014,14,89.100000,89.440138,83.002722,97,45,3,0,70,53,32,3,0,145,158
P61254-P62701_1,0.032322,11,74.978182,87.246414,91.129848,90,40,15,0,191,66,4,2,0,145,263
P61254-P62753_1,0.031341,2,85.010000,88.015793,87.145502,98,37,10,0,118,117,13,1,0,145,249
P61254-P62841_1,0.033399,11,84.651818,88.156207,84.945793,105,26,14,0,57,75,11,2,0,145,145
P61313-P18621_1,0.037000,26,72.147308,80.635735,88.877283,103,41,50,10,124,47,13,0,0,204,184
P61313-P39019_1,0.088028,47,80.660426,85.492598,87.240483,117,63,24,0,59,81,4,1,0,204,145
P61313-P42677_1,0.135763,50,84.963200,86.046225,86.306190,113,58,33,0,47,28,7,2,0,204,84
P61313-P46776_1,0.031916,11,68.096364,81.763382,75.757635,115,28,53,8,39,53,52,4,0,204,148
P61313-P46778_1,0.110485,37,89.248649,87.960980,86.519938,115,80,9,0,71,79,10,0,0,204,160
P61313-P46779_1,0.031322,0,0.000000,86.187892,87.240657,127,45,32,0,78,48,11,0,0,204,137
P61313-P49207_1,0.291789,69,87.604783,88.724020,84.812051,117,74,13,0,17,98,2,0,0,204,117
P61313-P61254_1,0.031376,3,81.210000,82.076471,88.511241,114,35,46,9,103,34,8,0,0,204,145
P61313-P61353_1,0.196329,60,85.550333,84.250147,88.496471,100,62,42,0,75,57,3,1,0,204,136
P61313-P61513_1,0.093787,67,74.657015,88.367794,85.970435,128,58,18,0,43,43,4,2,2,204,92
P61313-P62241_1,0.052978,36,77.663611,84.605539,86.725288,106,55,43,0,101,93,13,1,0,204,208
P61313-P62249_1,0.313970,69,88.600145,84.938676,89.209110,103,59,42,0,84,56,5,1,0,204,146
P61313-P62277_1,0.247613,109,77.169174,82.873480,84.074371,97,60,47,0,53,83,6,9,0,204,151
P61313-P62701_1,0.189284,52,88.194038,82.874363,90.816236,94,59,51,0,179,80,3,1,0,204,263
P61313-P62753_1,0.032012,12,67.620000,85.209951,86.274819,120,42,42,0,104,132,11,2,0,204,249
P61313-P62891_1,0.104621,46,83.457609,86.639510,82.183922,126,47,31,0,12,37,1,1,0,204,51
P61313-P62910_1,0.080314,51,77.708039,85.125147,85.213556,125,37,39,3,46,81,6,2,2,204,135
P61313-P63173_1,0.035891,12,91.799167,90.136569,91.007143,142,53,9,0,52,18,0,0,0,204,70
P61313-Q02543_1,0.031617,8,67.940000,84.183137,87.755852,118,44,37,5,116,38,19,3,0,204,176
P61353-P18077_1,0.502510,90,91.122889,91.425588,91.165909,104,31,1,0,84,23,2,1,0,136,110
P61353-P23396_1,0.031322,0,0.000000,86.058162,85.254239,50,75,10,1,120,93,28,2,0,136,243
P61353-P39019_1,0.328375,77,86.978701,87.492279,87.034621,61,72,3,0,61,81,2,1,0,136,145
P61353-P42677_1,0.064618,34,82.951471,89.067132,86.376905,88,45,3,0,43,32,8,1,0,136,84
P61353-P42766_1,0.031322,0,0.000000,90.206176,89.935366,95,39,2,0,80,42,1,0,0,136,123
P61353-P60866_1,0.281557,89,82.193146,85.774485,79.740000,46,79,11,0,26,65,27,1,0,136,119
P61353-P62241_1,0.147301,46,87.843478,87.597426,86.461154,68,65,2,1,94,98,15,1,0,136,208
P61353-P62266_1,0.110630,54,80.806296,86.781029,85.898042,58,72,5,1,71,62,8,2,0,136,143
P61353-P62277_1,0.447486,105,85.826095,89.716029,87.265828,87,48,1,0,93,47,5,6,0,136,151
P61353-P62701_1,0.042739,17,90.888235,88.770662,91.545057,80,54,1,1,194,65,3,1,0,136,263
P61353-P62753_1,0.071367,30,87.822000,88.348235,86.717149,79,54,3,0,110,129,9,1,0,136,249
P61353-P62891_1,0.128515,48,85.170833,91.072941,76.940980,104,30,2,0,0,42,8,1,0,136,51
P61353-P62910_1,0.031322,0,0.000000,90.624191,88.237185,99,35,2,0,80,49,4,2,0,136,135
P61353-P62979_1,0.032247,9,80.688889,87.508897,82.306859,75,51,9,1,60,71,24,1,0,136,156
P61353-P63173_1,0.031322,0,0.000000,90.748529,90.698857,101,33,2,0,48,22,0,0,0,136,70
P61513-P39019_1,0.090212,44,82.411818,84.632935,86.912000,36,48,5,3,60,82,2,1,0,92,145
P61513-P42766_1,0.145264,41,90.384390,89.026957,89.084553,50,39,3,0,64,57,2,0,0,92,123
P61513-P62269_1,0.041783,35,71.634286,86.036957,83.652697,46,38,6,2,53,75,21,3,0,92,152
P61513-P62891_1,0.050218,30,80.516000,90.129783,87.225294,69,19,3,1,20,29,1,1,0,92,51
P61513-P62979_1,0.101646,51,80.894706,86.705870,80.602436,34,54,3,1,43,81,30,2,0,92,156
P61513-P63173_1,0.103668,36,89.036944,89.430978,89.057571,58,32,1,1,33,37,0,0,0,92,70
P62241-P39019_1,0.358809,69,90.542609,87.077067,89.493448,100,91,16,1,88,54,2,1,0,208,145
P62241-P42677_1,0.088100,40,84.198500,86.073317,85.345357,94,95,18,1,31,45,7,1,0,208,84
P62241-P42766_1,0.033462,14,77.275714,86.347644,87.803171,108,80,17,3,54,66,3,0,0,208,123
P62241-P62266_1,0.052985,39,75.969744,85.705385,84.880350,98,88,20,2,55,75,9,4,0,208,143
P62244-P39019_1,0.153108,58,83.288103,87.689077,85.017862,66,58,4,2,25,116,3,1,0,130,145
P62244-P42766_1,0.154861,47,87.980000,91.099769,88.548862,100,27,2,1,60,62,1,0,0,130,123
P62244-P62266_1,0.444265,90,88.633667,89.718538,86.389301,88,39,2,1,59,75,7,2,0,130,143
P62249-P42766_1,0.031322,0,0.000000,91.052603,89.800732,108,32,6,0,81,40,2,0,0,146,123
P62249-P60866_1,0.032023,7,86.601429,89.910479,82.569580,94,45,6,1,45,53,18,3,0,146,119
P62263-P42766_1,0.261275,58,89.859655,85.202980,87.498455,87,38,26,0,41,80,2,0,0,151,123
P62266-P27635_1,0.031322,0,0.000000,85.413147,86.506028,62,70,8,3,114,81,18,1,0,143,214
P62266-P42677_1,0.338090,89,84.569663,85.670699,84.537857,56,75,11,1,33,40,10,1,0,143,84
P62266-P42766_1,0.047152,29,79.614483,87.302867,87.697480,82,51,10,0,53,68,2,0,0,143,123
P62269-P42766_1,0.044574,19,89.090526,86.630658,88.638943,90,44,16,2,61,60,2,0,0,152,123
P62277-P42766_1,0.032423,12,73.580000,87.177550,89.166098,98,39,10,4,64,58,1,0,0,151,123
P62280-P39019_1,0.431643,81,90.230617,83.485380,90.090759,63,66,26,3,97,45,3,0,0,158,145
P62280-P62266_1,0.315647,59,92.079153,82.472405,89.412587,68,55,32,3,80,61,2,0,0,158,143
P62333-O00231_1,0.032707,10,82.564000,81.644319,76.640047,24,318,42,5,12,304,104,2,0,389,422
P62333-Q9UNM6_1,0.031670,7,75.248571,81.536350,78.534388,44,303,37,5,0,322,53,1,0,389,376
P62487-P52434_1,0.084602,37,85.409730,92.599186,84.815067,132,39,1,0,65,65,20,0,0,172,150
P62487-P62875_1,0.131857,38,90.983947,94.450930,86.422836,154,17,1,0,46,13,6,2,0,172,67
P62701-P39019_1,0.063102,34,82.511471,90.277833,85.648897,170,89,4,0,32,109,3,1,0,263,145
P62701-P42677_1,0.122336,52,82.836346,90.018137,83.867381,168,90,4,1,38,36,9,1,0,263,84
P62701-P42766_1,0.156784,55,84.677636,91.310875,85.948374,192,67,3,1,44,70,6,3,0,263,123
P62701-P62241_1,0.031413,4,75.565000,90.531673,85.798413,178,80,4,1,90,97,20,1,0,263,208
P62701-P62244_1,0.186428,66,82.997727,88.891673,85.887154,154,100,7,2,57,62,9,2,0,263,130
P62701-P62266_1,0.047447,31,78.243548,90.635970,84.214336,173,85,3,2,54,73,14,2,0,263,143
P62701-P62269_1,0.072377,28,89.892143,91.156692,85.815855,192,66,3,2,82,48,20,2,0,263,152
P62750-P18077_1,0.032298,7,91.997143,84.765641,89.955091,77,61,17,1,82,22,5,1,0,156,110
P62750-P39019_1,0.233735,57,88.802982,82.611026,88.083655,55,78,22,1,72,70,2,1,0,156,145
P62750-P46779_1,0.031344,2,91.780000,83.610577,87.690657,79,49,27,1,69,64,4,0,0,156,137
P62750-P49207_1,0.040337,29,74.212069,82.310064,82.410000,79,32,45,0,21,89,7,0,0,156,117
P62750-P61254_1,0.031989,11,69.626364,82.670962,88.247931,78,44,32,2,103,35,7,0,0,156,145
P62750-P62241_1,0.063936,34,82.755882,81.630256,84.514760,62,64,29,1,86,97,23,2,0,156,208
P62750-P62249_1,0.031322,0,0.000000,82.231410,89.212192,78,39,35,4,90,49,5,2,0,156,146
P62750-P62263_1,0.108469,52,81.328269,81.198718,81.812384,60,58,38,0,65,49,32,5,0,156,151
P62750-P62701_1,0.031335,2,70.575000,82.071474,90.307719,67,53,36,0,172,86,3,2,0,156,263
P62750-P62753_1,0.031451,5,71.798000,81.450577,86.896305,77,38,40,1,110,127,11,1,0,156,249
P62750-P62841_1,0.059777,38,78.980526,82.976218,84.285655,79,41,35,1,59,67,17,2,0,156,145
P62750-P63173_1,0.031322,0,0.000000,84.295128,90.968571,78,57,19,2,51,19,0,0,0,156,70
P62753-P27635_1,0.039711,29,73.525172,86.472731,85.010841,98,139,11,1,119,61,30,4,0,249,214
P62753-P39019_1,0.041347,24,79.706250,86.215703,88.076621,110,124,14,1,73,69,2,1,0,249,145
P62753-P42677_1,0.177655,64,83.046563,86.379518,85.477500,87,152,9,1,38,40,4,2,0,249,84
P62753-P42766_1,0.152379,54,84.722407,88.521606,87.804065,140,98,10,1,55,64,4,0,0,249,123
P62753-P62241_1,0.043212,22,83.730909,86.485060,86.584904,106,131,11,1,95,95,17,1,0,249,208
P62753-P62244_1,0.133355,45,87.086889,86.699558,88.961923,99,138,11,1,82,44,3,1,2,249,130
P62753-P62266_1,0.058291,27,86.632222,87.104378,87.208951,112,127,9,1,67,67,8,1,0,249,143
P62753-P62269_1,0.164736,47,88.755319,87.120040,85.541053,117,119,12,1,80,51,18,3,0,249,152
P62753-P62277_1,0.031322,0,0.000000,87.140884,86.643046,110,129,9,1,82,57,10,2,0,249,151
P62753-P62841_1,0.031322,0,0.000000,87.761526,84.424897,126,113,9,1,58,69,16,2,0,249,145
P62841-P42766_1,0.031802,6,87.390000,85.677310,89.716341,65,64,14,2,73,48,2,0,0,145,123
P62841-P62249_1,0.148688,68,79.813382,82.978828,87.717123,47,71,25,2,86,48,12,0,0,145,146
P62891-P42766_1,0.031489,4,89.110000,87.001765,91.602033,23,25,1,2,93,28,2,0,0,51,123
P62891-P62241_1,0.031322,0,0.000000,86.482549,88.885865,17,32,1,1,126,74,7,1,0,51,208
P62891-P62249_1,0.044486,25,81.428400,84.233725,90.718356,8,40,3,0,105,35,6,0,0,51,146
P62891-P62266_1,0.031322,0,0.000000,85.338235,88.668042,9,39,1,2,86,48,8,1,0,51,143
P62891-P62269_1,0.031322,0,0.000000,82.527843,87.215987,3,45,1,2,98,35,17,2,0,51,152
P62891-P62277_1,0.221494,86,79.987442,81.477255,88.811192,6,42,2,1,100,44,4,3,0,51,151
P62891-P62280_1,0.085011,33,88.279697,86.011961,86.534557,12,37,2,0,95,39,21,3,0,51,158
P62891-P62701_1,0.166181,51,87.019020,81.980392,91.676996,7,42,1,1,196,64,3,0,0,51,263
P62906-P18621_1,0.031322,0,0.000000,82.338157,87.119130,19,188,9,1,119,45,15,5,0,217,184
P62906-P23396_1,0.031322,0,0.000000,80.537373,83.798025,7,195,14,1,97,113,27,6,0,217,243
P62906-P27635_1,0.031322,0,0.000000,81.677512,83.155935,9,196,11,1,88,84,41,1,0,217,214
P62906-P32969_1,0.031322,0,0.000000,79.586682,84.210833,5,195,15,2,41,143,7,1,0,217,192
P62906-P39019_1,0.032977,11,81.640000,79.704055,83.248414,4,191,20,2,2,137,5,1,0,217,145
P62906-P42677_1,0.089589,63,75.183016,74.734147,78.659643,0,158,57,2,0,69,14,1,0,217,84
P62906-P42766_1,0.061557,46,75.564565,79.266636,85.288862,8,183,25,1,27,92,4,0,0,217,123
P62906-P46777_1,0.031322,0,0.000000,83.641244,87.288384,23,189,4,1,169,102,23,3,0,217,297
P62906-P46778_1,0.031333,2,65.730000,79.537465,85.053188,4,192,20,1,54,95,10,1,0,217,160
P62906-P46779_1,0.031322,0,0.000000,79.950968,80.355182,5,191,19,2,0,122,14,1,0,217,137
P62906-P49207_1,0.039961,28,74.581786,80.524654,77.831709,5,195,16,1,20,72,25,0,0,217,117
P62906-P61313_1,0.034012,19,71.736316,81.842442,81.630196,10,196,10,1,86,71,42,5,0,217,204
P62906-P62241_1,0.031322,0,0.000000,81.510230,84.333894,10,195,11,1,88,92,27,1,0,217,208
P62906-P62244_1,0.108084,53,80.893208,70.916866,85.974538,0,116,99,2,42,82,4,2,0,217,130
P62906-P62266_1,0.031322,0,0.000000,80.742396,84.963007,9,192,14,2,51,81,11,0,0,217,143
P62906-P62701_1,0.031354,3,67.070000,81.637926,89.827833,8,199,9,1,166,92,3,2,0,217,263
P62906-P62753_1,0.031322,0,0.000000,81.308203,85.345020,10,193,12,2,94,135,19,1,0,217,249
P62906-P63173_1,0.031322,0,0.000000,79.911889,81.605857,4,187,24,2,0,65,5,0,0,217,70
P62906-P84098_1,0.031322,0,0.000000,82.529770,86.020561,14,193,9,1,108,66,18,4,0,217,196
P62906-Q9UNX3_1,0.031322,0,0.000000,80.341429,85.990966,8,190,18,1,73,54,18,0,0,217,145
P62906-Q9Y221_1,0.031322,0,0.000000,78.980415,83.344944,4,192,19,2,28,139,13,0,0,217,180
P62910-P42766_1,0.204462,59,86.395593,87.757185,90.426341,81,44,6,4,81,41,1,0,0,135,123
P62910-P49207_1,0.226737,65,85.636462,87.891926,84.648462,68,62,3,2,18,97,2,0,0,135,117
P62910-P62241_1,0.041497,20,84.717000,85.591111,87.728750,51,74,6,4,111,86,10,1,0,135,208
P62910-P62277_1,0.033460,15,75.297333,87.154222,87.533444,74,52,5,4,100,37,11,3,0,135,151
P62910-P62701_1,0.221661,56,88.521429,85.423333,91.660380,46,80,7,2,198,61,4,0,0,135,263
P62910-P62753_1,0.130154,39,90.166410,87.231185,88.891647,70,57,6,2,141,101,7,0,2,135,249
P62910-P63173_1,0.335087,69,89.523623,88.010667,91.335286,76,52,5,2,46,24,0,0,0,135,70
P62937-Q9H0I9_1,0.064738,22,94.672727,96.250061,94.840016,158,6,1,0,561,60,4,1,0,165,626
P62942-P40925_1,0.153126,45,88.842222,95.042778,95.624072,98,10,0,0,306,24,4,0,0,108,334
P63172-Q9NP97_1,0.115294,40,87.936500,91.825575,90.751667,86,21,6,0,72,23,1,0,0,113,96
P63173-P23396_1,0.031343,2,90.335000,87.626571,85.206584,24,46,0,0,117,96,28,2,0,70,243
P63173-P39019_1,0.133570,53,83.517358,86.087429,86.356345,11,58,1,0,48,94,2,1,0,70,145
P63173-P42677_1,0.055323,27,85.466667,87.810857,86.813571,26,44,0,0,42,36,5,1,0,70,84
P63173-P42766_1,0.040208,15,92.106667,92.507429,91.309675,60,10,0,0,88,34,1,0,0,70,123
P63173-P60866_1,0.031458,4,84.445000,90.128714,83.754034,48,22,0,0,47,53,17,2,0,70,119
P63173-P62241_1,0.031322,0,0.000000,89.712714,88.791683,42,28,0,0,123,75,9,1,0,70,208
P63173-P62244_1,0.031775,6,86.353333,87.360571,90.721615,18,52,0,0,100,27,1,2,0,70,130
P63173-P62249_1,0.035972,13,89.155385,91.172143,91.140068,56,14,0,0,106,35,5,0,0,70,146
P63173-P62263_1,0.031322,0,0.000000,91.438571,85.461258,56,14,0,0,89,34,27,1,0,70,151
P63173-P62266_1,0.043920,25,80.986400,88.986429,87.286783,38,31,1,0,73,61,8,1,0,70,143
P63173-P62269_1,0.081862,36,85.557778,87.969000,85.824605,28,42,0,0,79,53,18,2,0,70,152
P63173-P62277_1,0.036963,14,88.992143,90.226143,88.123311,47,23,0,0,87,56,7,1,0,70,151
P63173-P62280_1,0.031322,0,0.000000,91.617571,85.079873,56,14,0,0,88,38,30,2,0,70,158
P63173-P62701_1,0.034219,11,89.070000,90.654286,91.558327,50,20,0,0,194,65,4,0,0,70,263
P63173-P62753_1,0.031322,0,0.000000,90.770857,88.303454,49,21,0,0,135,105,8,1,0,70,249
P63173-P62979_1,0.031857,9,72.825556,90.235429,82.583333,47,23,0,0,61,72,22,1,0,70,156
P84098-P18077_1,0.052288,31,80.736774,88.365306,89.423545,129,52,14,1,77,27,4,2,0,196,110
P84098-P39019_1,0.243870,85,81.309882,87.640408,88.643655,121,56,18,1,89,51,5,0,0,196,145
P84098-P42766_1,0.068969,51,75.441765,88.287347,87.983171,131,46,18,1,69,51,3,0,0,196,123
P84098-P46776_1,0.036437,33,66.272727,89.315867,74.896892,136,47,12,1,39,48,54,7,0,196,148
P84098-P46778_1,0.037508,21,78.109524,88.340000,87.600500,123,61,10,2,83,70,5,2,0,196,160
P84098-P46779_1,0.035016,16,79.827500,88.435561,87.817153,131,48,16,1,82,44,10,1,0,196,137
P84098-P49207_1,0.031694,6,82.918333,89.071429,83.812479,141,41,14,0,25,88,4,0,0,196,117
P84098-P61254_1,0.037624,24,75.015000,87.859337,88.357448,129,45,21,1,98,35,12,0,0,196,145
P84098-P61353_1,0.067113,42,78.907619,87.133010,88.147132,125,47,21,3,77,57,2,0,0,196,136
P84098-P62241_1,0.087318,67,73.755522,86.145153,84.591202,105,67,23,1,93,82,31,2,2,196,208
P84098-P62244_1,0.346975,73,88.853562,87.525000,89.970385,116,64,15,1,90,37,2,1,0,196,130
P84098-P62249_1,0.032973,14,74.149286,88.027704,89.320205,131,47,17,1,92,48,6,0,0,196,146
P84098-P62266_1,0.034048,15,78.151333,88.715612,86.824266,133,49,12,2,71,63,8,1,0,196,143
P84098-P62701_1,0.060136,30,84.592000,86.959439,91.091673,99,84,11,2,188,71,4,0,0,196,263
P84098-P62750_1,0.058604,42,76.493333,86.114592,82.901923,117,56,20,3,69,60,26,1,0,196,156
P84098-P62753_1,0.052633,40,75.302750,87.003214,88.195582,117,56,20,3,127,114,7,1,2,196,249
P84098-P62841_1,0.032071,9,77.650000,87.812908,84.587931,118,60,17,1,61,64,18,2,0,196,145
P84098-P62891_1,0.080437,31,88.998710,89.690918,86.617647,140,46,9,1,16,33,1,1,0,196,51
P84098-P62910_1,0.465365,99,87.654343,89.096327,86.525704,132,59,4,1,67,59,5,4,0,196,135
P84098-P63173_1,0.031343,2,88.590000,90.671173,91.734286,150,42,3,1,56,14,0,0,0,196,70
Q01469-O43708_1,0.066455,27,89.297407,93.943407,95.956852,110,24,1,0,197,17,1,1,0,135,216
Q01469-P09417_1,0.063779,24,91.775417,94.198741,95.171516,113,21,1,0,232,2,8,2,0,135,244
Q01469-P16930_1,0.071790,29,88.811379,93.082593,96.926086,107,27,1,0,403,16,0,0,0,135,419
Q01469-Q9UI15_1,0.091332,46,81.625652,92.178296,84.650151,103,31,1,0,112,47,36,4,0,135,199
Q02543-P46779_1,0.031383,3,84.273333,88.957159,88.264526,128,36,9,3,89,37,11,0,0,176,137
Q02543-P61254_1,0.072369,29,88.953448,88.782216,88.194897,119,46,9,2,90,46,9,0,0,176,145
Q02543-P62241_1,0.254370,84,82.026667,86.965909,86.826058,105,54,15,2,99,99,9,1,0,176,208
Q02543-P62244_1,0.356390,72,89.539306,87.396080,90.395154,97,67,10,2,97,30,2,1,0,176,130
Q02543-P62701_1,0.032380,9,82.635556,86.844773,91.024829,97,61,16,2,189,70,2,2,0,176,263
Q02543-P62753_1,0.053237,29,82.766207,88.484830,86.941205,110,57,7,2,113,124,11,1,0,176,249
Q02543-P63173_1,0.031322,0,0.000000,90.357273,90.170857,135,36,3,2,47,23,0,0,0,176,70
Q04828-P13929_1,0.130930,35,92.992000,93.506656,95.444654,275,38,7,3,397,35,2,0,0,323,434
Q07020-P42677_1,0.117004,51,82.688039,82.173989,83.753810,82,72,20,14,34,39,9,2,0,188,84
Q07020-P61353_1,0.225072,48,92.246458,84.500585,90.888162,104,51,32,1,102,32,1,1,0,188,136
Q07020-P63173_1,0.207425,51,89.779412,84.882021,91.398286,103,52,32,1,52,18,0,0,0,188,70
Q13084-Q9BYD1_1,0.031322,0,0.000000,87.031250,89.303146,157,72,17,10,121,43,10,4,0,256,178
Q13867-P06132_1,0.031480,4,87.882500,95.370264,93.359183,433,19,1,2,322,32,8,5,0,455,367
Q15124-P29401_1,0.031344,2,91.900000,93.400635,95.053066,487,66,12,2,580,39,1,3,0,567,623
Q16401-O00231_1,0.046959,29,79.496207,84.005357,79.723697,90,381,24,9,41,307,73,1,0,504,422
Q6ZMR3-P09104_1,0.031322,0,0.000000,93.112380,95.415507,277,47,8,0,404,25,5,0,0,332,434
Q71UM5-P23396_1,0.031322,0,0.000000,84.665476,85.190370,36,40,7,1,117,95,29,2,0,84,243
Q71UM5-P26373_1,0.082928,61,74.756066,82.338452,82.950853,33,40,8,3,68,112,31,0,0,84,211
Q71UM5-P39019_1,0.144967,62,81.303387,80.795833,84.995310,14,59,9,2,26,116,2,1,0,84,145
Q71UM5-P46778_1,0.114275,60,79.120667,82.923929,86.203312,35,37,11,1,62,91,6,1,0,84,160
Q71UM5-P61353_1,0.124332,57,81.151228,84.805952,87.532941,46,27,4,7,66,66,4,0,0,84,136
Q71UM5-P62266_1,0.324205,87,84.428046,83.880357,85.546643,29,44,10,1,52,79,11,1,0,84,143
Q71UM5-P62701_1,0.196383,55,87.411273,83.825476,89.913384,22,54,7,1,161,98,4,0,0,84,263
Q71UM5-P62753_1,0.037392,19,80.558947,85.340238,86.692289,41,34,7,2,104,135,9,1,0,84,249
Q8N9F7-P68871_1,0.089689,30,91.601000,94.057484,94.506190,266,44,3,1,140,5,2,0,0,314,147
Q8TD47-P22090_1,0.031846,13,62.114615,90.746844,90.627224,186,72,3,2,184,74,2,3,0,263,263
Q969Q0-P42766_1,0.125101,55,81.949818,82.152358,88.790325,35,53,16,2,64,57,2,0,0,106,123
Q969Q0-P62266_1,0.185412,60,84.864500,81.439340,87.035804,22,67,13,4,56,81,5,1,0,106,143
Q969Q0-P62753_1,0.037396,23,75.656957,80.272925,86.830522,25,55,25,1,105,134,9,1,0,106,249
Q96FN9-O94832_1,0.032622,15,69.457333,86.952857,84.897674,87,71,5,5,303,628,70,5,0,168,1006
Q96L21-P26373_1,0.031322,0,0.000000,87.665327,79.029763,129,69,15,1,36,138,27,10,0,214,211
Q96L21-P46778_1,0.053823,34,79.278529,85.574393,85.637688,117,65,31,1,67,80,10,3,0,214,160
Q96L21-P62241_1,0.119446,68,77.291618,84.676121,84.317260,105,73,35,1,89,85,30,4,0,214,208
Q99497-P06733_1,0.031322,0,0.000000,96.662910,95.869562,183,4,2,0,404,28,2,0,0,189,434
Q99497-P78417_1,0.031414,3,95.526667,96.924974,93.978008,181,7,1,0,215,22,3,1,0,189,241
Q99497-Q53H82_1,0.233263,52,90.840000,96.514021,93.180000,180,8,1,0,229,55,3,1,0,189,288
Q99497-Q9BY32_1,0.031322,0,0.000000,97.408519,91.510155,183,5,1,0,137,54,2,1,0,189,194
Q9BPW9-Q9UKJ5_1,0.033232,12,80.617500,91.544201,83.921515,226,72,21,0,78,54,31,2,0,319,165
Q9BY32-P00441_1,0.032015,6,93.843333,92.663299,96.160844,154,37,3,0,147,7,0,0,0,194,154
Q9BY32-Q5T013_1,0.031322,0,0.000000,91.174536,95.393718,135,54,5,0,265,7,2,3,0,194,277
Q9H081-Q8NBT2_1,0.268029,91,81.191319,81.396732,81.573147,52,124,26,3,43,130,23,1,2,205,197
Q9H4Y5-P04075_1,0.031322,0,0.000000,94.524198,94.195549,229,8,4,2,331,16,16,1,0,243,364
Q9HBM1-Q9H081_1,0.542185,221,77.517647,80.868527,77.475854,42,141,38,3,5,151,45,4,11,224,205
Q9NY33-P06733_1,0.031515,5,79.512000,88.992917,94.622788,467,235,27,8,388,44,2,0,0,737,434
Q9NY33-P09104_1,0.062802,31,84.639355,88.412456,94.597235,465,223,32,17,382,47,5,0,0,737,434
Q9NY33-P13929_1,0.036433,15,85.558000,89.382171,94.435300,474,234,21,8,383,46,5,0,0,737,434
Q9NY33-P23526_1,0.033537,9,93.312222,88.800421,94.715347,455,250,24,8,393,37,0,2,0,737,432
Q9UBI1-Q9H0A8_1,0.109827,68,76.305294,78.915026,77.823015,8,149,35,3,2,155,40,2,6,195,199
Q9UHA3-P61513_1,0.031322,0,0.000000,81.257485,85.698152,51,80,31,1,25,63,3,1,0,163,92
Q9UL33-P0DI82_1,0.189904,55,86.999636,87.639500,90.592500,82,47,9,2,101,31,8,0,0,140,140
Q9UNX3-P18124_1,0.052526,35,78.084857,88.340690,91.251573,108,22,14,1,192,44,7,5,0,145,248
Q9UNX3-P26373_1,0.080356,57,75.577544,87.027517,79.909052,88,43,14,0,54,116,29,12,0,145,211
Q9UNX3-P27635_1,0.031338,2,79.845000,87.583655,84.999206,93,37,15,0,120,55,36,3,0,145,214
Q9UNX3-P46776_1,0.031322,0,0.000000,90.378138,76.005338,112,29,4,0,44,53,41,10,0,145,148
Q9UNX3-P46777_1,0.031928,11,68.355455,86.629931,89.408586,89,37,18,1,190,94,12,1,0,145,297
Q9UNX3-P46778_1,0.031801,7,80.435714,88.723379,88.678937,104,32,9,0,85,72,3,0,0,145,160
Q9UNX3-P49207_1,0.139277,63,80.522381,88.129517,81.649145,95,43,7,0,27,72,18,0,0,145,117
Q9UNX3-P61353_1,0.031322,0,0.000000,89.752759,89.924265,107,32,6,0,95,39,1,1,0,145,136
Q9UNX3-P62241_1,0.034650,14,82.605000,88.195103,86.062404,92,46,7,0,105,85,15,3,0,145,208
Q9UNX3-P62249_1,0.143115,40,90.794250,89.855931,90.629041,107,35,3,0,105,36,5,0,0,145,146
Q9UNX3-P62269_1,0.031322,0,0.000000,88.122069,86.518026,101,31,13,0,79,59,12,2,0,145,152
Q9UNX3-P62753_1,0.130168,40,89.549000,87.572552,87.698835,89,43,13,0,127,112,9,1,0,145,249
Q9UNX3-P62841_1,0.031322,0,0.000000,88.758345,85.741172,106,26,13,0,65,64,15,1,0,145,145
Q9UNX3-P62891_1,0.031611,6,78.496667,91.488483,84.740392,112,32,1,0,4,44,1,2,0,145,51
Q9Y221-P62241_1,0.031322,0,0.000000,89.065056,85.806731,102,76,2,0,92,95,20,1,0,180,208
Q9Y281-O75083_1,0.036921,14,88.900000,89.091084,94.474010,99,62,3,2,525,80,1,0,0,166,606
Q9Y281-Q9H0I9_1,0.031333,2,67.005000,90.668373,95.121629,118,42,5,1,578,42,2,4,0,166,626
Q9Y2Y1-O15160_1,0.099171,59,77.694576,79.663889,88.365751,2,91,15,0,184,149,13,0,0,108,346
Q9Y333-P60709_1,0.227288,53,90.069811,84.366000,94.377173,36,50,8,1,338,25,10,2,0,95,375
Q9Y3B4-Q9BWJ5_1,0.088764,40,84.307500,83.211360,87.146512,51,50,23,1,52,26,6,2,0,125,86
Q9Y3C4-Q9NPF4_1,0.329046,89,84.199775,88.972743,94.153403,110,54,10,1,281,54,0,0,0,175,335
Q9Y3C8-P00441_1,0.119790,38,89.695263,90.591437,95.227143,128,31,4,4,136,17,1,0,0,167,154
Q9Y3U8-P18077_1,0.036870,20,78.219000,83.484381,89.479636,50,36,15,4,74,30,5,1,0,105,110
Q9Y3U8-P18124_1,0.031322,0,0.000000,84.616667,92.309637,47,44,13,1,215,21,9,3,0,105,248
Q9Y3U8-P18621_1,0.031340,2,83.540000,82.725905,90.103152,46,34,22,3,140,31,13,0,0,105,184
Q9Y3U8-P27635_1,0.032056,7,87.360000,81.444000,88.407150,36,45,23,1,133,67,12,2,0,105,214
Q9Y3U8-P32969_1,0.035123,26,68.210000,80.142095,87.563542,28,51,22,4,85,101,5,1,0,105,192
Q9Y3U8-P39019_1,0.205099,51,89.636667,85.880381,88.459931,53,44,7,1,76,66,2,1,0,105,145
Q9Y3U8-P46776_1,0.060911,43,76.729070,83.390857,77.151216,57,27,18,3,37,67,40,4,0,105,148
Q9Y3U8-P46777_1,0.031389,4,68.867500,80.339905,89.404411,35,44,24,2,177,109,10,1,0,105,297
Q9Y3U8-P46778_1,0.031322,0,0.000000,84.791524,88.652813,52,42,10,1,90,65,5,0,0,105,160
Q9Y3U8-P46779_1,0.075442,32,87.130938,85.738762,87.755912,52,46,6,1,71,60,6,0,0,105,137
Q9Y3U8-P49207_1,0.332500,95,83.133053,81.354952,78.996325,43,35,26,1,25,72,20,0,0,105,117
Q9Y3U8-P61254_1,0.178299,72,80.800556,83.554095,88.776207,45,46,10,4,99,39,7,0,2,105,145
Q9Y3U8-P61353_1,0.121079,44,86.359318,83.506476,88.823235,37,52,15,1,87,47,2,0,0,105,136
Q9Y3U8-P61513_1,0.090722,32,90.070625,86.028857,90.174891,56,40,8,1,62,28,2,0,0,105,92
Q9Y3U8-P62241_1,0.031336,2,75.440000,83.793333,87.760385,40,48,16,1,114,80,13,1,0,105,208
Q9Y3U8-P62244_1,0.031322,0,0.000000,82.003714,91.261154,29,54,21,1,105,22,2,1,0,105,130
Q9Y3U8-P62249_1,0.086032,46,80.790652,83.335905,89.903904,45,39,19,2,83,57,6,0,0,105,146
Q9Y3U8-P62266_1,0.037822,35,67.332857,82.299333,86.500490,44,37,21,3,75,58,6,4,0,105,143
Q9Y3U8-P62701_1,0.292298,94,81.664574,78.995143,90.307643,16,64,24,1,168,90,5,0,0,105,263
Q9Y3U8-P62753_1,0.041768,27,77.260000,82.074095,87.778353,35,48,20,2,124,117,7,1,0,105,249
Q9Y3U8-P62841_1,0.082069,39,83.726667,85.555048,84.718345,46,51,8,0,60,68,15,2,0,105,145
Q9Y3U8-P62891_1,0.031322,0,0.000000,87.380286,88.527255,64,35,6,0,27,22,1,1,0,105,51
Q9Y3U8-P62987_1,0.038149,16,86.910000,80.452667,88.091953,32,46,26,1,82,37,9,0,0,105,128
Q9Y3U8-P63173_1,0.031695,6,82.925000,86.083714,91.315143,59,37,8,1,55,15,0,0,0,105,70
Q9Y3U8-P84098_1,0.155682,59,83.136271,86.487429,90.397653,52,45,6,2,135,55,5,1,4,105,196
Q9Y3U8-Q9UNX3_1,0.181854,71,81.291268,84.346571,89.268966,52,40,8,5,102,39,4,0,2,105,145
