ENSG00000002016-ENSG00000066136,0.018
ENSG00000002822-ENSG00000002822,0.263
ENSG00000002822-ENSG00000164109,0.749
ENSG00000004487-ENSG00000117625,0.009
ENSG00000005075-ENSG00000171453,0.719
ENSG00000006007-ENSG00000100652,0.023
ENSG00000006634-ENSG00000097046,0.571
ENSG00000006712-ENSG00000166477,0.233
ENSG00000007001-ENSG00000007001,0.918
ENSG00000007255-ENSG00000054116,0.828
ENSG00000008018-ENSG00000129084,0.022
ENSG00000008018-ENSG00000159377,0.011
ENSG00000008283-ENSG00000099194,0.022
ENSG00000008283-ENSG00000112038,0.023
ENSG00000008283-ENSG00000147155,0.012
ENSG00000008283-ENSG00000153786,0.014
ENSG00000008283-ENSG00000175514,0.015
ENSG00000008283-ENSG00000197753,0.010
ENSG00000008283-ENSG00000213689,0.011
ENSG00000008283-ENSG00000213937,0.021
ENSG00000012660-ENSG00000100292,0.025
ENSG00000013275-ENSG00000087191,0.400
ENSG00000013275-ENSG00000101843,0.478
ENSG00000013441-ENSG00000176444,0.034
ENSG00000017797-ENSG00000144118,0.020
ENSG00000025708-ENSG00000025708,0.401
ENSG00000030110-ENSG00000171552,0.060
ENSG00000034713-ENSG00000081307,0.009
ENSG00000037757-ENSG00000037757,0.793
ENSG00000038274-ENSG00000168906,0.035
ENSG00000041357-ENSG00000101182,0.579
ENSG00000047230-ENSG00000047230,0.869
ENSG00000048392-ENSG00000048392,0.732
ENSG00000051620-ENSG00000249915,0.016
ENSG00000053371-ENSG00000053371,0.340
ENSG00000054116-ENSG00000170043,0.017
ENSG00000054116-ENSG00000181029,0.547
ENSG00000056558-ENSG00000056558,0.626
ENSG00000057663-ENSG00000205356,0.631
ENSG00000058799-ENSG00000126251,0.021
ENSG00000058799-ENSG00000147155,0.008
ENSG00000058799-ENSG00000153786,0.014
ENSG00000058799-ENSG00000175514,0.022
ENSG00000058799-ENSG00000184113,0.015
ENSG00000058799-ENSG00000185897,0.021
ENSG00000058799-ENSG00000188822,0.010
ENSG00000064199-ENSG00000145491,0.047
ENSG00000064218-ENSG00000130066,0.027
ENSG00000065135-ENSG00000091844,0.613
ENSG00000065427-ENSG00000106305,0.703
ENSG00000065621-ENSG00000065621,0.949
ENSG00000065833-ENSG00000065833,0.069
ENSG00000066136-ENSG00000120837,0.865
ENSG00000066136-ENSG00000184271,0.011
ENSG00000066405-ENSG00000109099,0.027
ENSG00000067560-ENSG00000141522,0.518
ENSG00000067560-ENSG00000175220,0.025
ENSG00000068024-ENSG00000170027,0.017
ENSG00000068976-ENSG00000100504,0.259
ENSG00000068976-ENSG00000100994,0.258
ENSG00000069329-ENSG00000111237,0.727
ENSG00000069329-ENSG00000122958,0.773
ENSG00000069424-ENSG00000069424,0.052
ENSG00000069493-ENSG00000134545,0.406
ENSG00000069493-ENSG00000188393,0.580
ENSG00000069509-ENSG00000140941,0.258
ENSG00000070423-ENSG00000072401,0.612
ENSG00000070423-ENSG00000078967,0.627
ENSG00000070423-ENSG00000109332,0.616
ENSG00000070423-ENSG00000131508,0.604
ENSG00000070423-ENSG00000170035,0.035
ENSG00000070423-ENSG00000182247,0.104
ENSG00000071462-ENSG00000173113,0.842
ENSG00000071539-ENSG00000071539,0.381
ENSG00000071539-ENSG00000116670,0.020
ENSG00000071539-ENSG00000124688,0.597
ENSG00000071967-ENSG00000103496,0.016
ENSG00000072201-ENSG00000072201,0.051
ENSG00000072274-ENSG00000182093,0.009
ENSG00000072401-ENSG00000121481,0.269
ENSG00000072401-ENSG00000186187,0.821
ENSG00000072401-ENSG00000204227,0.709
ENSG00000072832-ENSG00000072832,0.881
ENSG00000072832-ENSG00000092964,0.008
ENSG00000072832-ENSG00000113657,0.008
ENSG00000073111-ENSG00000076003,0.289
ENSG00000073111-ENSG00000111875,0.009
ENSG00000074266-ENSG00000106462,0.417
ENSG00000074266-ENSG00000108799,0.643
ENSG00000075142-ENSG00000075142,0.716
ENSG00000075624-ENSG00000075624,0.031
ENSG00000075624-ENSG00000125868,0.375
ENSG00000075624-ENSG00000184009,0.057
ENSG00000076604-ENSG00000076604,0.066
ENSG00000076685-ENSG00000076685,0.237
ENSG00000076924-ENSG00000084072,0.008
ENSG00000077312-ENSG00000077312,0.019
ENSG00000077312-ENSG00000131876,0.900
ENSG00000077348-ENSG00000120699,0.832
ENSG00000077348-ENSG00000171311,0.017
ENSG00000077380-ENSG00000125971,0.031
ENSG00000077380-ENSG00000146425,0.016
ENSG00000077522-ENSG00000077522,0.102
ENSG00000078140-ENSG00000165188,0.531
ENSG00000078140-ENSG00000204227,0.792
ENSG00000078549-ENSG00000102383,0.008
ENSG00000078967-ENSG00000121481,0.271
ENSG00000078967-ENSG00000186187,0.788
ENSG00000078967-ENSG00000204227,0.769
ENSG00000079150-ENSG00000275663,0.017
ENSG00000079246-ENSG00000196419,0.729
ENSG00000079277-ENSG00000100030,0.823
ENSG00000079387-ENSG00000116030,0.130
ENSG00000079387-ENSG00000188612,0.476
ENSG00000079462-ENSG00000079462,0.848
ENSG00000079462-ENSG00000168092,0.873
ENSG00000080815-ENSG00000205155,0.677
ENSG00000085871-ENSG00000085871,0.315
ENSG00000086159-ENSG00000092068,0.020
ENSG00000086159-ENSG00000096092,0.041
ENSG00000086159-ENSG00000100216,0.014
ENSG00000086159-ENSG00000132432,0.033
ENSG00000086159-ENSG00000165474,0.012
ENSG00000086159-ENSG00000171135,0.014
ENSG00000086159-ENSG00000172057,0.017
ENSG00000086159-ENSG00000240583,0.222
ENSG00000086475-ENSG00000086475,0.825
ENSG00000086475-ENSG00000089775,0.016
ENSG00000086506-ENSG00000130656,0.854
ENSG00000086506-ENSG00000196565,0.845
ENSG00000086506-ENSG00000213931,0.836
ENSG00000086506-ENSG00000223609,0.863
ENSG00000087076-ENSG00000087076,0.017
ENSG00000087086-ENSG00000087086,0.232
ENSG00000087191-ENSG00000100519,0.028
ENSG00000088002-ENSG00000088002,0.008
ENSG00000088002-ENSG00000109193,0.040
ENSG00000088002-ENSG00000196502,0.012
ENSG00000088986-ENSG00000100246,0.863
ENSG00000089775-ENSG00000089775,0.820
ENSG00000091140-ENSG00000110435,0.010
ENSG00000091844-ENSG00000127955,0.619
ENSG00000092010-ENSG00000092010,0.681
ENSG00000092094-ENSG00000196976,0.653
ENSG00000092208-ENSG00000139343,0.018
ENSG00000092208-ENSG00000205571,0.833
ENSG00000092964-ENSG00000092964,0.878
ENSG00000092964-ENSG00000113657,0.008
ENSG00000092964-ENSG00000157851,0.008
ENSG00000094880-ENSG00000094880,0.188
ENSG00000094880-ENSG00000129055,0.177
ENSG00000095059-ENSG00000095059,0.069
ENSG00000095906-ENSG00000151413,0.245
ENSG00000096092-ENSG00000169446,0.030
ENSG00000097033-ENSG00000097033,0.229
ENSG00000097033-ENSG00000197223,0.013
ENSG00000099194-ENSG00000126251,0.013
ENSG00000099194-ENSG00000170509,0.018
ENSG00000099194-ENSG00000175514,0.014
ENSG00000099246-ENSG00000118402,0.010
ENSG00000099256-ENSG00000165704,0.448
ENSG00000099365-ENSG00000147155,0.013
ENSG00000099795-ENSG00000198925,0.010
ENSG00000099956-ENSG00000139613,0.010
ENSG00000100028-ENSG00000170860,0.649
ENSG00000100030-ENSG00000162734,0.029
ENSG00000100053-ENSG00000108255,0.550
ENSG00000100122-ENSG00000108255,0.530
ENSG00000100129-ENSG00000178982,0.287
ENSG00000100206-ENSG00000100206,0.780
ENSG00000100246-ENSG00000100246,0.827
ENSG00000100246-ENSG00000264364,0.870
ENSG00000100266-ENSG00000100266,0.331
ENSG00000100292-ENSG00000118402,0.013
ENSG00000100300-ENSG00000197753,0.015
ENSG00000100387-ENSG00000108094,0.397
ENSG00000100387-ENSG00000130725,0.640
ENSG00000100387-ENSG00000174842,0.036
ENSG00000100504-ENSG00000100994,0.262
ENSG00000100519-ENSG00000100519,0.286
ENSG00000100519-ENSG00000165916,0.432
ENSG00000100522-ENSG00000100522,0.864
ENSG00000100528-ENSG00000112038,0.021
ENSG00000100528-ENSG00000175514,0.024
ENSG00000100528-ENSG00000181885,0.022
ENSG00000100554-ENSG00000128524,0.754
ENSG00000100567-ENSG00000100567,0.350
ENSG00000100567-ENSG00000100902,0.449
ENSG00000100567-ENSG00000129084,0.009
ENSG00000100567-ENSG00000159377,0.444
ENSG00000100603-ENSG00000137168,0.261
ENSG00000100652-ENSG00000103089,0.012
ENSG00000100652-ENSG00000112212,0.013
ENSG00000100652-ENSG00000156738,0.015
ENSG00000100652-ENSG00000164007,0.030
ENSG00000100652-ENSG00000175514,0.009
ENSG00000100721-ENSG00000100721,0.051
ENSG00000100764-ENSG00000175166,0.040
ENSG00000100908-ENSG00000104412,0.647
ENSG00000100911-ENSG00000100911,0.044
ENSG00000100983-ENSG00000100983,0.895
ENSG00000100994-ENSG00000100994,0.270
ENSG00000101132-ENSG00000155959,0.352
ENSG00000101266-ENSG00000101266,0.005
ENSG00000101266-ENSG00000204435,0.700
ENSG00000101444-ENSG00000101444,0.835
ENSG00000101966-ENSG00000101966,0.005
ENSG00000101966-ENSG00000163644,0.021
ENSG00000102048-ENSG00000166165,0.023
ENSG00000102119-ENSG00000175334,0.122
ENSG00000102383-ENSG00000175514,0.014
ENSG00000102383-ENSG00000197753,0.015
ENSG00000102781-ENSG00000119541,0.016
ENSG00000102898-ENSG00000102898,0.627
ENSG00000102931-ENSG00000213465,0.703
ENSG00000103024-ENSG00000239672,0.015
ENSG00000103035-ENSG00000115233,0.548
ENSG00000103089-ENSG00000118402,0.012
ENSG00000103089-ENSG00000147155,0.028
ENSG00000103089-ENSG00000175514,0.013
ENSG00000103202-ENSG00000143156,0.014
ENSG00000103202-ENSG00000239672,0.935
ENSG00000103249-ENSG00000143119,0.017
ENSG00000103249-ENSG00000182093,0.007
ENSG00000103269-ENSG00000189058,0.034
ENSG00000103363-ENSG00000154582,0.538
ENSG00000103485-ENSG00000103485,0.784
ENSG00000103496-ENSG00000175514,0.010
ENSG00000103569-ENSG00000127774,0.016
ENSG00000103569-ENSG00000135517,0.150
ENSG00000103569-ENSG00000164007,0.028
ENSG00000103569-ENSG00000197753,0.030
ENSG00000103769-ENSG00000167306,0.006
ENSG00000104131-ENSG00000104131,0.928
ENSG00000104147-ENSG00000104147,0.669
ENSG00000104147-ENSG00000159055,0.674
ENSG00000104375-ENSG00000151748,0.310
ENSG00000104412-ENSG00000131148,0.736
ENSG00000104522-ENSG00000104522,0.777
ENSG00000104524-ENSG00000104524,0.280
ENSG00000104870-ENSG00000109099,0.026
ENSG00000104879-ENSG00000223572,0.012
ENSG00000105205-ENSG00000105205,0.026
ENSG00000105393-ENSG00000158019,0.372
ENSG00000105618-ENSG00000105618,0.005
ENSG00000105677-ENSG00000113504,0.025
ENSG00000105677-ENSG00000115353,0.022
ENSG00000105701-ENSG00000118402,0.018
ENSG00000105701-ENSG00000147155,0.006
ENSG00000105755-ENSG00000105755,0.770
ENSG00000105810-ENSG00000112576,0.360
ENSG00000105810-ENSG00000123080,0.013
ENSG00000105810-ENSG00000129355,0.372
ENSG00000105810-ENSG00000134480,0.241
ENSG00000106049-ENSG00000165272,0.009
ENSG00000106049-ENSG00000174871,0.011
ENSG00000106144-ENSG00000106144,0.128
ENSG00000106305-ENSG00000115866,0.025
ENSG00000106348-ENSG00000106348,0.520
ENSG00000106348-ENSG00000178035,0.565
ENSG00000106355-ENSG00000130332,0.670
ENSG00000106355-ENSG00000139343,0.661
ENSG00000106355-ENSG00000164167,0.646
ENSG00000106355-ENSG00000170860,0.591
ENSG00000106355-ENSG00000182004,0.045
ENSG00000106588-ENSG00000129084,0.032
ENSG00000107560-ENSG00000107560,0.638
ENSG00000107560-ENSG00000132698,0.113
ENSG00000107643-ENSG00000111266,0.680
ENSG00000107882-ENSG00000111087,0.021
ENSG00000107960-ENSG00000257949,0.655
ENSG00000108187-ENSG00000108187,0.520
ENSG00000108306-ENSG00000113558,0.039
ENSG00000108344-ENSG00000127922,0.258
ENSG00000108349-ENSG00000141543,0.008
ENSG00000108381-ENSG00000108381,0.906
ENSG00000108381-ENSG00000132744,0.792
ENSG00000108578-ENSG00000108578,0.769
ENSG00000109099-ENSG00000112038,0.011
ENSG00000109099-ENSG00000126251,0.045
ENSG00000109099-ENSG00000147155,0.012
ENSG00000109099-ENSG00000166927,0.017
ENSG00000109099-ENSG00000184113,0.018
ENSG00000109099-ENSG00000184697,0.016
ENSG00000109103-ENSG00000213465,0.348
ENSG00000109189-ENSG00000140153,0.665
ENSG00000109270-ENSG00000116586,0.923
ENSG00000109332-ENSG00000121481,0.819
ENSG00000109814-ENSG00000109814,0.898
ENSG00000109846-ENSG00000109846,0.046
ENSG00000110063-ENSG00000110063,0.486
ENSG00000110092-ENSG00000111276,0.880
ENSG00000110092-ENSG00000124762,0.872
ENSG00000110092-ENSG00000135446,0.219
ENSG00000110651-ENSG00000147155,0.024
ENSG00000110651-ENSG00000197753,0.024
ENSG00000110768-ENSG00000153767,0.030
ENSG00000110921-ENSG00000110921,0.946
ENSG00000111196-ENSG00000265241,0.686
ENSG00000111218-ENSG00000111218,0.922
ENSG00000111276-ENSG00000112576,0.604
ENSG00000111276-ENSG00000118971,0.669
ENSG00000111361-ENSG00000111361,0.551
ENSG00000111445-ENSG00000163918,0.402
ENSG00000111605-ENSG00000167005,0.025
ENSG00000111640-ENSG00000111640,0.889
ENSG00000111716-ENSG00000111716,0.322
ENSG00000111716-ENSG00000134333,0.327
ENSG00000111725-ENSG00000162409,0.020
ENSG00000111725-ENSG00000181929,0.593
ENSG00000111843-ENSG00000169446,0.016
ENSG00000112038-ENSG00000113732,0.015
ENSG00000112038-ENSG00000132965,0.021
ENSG00000112038-ENSG00000134873,0.024
ENSG00000112038-ENSG00000156284,0.030
ENSG00000112038-ENSG00000168515,0.101
ENSG00000112038-ENSG00000177300,0.022
ENSG00000112038-ENSG00000185883,0.017
ENSG00000112110-ENSG00000204316,0.687
ENSG00000112130-ENSG00000112130,0.713
ENSG00000112186-ENSG00000112186,0.019
ENSG00000112208-ENSG00000112208,0.017
ENSG00000112212-ENSG00000126251,0.013
ENSG00000112212-ENSG00000147155,0.028
ENSG00000112212-ENSG00000156738,0.018
ENSG00000112212-ENSG00000175514,0.024
ENSG00000112212-ENSG00000188822,0.019
ENSG00000112212-ENSG00000189143,0.018
ENSG00000112212-ENSG00000189280,0.017
ENSG00000112237-ENSG00000112237,0.039
ENSG00000112237-ENSG00000132964,0.458
ENSG00000112237-ENSG00000134086,0.020
ENSG00000112339-ENSG00000152684,0.680
ENSG00000112530-ENSG00000197889,0.017
ENSG00000112576-ENSG00000117266,0.350
ENSG00000112576-ENSG00000124762,0.856
ENSG00000112576-ENSG00000135446,0.103
ENSG00000112576-ENSG00000164885,0.467
ENSG00000112578-ENSG00000135521,0.241
ENSG00000112667-ENSG00000112667,0.869
ENSG00000112699-ENSG00000112699,0.008
ENSG00000113141-ENSG00000122692,0.026
ENSG00000113272-ENSG00000113272,0.022
ENSG00000113356-ENSG00000186141,0.667
ENSG00000113387-ENSG00000113387,0.908
ENSG00000113558-ENSG00000116661,0.786
ENSG00000113558-ENSG00000116663,0.635
ENSG00000113558-ENSG00000132879,0.610
ENSG00000113558-ENSG00000147364,0.041
ENSG00000113558-ENSG00000151876,0.028
ENSG00000113558-ENSG00000153558,0.030
ENSG00000113558-ENSG00000161243,0.387
ENSG00000113558-ENSG00000167196,0.740
ENSG00000113558-ENSG00000171823,0.449
ENSG00000113558-ENSG00000197361,0.766
ENSG00000113558-ENSG00000269190,0.337
ENSG00000113595-ENSG00000113595,0.002
ENSG00000113643-ENSG00000164022,0.295
ENSG00000113657-ENSG00000157851,0.008
ENSG00000113924-ENSG00000113924,0.010
ENSG00000114209-ENSG00000115694,0.793
ENSG00000114209-ENSG00000134602,0.714
ENSG00000114268-ENSG00000158571,0.370
ENSG00000114353-ENSG00000147509,0.621
ENSG00000114395-ENSG00000181885,0.011
ENSG00000115194-ENSG00000118402,0.016
ENSG00000115194-ENSG00000126251,0.019
ENSG00000115194-ENSG00000164756,0.506
ENSG00000115194-ENSG00000170509,0.009
ENSG00000115194-ENSG00000175514,0.055
ENSG00000115211-ENSG00000119718,0.823
ENSG00000115350-ENSG00000120837,0.731
ENSG00000115484-ENSG00000166226,0.502
ENSG00000115946-ENSG00000141101,0.126
ENSG00000116030-ENSG00000126261,0.377
ENSG00000116120-ENSG00000179115,0.833
ENSG00000116649-ENSG00000116649,0.918
ENSG00000116750-ENSG00000130706,0.500
ENSG00000116750-ENSG00000170322,0.103
ENSG00000116761-ENSG00000116761,0.010
ENSG00000116791-ENSG00000116791,0.900
ENSG00000116918-ENSG00000211460,0.785
ENSG00000116954-ENSG00000155876,0.495
ENSG00000117143-ENSG00000117143,0.020
ENSG00000117222-ENSG00000129691,0.056
ENSG00000117308-ENSG00000117308,0.881
ENSG00000117410-ENSG00000142583,0.011
ENSG00000117748-ENSG00000132383,0.869
ENSG00000117751-ENSG00000172531,0.679
ENSG00000118402-ENSG00000164756,0.013
ENSG00000118402-ENSG00000197753,0.015
ENSG00000118971-ENSG00000124762,0.811
ENSG00000118971-ENSG00000135446,0.281
ENSG00000118971-ENSG00000164885,0.389
ENSG00000119929-ENSG00000119929,0.668
ENSG00000120437-ENSG00000120437,0.944
ENSG00000120699-ENSG00000120699,0.654
ENSG00000121481-ENSG00000168283,0.918
ENSG00000121481-ENSG00000185619,0.602
ENSG00000121481-ENSG00000277258,0.818
ENSG00000123080-ENSG00000135446,0.023
ENSG00000123136-ENSG00000123136,0.017
ENSG00000123136-ENSG00000198563,0.018
ENSG00000123349-ENSG00000143256,0.021
ENSG00000123349-ENSG00000155959,0.583
ENSG00000123395-ENSG00000175224,0.731
ENSG00000123505-ENSG00000123505,0.819
ENSG00000123992-ENSG00000123992,0.008
ENSG00000124357-ENSG00000124357,0.414
ENSG00000124688-ENSG00000164109,0.669
ENSG00000124713-ENSG00000124713,0.123
ENSG00000124762-ENSG00000132646,0.615
ENSG00000125255-ENSG00000205155,0.012
ENSG00000125354-ENSG00000168385,0.007
ENSG00000125458-ENSG00000125458,0.956
ENSG00000125743-ENSG00000139343,0.019
ENSG00000125775-ENSG00000125775,0.104
ENSG00000125835-ENSG00000204392,0.000
ENSG00000125868-ENSG00000184009,0.421
ENSG00000125877-ENSG00000125877,0.738
ENSG00000125888-ENSG00000125888,0.851
ENSG00000125888-ENSG00000175334,0.917
ENSG00000126251-ENSG00000156738,0.015
ENSG00000126251-ENSG00000164756,0.023
ENSG00000126251-ENSG00000181092,0.011
ENSG00000126251-ENSG00000185883,0.016
ENSG00000126251-ENSG00000186009,0.010
ENSG00000126251-ENSG00000197753,0.012
ENSG00000126251-ENSG00000213316,0.015
ENSG00000126261-ENSG00000142230,0.507
ENSG00000126457-ENSG00000126457,0.471
ENSG00000126522-ENSG00000126522,0.784
ENSG00000126749-ENSG00000126749,0.796
ENSG00000127125-ENSG00000127125,0.817
ENSG00000127526-ENSG00000132446,0.010
ENSG00000127774-ENSG00000147155,0.027
ENSG00000127774-ENSG00000169446,0.873
ENSG00000128050-ENSG00000128050,0.896
ENSG00000128266-ENSG00000128266,0.096
ENSG00000128609-ENSG00000213619,0.633
ENSG00000129151-ENSG00000129151,0.861
ENSG00000129187-ENSG00000129187,0.914
ENSG00000129355-ENSG00000135446,0.445
ENSG00000129691-ENSG00000162961,0.019
ENSG00000130038-ENSG00000171453,0.006
ENSG00000130066-ENSG00000130066,0.803
ENSG00000130066-ENSG00000141504,0.439
ENSG00000130177-ENSG00000176386,0.657
ENSG00000130332-ENSG00000130520,0.620
ENSG00000130332-ENSG00000139343,0.580
ENSG00000130332-ENSG00000170860,0.520
ENSG00000130332-ENSG00000204392,0.704
ENSG00000130511-ENSG00000198728,0.769
ENSG00000130540-ENSG00000130540,0.011
ENSG00000130656-ENSG00000206177,0.754
ENSG00000130656-ENSG00000213931,0.920
ENSG00000130656-ENSG00000223609,0.110
ENSG00000130656-ENSG00000244734,0.325
ENSG00000130707-ENSG00000130707,0.903
ENSG00000130957-ENSG00000130957,0.523
ENSG00000130957-ENSG00000165140,0.342
ENSG00000131153-ENSG00000147536,0.799
ENSG00000131165-ENSG00000158411,0.581
ENSG00000131475-ENSG00000136100,0.638
ENSG00000131475-ENSG00000159210,0.649
ENSG00000131508-ENSG00000167770,0.025
ENSG00000131508-ENSG00000186187,0.830
ENSG00000131508-ENSG00000204227,0.013
ENSG00000131791-ENSG00000132356,0.019
ENSG00000131791-ENSG00000162409,0.035
ENSG00000131791-ENSG00000181929,0.309
ENSG00000131981-ENSG00000131981,0.040
ENSG00000132109-ENSG00000132109,0.002
ENSG00000132254-ENSG00000132254,0.004
ENSG00000132356-ENSG00000181929,0.011
ENSG00000132541-ENSG00000132541,0.759
ENSG00000132646-ENSG00000132646,0.025
ENSG00000132646-ENSG00000166803,0.223
ENSG00000132661-ENSG00000162231,0.613
ENSG00000132744-ENSG00000132744,0.889
ENSG00000133119-ENSG00000163918,0.768
ENSG00000133318-ENSG00000133318,0.005
ENSG00000133466-ENSG00000173918,0.225
ENSG00000133639-ENSG00000155508,0.511
ENSG00000133731-ENSG00000133731,0.594
ENSG00000133731-ENSG00000141401,0.642
ENSG00000134108-ENSG00000164756,0.016
ENSG00000134202-ENSG00000134202,0.057
ENSG00000134202-ENSG00000168765,0.337
ENSG00000134330-ENSG00000134330,0.033
ENSG00000134504-ENSG00000134504,0.323
ENSG00000134545-ENSG00000139187,0.358
ENSG00000135069-ENSG00000135069,0.651
ENSG00000135250-ENSG00000135250,0.016
ENSG00000135250-ENSG00000176444,0.028
ENSG00000135363-ENSG00000135363,0.011
ENSG00000135363-ENSG00000198728,0.179
ENSG00000135517-ENSG00000143198,0.026
ENSG00000135517-ENSG00000184113,0.011
ENSG00000135517-ENSG00000189280,0.024
ENSG00000135517-ENSG00000197753,0.031
ENSG00000135821-ENSG00000135821,0.761
ENSG00000135838-ENSG00000135838,0.264
ENSG00000136100-ENSG00000159210,0.577
ENSG00000136273-ENSG00000172613,0.554
ENSG00000136436-ENSG00000197769,0.009
ENSG00000136463-ENSG00000157884,0.043
ENSG00000136810-ENSG00000265972,0.015
ENSG00000136936-ENSG00000171453,0.012
ENSG00000136950-ENSG00000241553,0.319
ENSG00000137101-ENSG00000197753,0.017
ENSG00000137198-ENSG00000137198,0.695
ENSG00000137575-ENSG00000137575,0.698
ENSG00000137875-ENSG00000153094,0.043
ENSG00000138175-ENSG00000156973,0.249
ENSG00000138382-ENSG00000173113,0.564
ENSG00000138443-ENSG00000138443,0.020
ENSG00000138621-ENSG00000138621,0.872
ENSG00000138663-ENSG00000168090,0.384
ENSG00000138750-ENSG00000139496,0.493
ENSG00000138750-ENSG00000213024,0.255
ENSG00000138794-ENSG00000138794,0.452
ENSG00000138814-ENSG00000221823,0.374
ENSG00000139112-ENSG00000168397,0.626
ENSG00000139163-ENSG00000164615,0.013
ENSG00000139343-ENSG00000170860,0.788
ENSG00000139343-ENSG00000182004,0.797
ENSG00000139410-ENSG00000139410,0.860
ENSG00000139496-ENSG00000213024,0.537
ENSG00000139684-ENSG00000139684,0.890
ENSG00000140153-ENSG00000152484,0.537
ENSG00000140263-ENSG00000140263,0.363
ENSG00000140307-ENSG00000165417,0.746
ENSG00000140365-ENSG00000169019,0.537
ENSG00000140406-ENSG00000140406,0.678
ENSG00000140519-ENSG00000186897,0.016
ENSG00000141030-ENSG00000198612,0.633
ENSG00000141127-ENSG00000141127,0.849
ENSG00000141401-ENSG00000141401,0.648
ENSG00000141504-ENSG00000141504,0.657
ENSG00000142252-ENSG00000152147,0.822
ENSG00000142619-ENSG00000142619,0.026
ENSG00000143119-ENSG00000143119,0.005
ENSG00000143119-ENSG00000182093,0.007
ENSG00000143179-ENSG00000143179,0.600
ENSG00000143198-ENSG00000143198,0.105
ENSG00000143198-ENSG00000158457,0.020
ENSG00000143198-ENSG00000175514,0.020
ENSG00000143256-ENSG00000155959,0.210
ENSG00000143514-ENSG00000172531,0.007
ENSG00000143595-ENSG00000175514,0.019
ENSG00000143947-ENSG00000179262,0.015
ENSG00000143977-ENSG00000182004,0.794
ENSG00000144034-ENSG00000172315,0.877
ENSG00000144744-ENSG00000144744,0.399
ENSG00000144744-ENSG00000159593,0.282
ENSG00000144848-ENSG00000145782,0.910
ENSG00000145248-ENSG00000176087,0.016
ENSG00000145675-ENSG00000171608,0.284
ENSG00000145685-ENSG00000175514,0.041
ENSG00000145687-ENSG00000198728,0.749
ENSG00000145692-ENSG00000145692,0.522
ENSG00000145781-ENSG00000170619,0.580
ENSG00000146143-ENSG00000198056,0.659
ENSG00000146281-ENSG00000146281,0.010
ENSG00000146733-ENSG00000146733,0.846
ENSG00000147155-ENSG00000147155,0.932
ENSG00000147155-ENSG00000170509,0.010
ENSG00000147155-ENSG00000175514,0.012
ENSG00000147155-ENSG00000205808,0.015
ENSG00000147155-ENSG00000213316,0.025
ENSG00000147155-ENSG00000213689,0.035
ENSG00000147224-ENSG00000147224,0.033
ENSG00000147689-ENSG00000147689,0.366
ENSG00000147894-ENSG00000176994,0.500
ENSG00000148346-ENSG00000148346,0.024
ENSG00000148688-ENSG00000163684,0.467
ENSG00000148688-ENSG00000167272,0.654
ENSG00000149089-ENSG00000149089,0.631
ENSG00000149100-ENSG00000175390,0.514
ENSG00000149532-ENSG00000167005,0.878
ENSG00000149925-ENSG00000149925,0.008
ENSG00000150787-ENSG00000150787,0.013
ENSG00000151224-ENSG00000151224,0.613
ENSG00000151224-ENSG00000168906,0.656
ENSG00000151552-ENSG00000151552,0.374
ENSG00000151790-ENSG00000151790,0.894
ENSG00000152556-ENSG00000152556,0.014
ENSG00000152904-ENSG00000152904,0.659
ENSG00000153094-ENSG00000171552,0.020
ENSG00000153140-ENSG00000159173,0.012
ENSG00000153574-ENSG00000153574,0.698
ENSG00000153767-ENSG00000197265,0.312
ENSG00000155189-ENSG00000162144,0.010
ENSG00000155508-ENSG00000159388,0.507
ENSG00000155508-ENSG00000183864,0.523
ENSG00000156298-ENSG00000175514,0.021
ENSG00000156298-ENSG00000197753,0.062
ENSG00000156738-ENSG00000168685,0.007
ENSG00000156738-ENSG00000170509,0.013
ENSG00000156738-ENSG00000188167,0.031
ENSG00000156738-ENSG00000198189,0.012
ENSG00000156973-ENSG00000185305,0.632
ENSG00000156973-ENSG00000213465,0.482
ENSG00000156973-ENSG00000214087,0.050
ENSG00000157131-ENSG00000169446,0.020
ENSG00000157216-ENSG00000198728,0.765
ENSG00000157601-ENSG00000157601,0.002
ENSG00000157884-ENSG00000213588,0.020
ENSG00000158411-ENSG00000158411,0.646
ENSG00000158457-ENSG00000164626,0.007
ENSG00000158457-ENSG00000175514,0.016
ENSG00000158457-ENSG00000181885,0.026
ENSG00000158457-ENSG00000197753,0.013
ENSG00000158571-ENSG00000158571,0.179
ENSG00000158825-ENSG00000158825,0.955
ENSG00000159055-ENSG00000159055,0.701
ENSG00000159173-ENSG00000167791,0.016
ENSG00000159173-ENSG00000171453,0.013
ENSG00000159388-ENSG00000198791,0.397
ENSG00000160062-ENSG00000160062,0.673
ENSG00000160191-ENSG00000160191,0.008
ENSG00000160200-ENSG00000160200,0.185
ENSG00000160200-ENSG00000181929,0.012
ENSG00000160202-ENSG00000160202,0.161
ENSG00000160307-ENSG00000160307,0.782
ENSG00000160307-ENSG00000160678,0.265
ENSG00000160678-ENSG00000160678,0.254
ENSG00000160783-ENSG00000167842,0.500
ENSG00000161057-ENSG00000175166,0.015
ENSG00000161944-ENSG00000187912,0.022
ENSG00000162144-ENSG00000175514,0.006
ENSG00000162144-ENSG00000181885,0.026
ENSG00000162144-ENSG00000184113,0.022
ENSG00000162385-ENSG00000265241,0.658
ENSG00000162409-ENSG00000181929,0.010
ENSG00000162482-ENSG00000162482,0.049
ENSG00000162517-ENSG00000162517,0.212
ENSG00000162521-ENSG00000182979,0.243
ENSG00000162961-ENSG00000162961,0.421
ENSG00000163041-ENSG00000204209,0.015
ENSG00000163156-ENSG00000198081,0.009
ENSG00000163217-ENSG00000181885,0.008
ENSG00000163806-ENSG00000164885,0.332
ENSG00000163904-ENSG00000188612,0.233
ENSG00000163993-ENSG00000171643,0.324
ENSG00000164039-ENSG00000164039,0.940
ENSG00000164134-ENSG00000242028,0.632
ENSG00000164167-ENSG00000170860,0.666
ENSG00000164414-ENSG00000197753,0.019
ENSG00000164615-ENSG00000182093,0.328
ENSG00000164615-ENSG00000198356,0.038
ENSG00000164626-ENSG00000197753,0.015
ENSG00000164708-ENSG00000164708,0.677
ENSG00000164708-ENSG00000172331,0.775
ENSG00000164756-ENSG00000184697,0.020
ENSG00000164756-ENSG00000198189,0.009
ENSG00000164885-ENSG00000183318,0.355
ENSG00000164904-ENSG00000164904,0.032
ENSG00000164967-ENSG00000172336,0.684
ENSG00000165092-ENSG00000165092,0.858
ENSG00000165140-ENSG00000165140,0.298
ENSG00000165169-ENSG00000165169,0.690
ENSG00000165272-ENSG00000165272,0.048
ENSG00000165272-ENSG00000175514,0.023
ENSG00000165272-ENSG00000278619,0.017
ENSG00000165280-ENSG00000165280,0.152
ENSG00000165280-ENSG00000169696,0.006
ENSG00000165389-ENSG00000182093,0.017
ENSG00000165609-ENSG00000165609,0.572
ENSG00000165704-ENSG00000165704,0.014
ENSG00000165916-ENSG00000165916,0.295
ENSG00000166200-ENSG00000169727,0.340
ENSG00000166228-ENSG00000166228,0.786
ENSG00000166797-ENSG00000205808,0.014
ENSG00000167005-ENSG00000167005,0.678
ENSG00000167325-ENSG00000167325,0.827
ENSG00000167580-ENSG00000197753,0.014
ENSG00000167580-ENSG00000278619,0.031
ENSG00000167720-ENSG00000167720,0.678
ENSG00000167791-ENSG00000182117,0.014
ENSG00000167996-ENSG00000167996,0.336
ENSG00000168283-ENSG00000204227,0.485
ENSG00000168522-ENSG00000257365,0.887
ENSG00000168710-ENSG00000168710,0.594
ENSG00000168906-ENSG00000168906,0.757
ENSG00000169016-ENSG00000198176,0.271
ENSG00000169446-ENSG00000214253,0.011
ENSG00000169738-ENSG00000169738,0.938
ENSG00000169764-ENSG00000169764,0.044
ENSG00000170270-ENSG00000196976,0.798
ENSG00000170312-ENSG00000173207,0.731
ENSG00000170509-ENSG00000185883,0.013
ENSG00000170509-ENSG00000189143,0.012
ENSG00000170689-ENSG00000171453,0.022
ENSG00000170854-ENSG00000170854,0.500
ENSG00000170860-ENSG00000175324,0.026
ENSG00000170860-ENSG00000181817,0.483
ENSG00000170860-ENSG00000204392,0.763
ENSG00000170899-ENSG00000170899,0.921
ENSG00000171135-ENSG00000188820,0.015
ENSG00000171174-ENSG00000171174,0.906
ENSG00000171222-ENSG00000172466,0.655
ENSG00000171222-ENSG00000196812,0.634
ENSG00000171448-ENSG00000171448,0.641
ENSG00000171448-ENSG00000177125,0.665
ENSG00000171448-ENSG00000186130,0.636
ENSG00000171448-ENSG00000204366,0.650
ENSG00000171448-ENSG00000213588,0.645
ENSG00000171643-ENSG00000188015,0.425
ENSG00000171643-ENSG00000197747,0.326
ENSG00000171793-ENSG00000171793,0.714
ENSG00000172057-ENSG00000182093,0.023
ENSG00000172336-ENSG00000178718,0.495
ENSG00000172466-ENSG00000172466,0.893
ENSG00000172466-ENSG00000196812,0.743
ENSG00000172482-ENSG00000172482,0.851
ENSG00000173207-ENSG00000173207,0.024
ENSG00000173465-ENSG00000173465,0.015
ENSG00000173614-ENSG00000173614,0.888
ENSG00000174547-ENSG00000183617,0.807
ENSG00000175029-ENSG00000175029,0.822
ENSG00000175309-ENSG00000175309,0.497
ENSG00000175324-ENSG00000204392,0.091
ENSG00000175390-ENSG00000175390,0.045
ENSG00000175514-ENSG00000175514,0.012
ENSG00000175514-ENSG00000176087,0.036
ENSG00000175514-ENSG00000185883,0.011
ENSG00000175514-ENSG00000197753,0.059
ENSG00000175514-ENSG00000213316,0.020
ENSG00000175792-ENSG00000183207,0.148
ENSG00000175793-ENSG00000175793,0.015
ENSG00000176410-ENSG00000183166,0.015
ENSG00000176974-ENSG00000176974,0.848
ENSG00000177300-ENSG00000197753,0.021
ENSG00000178035-ENSG00000178035,0.891
ENSG00000179262-ENSG00000221983,0.036
ENSG00000179958-ENSG00000179958,0.737
ENSG00000180628-ENSG00000204227,0.826
ENSG00000181092-ENSG00000213937,0.021
ENSG00000181754-ENSG00000205808,0.010
ENSG00000182093-ENSG00000240583,0.015
ENSG00000183828-ENSG00000183828,0.748
ENSG00000183864-ENSG00000198791,0.400
ENSG00000184009-ENSG00000184009,0.009
ENSG00000184113-ENSG00000197753,0.043
ENSG00000184979-ENSG00000187608,0.610
ENSG00000185619-ENSG00000204227,0.627
ENSG00000185787-ENSG00000185787,0.015
ENSG00000185897-ENSG00000213316,0.030
ENSG00000187912-ENSG00000187912,0.024
ENSG00000188015-ENSG00000196754,0.507
ENSG00000188015-ENSG00000197747,0.441
ENSG00000188643-ENSG00000189334,0.425
ENSG00000188910-ENSG00000197753,0.018
ENSG00000189171-ENSG00000189171,0.484
ENSG00000189171-ENSG00000189334,0.436
ENSG00000189241-ENSG00000189241,0.317
ENSG00000189241-ENSG00000213588,0.011
ENSG00000189280-ENSG00000205808,0.016
ENSG00000189283-ENSG00000189283,0.930
ENSG00000189433-ENSG00000197753,0.020
ENSG00000196470-ENSG00000196470,0.871
ENSG00000196482-ENSG00000196482,0.822
ENSG00000196511-ENSG00000196511,0.778
ENSG00000196565-ENSG00000206177,0.808
ENSG00000196754-ENSG00000196754,0.289
ENSG00000197448-ENSG00000197448,0.963
ENSG00000197713-ENSG00000197713,0.896
ENSG00000198563-ENSG00000198563,0.016
ENSG00000198650-ENSG00000198650,0.908
ENSG00000198805-ENSG00000198805,0.815
ENSG00000204227-ENSG00000277258,0.648
ENSG00000205808-ENSG00000213937,0.026
ENSG00000211460-ENSG00000211460,0.721
ENSG00000213588-ENSG00000213588,0.667
ENSG00000213780-ENSG00000272047,0.520
ENSG00000239282-ENSG00000239282,0.932
ENSG00000239672-ENSG00000239672,0.876
ENSG00000240583-ENSG00000240583,0.680
ENSG00000240972-ENSG00000240972,0.378
ENSG00000249915-ENSG00000249915,0.386
