Name,File,PDB,Chain1,Chain2,ModelType
ENSG00000008283-ENSG00000099194,mmf1094666_O00767_4zyo_A_P49447_5zlg_A.pdb,4zyo,A,A
ENSG00000008283-ENSG00000112038,mmf1094644_P35372_5ndz_A_P49447_5zlg_A.pdb,5ndz,A,A
ENSG00000008283-ENSG00000147155,mmf1094679_P49447_5zlg_A_Q15125_6ohu_C.pdb,5zlg,A,C
ENSG00000008283-ENSG00000153786,mmf1094670_Q9NXF8_6bms_A_P49447_5zlg_A.pdb,6bms,A,A
ENSG00000008283-ENSG00000175514,mmf1094646_Q8TDT2_5ndz_A_P49447_5zlg_A.pdb,5ndz,A,A
ENSG00000008283-ENSG00000197753,mmf1094682_P49447_5zlg_A_Q8TAF8_6c14_B.pdb,5zlg,A,B
ENSG00000008283-ENSG00000213689,mmf1094658_Q9NSU2_1y97_a_P49447_5zlg_A.pdb,1y97,a,A
ENSG00000008283-ENSG00000213937,mmf1094639_P49447_5zlg_A_O95484_6ov2_A.pdb,5zlg,A,A
ENSG00000012660-ENSG00000100292,mmf1099817_Q9NYP7_6y7f_B_P09601_1n45_a.pdb,6y7f,B,a
ENSG00000013441-ENSG00000176444,fpp1286941_P49760_6FYL_A_P49759_6YTD_A.pdb,6FYL,A,A
ENSG00000054116-ENSG00000170043,mmf1354378_O43617_2cfh_A_Q9Y5R8_2j3t_C.pdb,2cfh,A,C
ENSG00000054116-ENSG00000181029,mmf1354373_Q8IUR0_2j3w_b_O43617_2cfh_A.pdb,2j3w,b,A
ENSG00000056558-ENSG00000056558,mmf1022027_Q13077_5e1t_A_Q13077_5e1t_A.pdb,5e1t,A,A
ENSG00000058799-ENSG00000126251,mmf1559032_O15529_5ndz_A_Q9Y548_5zbh_A.pdb,5ndz,A,A
ENSG00000058799-ENSG00000147155,mmf934543_Q15125_6ohu_C_Q9Y548_5zbh_A.pdb,6ohu,C,A
ENSG00000058799-ENSG00000153786,mmf934539_Q9NXF8_6bms_A_Q9Y548_5zbh_A.pdb,6bms,A,A
ENSG00000058799-ENSG00000175514,mmf934526_Q8TDT2_5ndz_A_Q9Y548_5zbh_A.pdb,5ndz,A,A
ENSG00000058799-ENSG00000184113,mmf934535_O00501_5b2g_G_Q9Y548_5zbh_A.pdb,5b2g,G,A
ENSG00000058799-ENSG00000185897,mmf934525_O14843_5ndz_A_Q9Y548_5zbh_A.pdb,5ndz,A,A
ENSG00000058799-ENSG00000188822,mmf934528_P34972_5zty_A_Q9Y548_5zbh_A.pdb,5zty,A,A
ENSG00000064199-ENSG00000145491,mmf1330804_Q96C74_7jtk_V_Q15506_7jtk_V.pdb,7jtk,V,V
ENSG00000064218-ENSG00000130066,mmf978884_P21673_2b5g_a_Q9NQL9_4yj0_C.pdb,2b5g,a,C
ENSG00000065135-ENSG00000091844,mmf1138097_P08754_3v00_C_Q9UGC6_1zv4_X.pdb,3v00,C,X
ENSG00000066136-ENSG00000120837,mmf1388548_P25208_1n1j_a_Q13952_1n1j_b.pdb,1n1j,a,b
ENSG00000066136-ENSG00000184271,mmf1367185_Q14863_3d1n_K_Q13952_1n1j_b.pdb,3d1n,K,b
ENSG00000066405-ENSG00000109099,mmf1370896_P56856_5b2g_G_Q01453_4p79_A.pdb,5b2g,G,A
ENSG00000068976-ENSG00000100504,fpp1354210_P06737_1FA9_A_P11217_1Z8D_A.pdb,1FA9,A,A
ENSG00000068976-ENSG00000100994,fpp1354211_P11217_1Z8D_A_P11216_5IKO_A.pdb,1Z8D,A,A
ENSG00000069493-ENSG00000134545,mmf1165803_Q9UHP7_4qkh_B_P26715_3bdw_D.pdb,4qkh,B,D
ENSG00000069493-ENSG00000188393,mmf1165832_Q9UHP7_4qkh_B_Q6UVW9_4iop_A.pdb,4qkh,B,A
ENSG00000070423-ENSG00000072401,mmf983622_P51668_4ddi_B_Q9BV68_6w9a_D.pdb,4ddi,B,D
ENSG00000070423-ENSG00000078967,mmf951069_Q9Y2X8_4ddi_B_Q9BV68_6w9a_D.pdb,4ddi,B,D
ENSG00000070423-ENSG00000109332,mmf983495_P61077_4r8p_L_Q9BV68_6w9a_D.pdb,4r8p,L,D
ENSG00000070423-ENSG00000131508,mmf983324_P62837_2esk_a_Q9BV68_6w9a_D.pdb,2esk,a,D
ENSG00000070423-ENSG00000170035,mmf951115_Q969T4_4ddi_B_Q9BV68_6w9a_D.pdb,4ddi,B,D
ENSG00000070423-ENSG00000182247,mmf951118_Q96LR5_1y6l_a_Q9BV68_6w9a_D.pdb,1y6l,a,D
ENSG00000071967-ENSG00000103496,mmf1284064_Q53TN4_5zlg_A_Q12846_1dn1_b.pdb,5zlg,A,b
ENSG00000072201-ENSG00000072201,c1231912_Q8TBB1_5H7S_D_1_Q8TBB1_5H7S_B_1.pdb,5H7S,D,B
ENSG00000072274-ENSG00000182093,fpp1215503_P02786_1CX8_A_O00258_6SO5_C.pdb,1CX8,A,C
ENSG00000072401-ENSG00000121481,mmf983704_P51668_4ddi_B_Q99496_4r8p_L.pdb,4ddi,B,L
ENSG00000072401-ENSG00000186187,mmf983671_P51668_4ddi_B_Q8ND25_5ywr_B.pdb,4ddi,B,B
ENSG00000072401-ENSG00000204227,mmf983724_P51668_4ddi_B_Q06587_4r8p_L.pdb,4ddi,B,L
ENSG00000072832-ENSG00000092964,fpp1377157_Q16555_5X1C_A_Q14194_4B3Z_A.pdb,5X1C,A,A
ENSG00000072832-ENSG00000113657,fpp1377158_Q14195_4CNS_A_Q14194_4B3Z_A.pdb,4CNS,A,A
ENSG00000075624-ENSG00000125868,mmf1049437_P60709_6ltj_J_P60981_2xfa_A.pdb,6ltj,J,A
ENSG00000075624-ENSG00000184009,mmf1049454_P63261_1o1f_4_P60709_6ltj_J.pdb,1o1f,4,J
ENSG00000076604-ENSG00000076604,mmf1244877_Q9BUZ4_4m4e_B_Q9BUZ4_4m4e_B.pdb,4m4e,B,B
ENSG00000077312-ENSG00000077312,fpp1039319_P09012_3BO2_A_P09012_3BO2_A.pdb,3BO2,A,A
ENSG00000077312-ENSG00000131876,fpp1039360_P09661_5Z57_o_P09012_3BO2_A.pdb,5Z57,o,A
ENSG00000077348-ENSG00000171311,mmf1088577_Q9NQT4_2nn6_B_Q9Y3B2_2nn6_I.pdb,2nn6,B,I
ENSG00000078140-ENSG00000165188,mmf991525_P61086_3e46_A_Q96D59_4txa_A.pdb,3e46,A,A
ENSG00000078140-ENSG00000204227,mmf991587_P61086_3e46_A_Q06587_4r8p_L.pdb,3e46,A,L
ENSG00000078549-ENSG00000102383,mmf976353_Q96MV8_6bmn_A_P41586_6p9y_R.pdb,6bmn,A,R
ENSG00000078967-ENSG00000121481,mmf983794_Q9Y2X8_4ddi_B_Q99496_4r8p_L.pdb,4ddi,B,L
ENSG00000078967-ENSG00000186187,mmf983773_Q9Y2X8_4ddi_B_Q8ND25_5ywr_B.pdb,4ddi,B,B
ENSG00000078967-ENSG00000204227,mmf983805_Q9Y2X8_4ddi_B_Q06587_4r8p_L.pdb,4ddi,B,L
ENSG00000079150-ENSG00000275663,mmf1250664_Q9Y680_4msp_B_Q99525_1kx5_b.pdb,4msp,B,b
ENSG00000079462-ENSG00000079462,mmf1321195_Q15102_1es9_a_Q15102_1es9_a.pdb,1es9,a,a
ENSG00000079462-ENSG00000168092,mmf1348632_P68402_1fxw_f_Q15102_1es9_a.pdb,1fxw,f,a
ENSG00000085871-ENSG00000085871,mmf972955_Q99735_3pcv_A_Q99735_3pcv_A.pdb,3pcv,A,A
ENSG00000086159-ENSG00000092068,fpp1048483_Q9UHI5_7CMI_B_Q13520_1S6E_A.pdb,7CMI,B,A
ENSG00000086159-ENSG00000096092,fpp1048465_Q13520_1S6E_A_Q9Y6G1_2LOP_A.pdb,1S6E,A,A
ENSG00000086159-ENSG00000100216,fpp1048387_Q13520_1S6E_A_Q9NS69_7CK6_C.pdb,1S6E,A,C
ENSG00000086159-ENSG00000132432,fpp1048470_Q13520_1S6E_A_P60059_6W6L_2.pdb,1S6E,A,2
ENSG00000086159-ENSG00000165474,fpp1048478_P29033_1XIR_A_Q13520_1S6E_A.pdb,1XIR,A,A
ENSG00000086159-ENSG00000171135,fpp1048444_Q8N5M9_6WVD_A_Q13520_1S6E_A.pdb,6WVD,A,A
ENSG00000086159-ENSG00000172057,fpp1048577_Q13520_1S6E_A_Q8N138_7K0P_D.pdb,1S6E,A,D
ENSG00000086159-ENSG00000240583,fpp1048440_P29972_6POJ_A_Q13520_1S6E_A.pdb,6POJ,A,A
ENSG00000086475-ENSG00000089775,mmf1073746_P49903_3fd5_B_P24278_2vpk_A.pdb,3fd5,B,A
ENSG00000086506-ENSG00000130656,mmf986593_P09105_1o1n_A_P02008_1jeb_a.pdb,1o1n,A,a
ENSG00000086506-ENSG00000196565,mmf986591_P69892_1i3d_a_P09105_1o1n_A.pdb,1i3d,a,A
ENSG00000086506-ENSG00000206172,mmf986597_P69905_1o1n_A_P09105_1o1n_A.pdb,1o1n,A,A
ENSG00000086506-ENSG00000213931,mmf986595_P02100_1a9w_e_P09105_1o1n_A.pdb,1a9w,e,A
ENSG00000086506-ENSG00000223609,mmf1406055_P02042_1shr_b_P09105_1o1n_A.pdb,1shr,b,A
ENSG00000087076-ENSG00000087076,c1028139_Q9BPX1_6EMM_A_2_Q9BPX1_6EMM_A_3.pdb,6EMM,A,A,
ENSG00000087086-ENSG00000087086,c1363019_P02792_2FG4_A_4_P02792_2FG4_A_19.pdb,2FG4,A,A,
ENSG00000087191-ENSG00000100519,mmf982182_P62333_5gjq_L_P62195_5gjq_L.pdb,5gjq,L,L
ENSG00000088002-ENSG00000088002,fpp1054959_O00204_1Q20_A_O00204_1Q20_A.pdb,1Q20,A,A
ENSG00000088002-ENSG00000109193,mmf1234835_P49888_1g3m_a_O00204_1q1q_A.pdb,1g3m,a,A
ENSG00000088002-ENSG00000196502,mmf1054960_P50225_3u3o_A_O00204_1q1q_A.pdb,3u3o,A,A
ENSG00000088986-ENSG00000100246,mmf1044895_O96015_4ds1_C_P63167_1cmi_a.pdb,4ds1,C,a
ENSG00000089775-ENSG00000089775,mmf1073735_P24278_2vpk_A_P24278_2vpk_A.pdb,2vpk,A,A
ENSG00000091844-ENSG00000127955,mmf1138135_P63096_3v00_C_Q9UGC6_1zv4_X.pdb,3v00,C,X
ENSG00000092964-ENSG00000113657,fpp1377143_Q16555_5X1C_A_Q14195_4CNS_A.pdb,5X1C,A,A
ENSG00000092964-ENSG00000157851,fpp1377129_Q16555_5X1C_A_Q9BPU6_4B92_A.pdb,5X1C,A,A
ENSG00000095906-ENSG00000151413,mmf1078907_Q9Y5Y2_6g2g_A_Q8TB37_6g2g_A.pdb,6g2g,A,A
ENSG00000096092-ENSG00000169446,fpp1060051_Q8N4V1_6WW7_E_Q9Y6G1_2LOP_A.pdb,6WW7,E,A
ENSG00000097033-ENSG00000197223,mmf1225810_Q9Y371_6upn_F_Q13901_4wfc_B.pdb,6upn,F,B
ENSG00000099194-ENSG00000126251,mmf1458220_O00767_4zyo_A_O15529_5ndz_A.pdb,4zyo,A,A
ENSG00000099194-ENSG00000170509,mmf1237567_O00767_4zyo_A_Q7Z5P4_1xu9_a.pdb,4zyo,A,a
ENSG00000099194-ENSG00000175514,mmf1237557_O00767_4zyo_A_Q8TDT2_5ndz_A.pdb,4zyo,A,A
ENSG00000099246-ENSG00000118402,mmf1051737_Q9GZR5_6y7f_B_Q9NP72_1x3s_a.pdb,6y7f,B,a
ENSG00000099256-ENSG00000165704,mmf1032082_Q9NRG1_2jbh_A_P00492_1z7g_a.pdb,2jbh,A,a
ENSG00000099365-ENSG00000147155,mmf1178791_P61266_1dn1_b_Q15125_6ohu_C.pdb,1dn1,b,C
ENSG00000099795-ENSG00000198925,fpp1135527_Q7Z3C6_7JLP_A_P17568_5XTI_Bv.pdb,7JLP,A,B
ENSG00000100028-ENSG00000170860,mmf940486_P62310_3jcr_3_P62318_3jcr_4.pdb,3jcr,3,4
ENSG00000100053-ENSG00000108255,mmf1124321_P05813_3lwk_A_P26998_3qk3_A.pdb,3lwk,A,A
ENSG00000100122-ENSG00000108255,mmf1124332_P05813_3lwk_A_P53674_1oki_B.pdb,3lwk,A,B
ENSG00000100246-ENSG00000100246,mmf1142753_O96015_4ds1_C_O96015_4ds1_C.pdb,4ds1,C,C
ENSG00000100246-ENSG00000264364,mmf1142756_O96015_4ds1_C_Q96FJ2_3e2b_a.pdb,4ds1,C,a
ENSG00000100292-ENSG00000118402,mmf1117577_Q9GZR5_6y7f_B_P09601_1n45_a.pdb,6y7f,B,a
ENSG00000100300-ENSG00000197753,mmf996704_P30536_2mgy_A_Q8TAF8_6c14_B.pdb,2mgy,A,B
ENSG00000100504-ENSG00000100994,fpp979480_P06737_1FA9_A_P11216_5IKO_A.pdb,1FA9,A,A
ENSG00000100519-ENSG00000100519,fpp946713_P62333_6MSG_E_P62333_6MSG_E.pdb,6MSG,E,E
ENSG00000100528-ENSG00000112038,mmf967253_P35372_5ndz_A_O95406_6ud8_H.pdb,5ndz,A,H
ENSG00000100528-ENSG00000175514,mmf967254_Q8TDT2_5ndz_A_O95406_6ud8_H.pdb,5ndz,A,H
ENSG00000100528-ENSG00000181885,mmf967250_O95471_6akf_C_O95406_6ud8_H.pdb,6akf,C,H
ENSG00000100603-ENSG00000137168,c987584_Q13573_6QDV_K_1_Q9Y3C6_6QDV_i_1.pdb,6QDV,K,i
ENSG00000100652-ENSG00000103089,mmf1081495_Q14973_4n7w_A_Q7L5A8_4zr0_A.pdb,4n7w,A,A
ENSG00000100652-ENSG00000112212,mmf1081542_Q14973_4n7w_A_Q5TGU0_2mgy_A.pdb,4n7w,A,A
ENSG00000100652-ENSG00000156738,mmf1081557_Q14973_4n7w_A_P11836_6vja_D.pdb,4n7w,A,D
ENSG00000100652-ENSG00000164007,mmf1081493_Q14973_4n7w_A_Q8N6F1_4p79_A.pdb,4n7w,A,A
ENSG00000100652-ENSG00000175514,mmf1081505_Q14973_4n7w_A_Q8TDT2_5ndz_A.pdb,4n7w,A,A
ENSG00000100911-ENSG00000100911,mmf979466_Q9UL46_5msk_A_Q9UL46_5msk_A.pdb,5msk,A,A
ENSG00000101966-ENSG00000101966,mmf1385947_P98170_2poi_A_P98170_2poi_A.pdb,2poi,A,A
ENSG00000101966-ENSG00000163644,mmf1385944_Q8N3J5_2iq1_A_P98170_2poi_A.pdb,2iq1,A,A
ENSG00000102383-ENSG00000175514,mmf1294961_Q96MV8_6bmn_A_Q8TDT2_5ndz_A.pdb,6bmn,A,A
ENSG00000102383-ENSG00000197753,mmf1294989_Q96MV8_6bmn_A_Q8TAF8_6c14_B.pdb,6bmn,A,B
ENSG00000102781-ENSG00000119541,mmf1228150_O75351_1xwi_A_Q9BW62_6b5c_A.pdb,1xwi,A,A
ENSG00000103024-ENSG00000239672,mmf991163_Q13232_1zs6_a_P15531_1ucn_a.pdb,1zs6,a,a
ENSG00000103089-ENSG00000118402,mmf993999_Q7L5A8_4zr0_A_Q9GZR5_6y7f_B.pdb,4zr0,A,B
ENSG00000103089-ENSG00000147155,mmf994007_Q7L5A8_4zr0_A_Q15125_6ohu_C.pdb,4zr0,A,C
ENSG00000103089-ENSG00000175514,mmf993992_Q8TDT2_5ndz_A_Q7L5A8_4zr0_A.pdb,5ndz,A,A
ENSG00000103202-ENSG00000143156,mmf1144768_O00746_1ehw_a_Q9Y5B8_3ztq_C.pdb,1ehw,a,C
ENSG00000103202-ENSG00000239672,mmf1144744_P15531_1ucn_a_O00746_1ehw_a.pdb,1ucn,a,a
ENSG00000103249-ENSG00000143119,fpp993672_P51798_7JM7_A_P19397_6WVG_A.pdb,7JM7,A,A
ENSG00000103249-ENSG00000182093,fpp993673_P51798_7JM7_A_O00258_6SO5_C.pdb,7JM7,A,C
ENSG00000103269-ENSG00000189058,mmf1159209_O75783_3b45_a_P05090_2hzq_A.pdb,3b45,a,A
ENSG00000103496-ENSG00000175514,mmf1284073_Q8TDT2_5ndz_A_Q12846_1dn1_b.pdb,5ndz,A,b
ENSG00000103569-ENSG00000127774,mmf1277024_O43315_6f7h_A_Q9BV81_6ww7_F.pdb,6f7h,A,F
ENSG00000103569-ENSG00000135517,mmf1277044_P30301_2b6p_A_O43315_6f7h_A.pdb,2b6p,A,A
ENSG00000103569-ENSG00000164007,mmf1277028_O43315_6f7h_A_Q8N6F1_4p79_A.pdb,6f7h,A,A
ENSG00000103569-ENSG00000197753,mmf1277041_O43315_6f7h_A_Q8TAF8_6c14_B.pdb,6f7h,A,B
ENSG00000104147-ENSG00000104147,mmf926108_O43482_5hj0_C_O43482_5hj0_C.pdb,5hj0,C,C
ENSG00000104147-ENSG00000159055,mmf926119_O43482_5hj0_C_Q9NYP9_5hj0_C.pdb,5hj0,C,C
ENSG00000104524-ENSG00000104524,mmf907756_Q53H96_5bse_F_Q53H96_5bse_F.pdb,5bse,F,F
ENSG00000104870-ENSG00000109099,mmf1164497_P55899_1exu_A_Q01453_4p79_A.pdb,1exu,A,A
ENSG00000104879-ENSG00000223572,mmf1243907_P12532_1qk1_H_P06732_1i0e_D.pdb,1qk1,H,D
ENSG00000105618-ENSG00000105618,fpp1334774_Q8WWY3_3JCR_J_Q8WWY3_3JCR_J.pdb,3JCR,J,J
ENSG00000105677-ENSG00000113504,fpp1387857_Q9Y666_7D99_A_Q9BVK8_6W6L_4.pdb,7D99,A,4
ENSG00000105677-ENSG00000115353,fpp1387841_P25103_2KSB_A_Q9BVK8_6W6L_4.pdb,2KSB,A,4
ENSG00000105701-ENSG00000118402,mmf1011086_Q14318_5mgx_G_Q9GZR5_6y7f_B.pdb,5mgx,G,B
ENSG00000105701-ENSG00000147155,mmf1011203_Q14318_5mgx_G_Q15125_6ohu_C.pdb,5mgx,G,C
ENSG00000105810-ENSG00000112576,mmf1105893_Q00534_1blx_a_P30281_3g33_D.pdb,1blx,a,D
ENSG00000105810-ENSG00000134480,mmf1101992_Q00534_1blx_a_P51946_1kxu_A.pdb,1blx,a,A
ENSG00000106049-ENSG00000165272,mmf930390_P31937_2gf2_B_Q92482_6f7h_A.pdb,2gf2,B,A
ENSG00000106049-ENSG00000174871,mmf930369_P31937_2gf2_B_Q6PI25_6ud8_H.pdb,2gf2,B,H
ENSG00000106144-ENSG00000106144,mmf925245_P42575_2nn3_D_P42575_2nn3_D.pdb,2nn3,D,D
ENSG00000106348-ENSG00000178035,fpp949422_P12268_1NF7_A_P20839_1JCN_A.pdb,1NF7,A,A
ENSG00000106355-ENSG00000139343,mmf1338913_Q9Y4Y9_3jcr_5_P62306_1i4k_1.pdb,3jcr,5,1
ENSG00000106355-ENSG00000170860,mmf940468_P62310_3jcr_3_Q9Y4Y9_3jcr_5.pdb,3jcr,3,5
ENSG00000106355-ENSG00000182004,mmf922484_P62304_3jb9_m_Q9Y4Y9_3jcr_5.pdb,3jb9,m,5
ENSG00000108187-ENSG00000108187,mmf1182990_P30039_3edn_B_P30039_3edn_B.pdb,3edn,B,B
ENSG00000108306-ENSG00000113558,mmf1264315_Q96IG2_6o60_C_P63208_2ovr_a.pdb,6o60,C,a
ENSG00000108381-ENSG00000132744,mmf1393389_Q96HD9_3nh8_A_P45381_2i3c_a.pdb,3nh8,A,a
ENSG00000109099-ENSG00000112038,mmf1199024_P35372_5ndz_A_Q01453_4p79_A.pdb,5ndz,A,A
ENSG00000109099-ENSG00000126251,mmf1458214_O15529_5ndz_A_Q01453_4p79_A.pdb,5ndz,A,A
ENSG00000109099-ENSG00000147155,mmf1199057_Q15125_6ohu_C_Q01453_4p79_A.pdb,6ohu,C,A
ENSG00000109099-ENSG00000166927,mmf1199041_Q9GZW8_6vja_D_Q01453_4p79_A.pdb,6vja,D,A
ENSG00000109099-ENSG00000184113,mmf1199038_O00501_5b2g_G_Q01453_4p79_A.pdb,5b2g,G,A
ENSG00000109099-ENSG00000184697,mmf1199020_P56747_6akf_C_Q01453_4p79_A.pdb,6akf,C,A
ENSG00000109103-ENSG00000213465,mmf1150525_P36404_3doe_A_Q13432_3gqq_D.pdb,3doe,A,D
ENSG00000110651-ENSG00000147155,mmf1164006_Q15125_6ohu_C_P60033_1g8q_a.pdb,6ohu,C,a
ENSG00000110651-ENSG00000197753,mmf1164010_Q8TAF8_6c14_B_P60033_1g8q_a.pdb,6c14,B,a
ENSG00000111276-ENSG00000112576,mmf1105918_P30281_3g33_D_P46527_1jsu_C.pdb,3g33,D,C
ENSG00000111276-ENSG00000118971,mmf1105994_P30279_2w9z_A_P46527_1jsu_C.pdb,2w9z,A,C
ENSG00000111716-ENSG00000134333,fpp1029284_P07195_1I0Z_A_P00338_4QO8_A.pdb,1I0Z,A,A
ENSG00000111843-ENSG00000169446,fpp1272960_Q9P0S9_2LOS_A_Q8N4V1_6WW7_E.pdb,2LOS,A,E
ENSG00000112038-ENSG00000113732,mmf1073231_P35372_5ndz_A_O15342_6vq7_e.pdb,5ndz,A,e
ENSG00000112038-ENSG00000132965,mmf1073240_P35372_5ndz_A_P20292_2q7r_a.pdb,5ndz,A,a
ENSG00000112038-ENSG00000134873,mmf1073222_P35372_5ndz_A_P78369_4p79_A.pdb,5ndz,A,A
ENSG00000112038-ENSG00000156284,mmf1073225_P35372_5ndz_A_P56748_5b2g_G.pdb,5ndz,A,G
ENSG00000112038-ENSG00000168515,mmf1073286_P35372_5ndz_A_O95968_1ccd_a.pdb,5ndz,A,a
ENSG00000112038-ENSG00000177300,mmf1073211_P35372_5ndz_A_Q8N7P3_4p79_A.pdb,5ndz,A,A
ENSG00000112038-ENSG00000185883,mmf1073293_P35372_5ndz_A_P27449_6vq6_b.pdb,5ndz,A,b
ENSG00000112186-ENSG00000112186,mmf992169_P40123_1s0p_a_P40123_1s0p_a.pdb,1s0p,a,a
ENSG00000112208-ENSG00000112208,mmf999443_O95816_3cqx_D_O95816_3cqx_D.pdb,3cqx,D,D
ENSG00000112212-ENSG00000126251,mmf1458225_O15529_5ndz_A_Q5TGU0_2mgy_A.pdb,5ndz,A,A
ENSG00000112212-ENSG00000147155,mmf1289389_Q15125_6ohu_C_Q5TGU0_2mgy_A.pdb,6ohu,C,A
ENSG00000112212-ENSG00000156738,mmf1289390_Q5TGU0_2mgy_A_P11836_6vja_D.pdb,2mgy,A,D
ENSG00000112212-ENSG00000175514,mmf1289369_Q8TDT2_5ndz_A_Q5TGU0_2mgy_A.pdb,5ndz,A,A
ENSG00000112212-ENSG00000188822,mmf1289371_P34972_5zty_A_Q5TGU0_2mgy_A.pdb,5zty,A,A
ENSG00000112212-ENSG00000189143,mmf1289363_O14493_5b2g_G_Q5TGU0_2mgy_A.pdb,5b2g,G,A
ENSG00000112212-ENSG00000189280,mmf1289383_O95377_2zw3_B_Q5TGU0_2mgy_A.pdb,2zw3,B,A
ENSG00000112237-ENSG00000112237,fpp972873_P24863_5XS2_B_P24863_5XS2_B.pdb,5XS2,B,B
ENSG00000112237-ENSG00000134086,mmf972922_P24863_3rgf_B_P40337_1lm8_v.pdb,3rgf,B,v
ENSG00000112576-ENSG00000117266,mmf1105898_Q07002_5ebz_F_P30281_3g33_D.pdb,5ebz,F,D
ENSG00000112576-ENSG00000124762,mmf1105914_P30281_3g33_D_P38936_6p8h_C.pdb,3g33,D,C
ENSG00000112576-ENSG00000135446,c1032993_P30281_3G33_C_1_P11802_3G33_B_1.pdb,3G33,C,3
ENSG00000112576-ENSG00000164885,mmf1105911_Q00535_1unl_a_P30281_3g33_D.pdb,1unl,a,D
ENSG00000113387-ENSG00000113387,mmf1250490_P53999_1pcf_a_P53999_1pcf_a.pdb,1pcf,a,a
ENSG00000113558-ENSG00000116661,mmf1264257_Q9UK22_2e32_A_P63208_2ovr_a.pdb,2e32,A,a
ENSG00000113558-ENSG00000116663,mmf1264254_Q9NRD1_3wso_A_P63208_2ovr_a.pdb,3wso,A,a
ENSG00000113558-ENSG00000147364,mmf1264309_Q8TCJ0_2ovr_b_P63208_2ovr_a.pdb,2ovr,b,a
ENSG00000113558-ENSG00000161243,mmf1264282_Q8NI29_3wso_A_P63208_2ovr_a.pdb,3wso,A,a
ENSG00000113558-ENSG00000167196,mmf1264274_P63208_2ovr_a_Q8NEZ5_1p22_a.pdb,2ovr,a,a
ENSG00000113558-ENSG00000171823,mmf1264277_Q8N1E6_6wcq_B_P63208_2ovr_a.pdb,6wcq,B,a
ENSG00000113558-ENSG00000197361,mmf1264341_P63208_2ovr_a_Q6P050_3l2o_B.pdb,2ovr,a,B
ENSG00000113558-ENSG00000269190,mmf1264281_Q96EF6_3wso_A_P63208_2ovr_a.pdb,3wso,A,a
ENSG00000113657-ENSG00000157851,fpp1377140_Q14195_4CNS_A_Q9BPU6_4B92_A.pdb,4CNS,A,A
ENSG00000114268-ENSG00000158571,mmf1019499_Q16877_1bif_A_P16118_1k6m_A.pdb,1bif,A,A
ENSG00000114353-ENSG00000147509,mmf1138188_P04899_3v00_C_O76081_2pbi_A.pdb,3v00,C,A
ENSG00000114395-ENSG00000181885,mmf986601_O14569_5zlg_A_O95471_6akf_C.pdb,5zlg,A,C
ENSG00000115194-ENSG00000118402,mmf1113369_Q99726_6xpd_B_Q9GZR5_6y7f_B.pdb,6xpd,B,B
ENSG00000115194-ENSG00000126251,mmf1458197_Q99726_6xpd_B_O15529_5ndz_A.pdb,6xpd,B,A
ENSG00000115194-ENSG00000164756,mmf1113363_Q8IWU4_6xpd_B_Q99726_6xpd_B.pdb,6xpd,B,B
ENSG00000115194-ENSG00000170509,mmf1113374_Q99726_6xpd_B_Q7Z5P4_1xu9_a.pdb,6xpd,B,a
ENSG00000115194-ENSG00000175514,mmf1113361_Q99726_6xpd_B_Q8TDT2_5ndz_A.pdb,6xpd,B,A
ENSG00000115350-ENSG00000120837,mmf1388530_P25208_1n1j_a_Q9NR33_4g92_C.pdb,1n1j,a,C
ENSG00000117410-ENSG00000142583,fpp1386292_P22732_1YG1_A_Q99437_6WLW_0.pdb,1YG1,A,0
ENSG00000118402-ENSG00000164756,mmf1150247_Q8IWU4_6xpd_B_Q9GZR5_6y7f_B.pdb,6xpd,B,B
ENSG00000118402-ENSG00000197753,mmf1150292_Q9GZR5_6y7f_B_Q8TAF8_6c14_B.pdb,6y7f,B,B
ENSG00000118971-ENSG00000124762,mmf1105989_P30279_2w9z_A_P38936_6p8h_C.pdb,2w9z,A,C
ENSG00000118971-ENSG00000135446,mmf1032994_P11802_1blx_a_P30279_2w9z_A.pdb,1blx,a,A
ENSG00000118971-ENSG00000164885,mmf1105980_Q00535_1unl_a_P30279_2w9z_A.pdb,1unl,a,A
ENSG00000120699-ENSG00000120699,fpp916158_Q96B26_2NN6_C_Q96B26_2NN6_C.pdb,2NN6,C,C
ENSG00000121481-ENSG00000185619,mmf1212521_Q99496_4r8p_L_Q3KNV8_2ckl_A.pdb,4r8p,L,A
ENSG00000121481-ENSG00000277258,mmf1168184_Q99496_4r8p_L_P35227_2ckl_A.pdb,4r8p,L,A
ENSG00000123080-ENSG00000135446,mmf1032953_P11802_1blx_a_P42773_1ihb_a.pdb,1blx,a,a
ENSG00000123136-ENSG00000123136,mmf962035_O00148_1xtk_A_O00148_1xtk_A.pdb,1xtk,A,A
ENSG00000123136-ENSG00000198563,mmf962034_O00148_1xtk_A_Q13838_1xtk_A.pdb,1xtk,A,A
ENSG00000125255-ENSG00000205155,mmf1222050_Q12908_4n7w_A_Q9NZ42_5a63_D.pdb,4n7w,A,D
ENSG00000125775-ENSG00000125775,mmf1362305_Q9H190_1w9q_B_Q9H190_1w9q_B.pdb,1w9q,B,B
ENSG00000125835-ENSG00000204392,fpp1399231_Q9Y333_3JCR_2_P14678_3JCR_O.pdb,3JCR,2,O
ENSG00000125868-ENSG00000184009,mmf1015198_P63261_1o1f_4_P60981_2xfa_A.pdb,1o1f,4,A
ENSG00000125888-ENSG00000125888,mmf1063351_Q9H503_1ci4_a_Q9H503_1ci4_a.pdb,1ci4,a,a
ENSG00000125888-ENSG00000175334,mmf1063364_Q9H503_1ci4_a_O75531_1ci4_a.pdb,1ci4,a,a
ENSG00000126251-ENSG00000156738,mmf1458242_O15529_5ndz_A_P11836_6vja_D.pdb,5ndz,A,D
ENSG00000126251-ENSG00000164756,mmf1458195_Q8IWU4_6xpd_B_O15529_5ndz_A.pdb,6xpd,B,A
ENSG00000126251-ENSG00000181092,mmf1458213_O15529_5ndz_A_Q15848_4dou_A.pdb,5ndz,A,A
ENSG00000126251-ENSG00000185883,mmf1458231_O15529_5ndz_A_P27449_6vq6_b.pdb,5ndz,A,b
ENSG00000126251-ENSG00000186009,mmf1458174_O15529_5ndz_A_P51164_3kdp_D.pdb,5ndz,A,D
ENSG00000126251-ENSG00000197753,mmf1458246_O15529_5ndz_A_Q8TAF8_6c14_B.pdb,5ndz,A,B
ENSG00000126251-ENSG00000213316,mmf1458206_O15529_5ndz_A_Q16873_2uui_A.pdb,5ndz,A,A
ENSG00000127526-ENSG00000132446,mmf906607_Q96K37_5y79_A_Q9BXU8_2cei_a.pdb,5y79,A,a
ENSG00000127774-ENSG00000147155,mmf936838_Q15125_6ohu_C_Q9BV81_6ww7_F.pdb,6ohu,C,F
ENSG00000128266-ENSG00000128266,mmf1137984_P19086_3v00_C_P19086_3v00_C.pdb,3v00,C,C
ENSG00000129355-ENSG00000135446,mmf1033022_P11802_1blx_a_P55273_1bd8_a.pdb,1blx,a,a
ENSG00000130038-ENSG00000171453,mmf923275_O15160_5fj8_C_Q9BSW2_6psd_M.pdb,5fj8,C,M
ENSG00000130066-ENSG00000141504,mmf978855_P21673_2b5g_a_Q96F10_2bei_a.pdb,2b5g,a,a
ENSG00000130332-ENSG00000170860,mmf940469_P62310_3jcr_3_Q9UK45_3jcr_7.pdb,3jcr,3,7
ENSG00000130332-ENSG00000204392,mmf944370_Q9Y333_3jcr_2_Q9UK45_3jcr_7.pdb,3jcr,2,7
ENSG00000130511-ENSG00000198728,mmf1372964_Q86U70_6tyd_V_Q9BWG4_6tyd_A.pdb,6tyd,V,A
ENSG00000130540-ENSG00000130540,fpp962848_Q9BR01_1ZD1_A_Q9BR01_1ZD1_A.pdb,1ZD1,A,A
ENSG00000130656-ENSG00000206177,mmf1340106_P02008_1jeb_a_Q6B0K9_1qpw_a.pdb,1jeb,a,a
ENSG00000130656-ENSG00000213931,mmf1340113_P02100_1a9w_e_P02008_1jeb_a.pdb,1a9w,e,a
ENSG00000130656-ENSG00000223609,mmf1340115_P02042_1shr_b_P02008_1jeb_a.pdb,1shr,b,a
ENSG00000130957-ENSG00000165140,fpp1380826_O00757_4HE0_A_P09467_7CVN_A.pdb,4HE0,A,A
ENSG00000131508-ENSG00000186187,mmf983400_P62837_2esk_a_Q8ND25_5ywr_B.pdb,2esk,a,B
ENSG00000131508-ENSG00000204227,mmf983473_P62837_2esk_a_Q06587_4r8p_L.pdb,2esk,a,L
ENSG00000132744-ENSG00000132744,mmf1046333_Q96HD9_3nh8_A_Q96HD9_3nh8_A.pdb,3nh8,A,A
ENSG00000133466-ENSG00000173918,mmf1282395_Q9BXJ1_4dou_A_Q9BXI9_5hkj_A.pdb,4dou,A,A
ENSG00000133639-ENSG00000155508,mmf1167081_Q9UFF9_4gmj_B_P62324_3e9v_a.pdb,4gmj,B,a
ENSG00000133731-ENSG00000141401,mmf946825_P29218_2hhm_a_O14732_2czh_B.pdb,2hhm,a,B
ENSG00000134108-ENSG00000164756,mmf1191790_Q8IWU4_6xpd_B_Q9NVJ2_6bbq_A.pdb,6xpd,B,A
ENSG00000134202-ENSG00000168765,fpp1307607_P21266_3GTU_B_Q03013_4GTU_A.pdb,3GTU,B,A
ENSG00000134330-ENSG00000134330,mmf982107_Q2TAA2_3mil_A_Q2TAA2_3mil_A.pdb,3mil,A,A
ENSG00000134545-ENSG00000139187,mmf1063418_P26715_3bdw_D_Q96E93_3ff7_C.pdb,3bdw,D,C
ENSG00000135250-ENSG00000135250,fpp1374262_P78362_2X7G_A_P78362_2X7G_A.pdb,2X7G,A,A
ENSG00000135250-ENSG00000176444,fpp1247693_P78362_2X7G_A_P49760_6FYL_A.pdb,2X7G,A,A
ENSG00000135517-ENSG00000143198,mmf1415188_P30301_2b6p_A_O14880_2q7r_a.pdb,2b6p,A,a
ENSG00000135517-ENSG00000184113,mmf1415198_P30301_2b6p_A_O00501_5b2g_G.pdb,2b6p,A,G
ENSG00000135517-ENSG00000189280,mmf1415201_P30301_2b6p_A_O95377_2zw3_B.pdb,2b6p,A,B
ENSG00000135517-ENSG00000197753,mmf1415210_P30301_2b6p_A_Q8TAF8_6c14_B.pdb,2b6p,A,B
ENSG00000136463-ENSG00000157884,mmf1307295_Q9BSH4_4f3q_A_A0PJX0_3dd4_A.pdb,4f3q,A,A
ENSG00000136936-ENSG00000171453,mmf907322_O15160_5fj8_C_P23025_6ro4_G.pdb,5fj8,C,G
ENSG00000137101-ENSG00000197753,mmf950331_Q8TAF8_6c14_B_P21854_3g8l_D.pdb,6c14,B,D
ENSG00000137575-ENSG00000137575,mmf1341214_O00560_1w9q_B_O00560_1w9q_B.pdb,1w9q,B,B
ENSG00000138175-ENSG00000156973,mmf1150478_P36405_1fzq_a_O43924_1ksh_b.pdb,1fzq,a,b
ENSG00000138443-ENSG00000138443,fpp957139_Q9NYB9_2ED0_A_Q9NYB9_2ED0_A.pdb,2ED0,A,A
ENSG00000139163-ENSG00000164615,mmf1192473_Q9HBU6_6whp_A_P49069_6so5_F.pdb,6whp,A,F
ENSG00000139343-ENSG00000170860,mmf1338922_P62310_3jcr_3_P62306_1i4k_1.pdb,3jcr,3,1
ENSG00000140365-ENSG00000169019,mmf1285335_Q9H0A8_6bp6_A_Q9NX08_6bp6_A.pdb,6bp6,A,A
ENSG00000140519-ENSG00000186897,mmf1042602_Q9UBD6_3hd6_A_Q86Z23_4dou_A.pdb,3hd6,A,A
ENSG00000142252-ENSG00000152147,mmf1282142_Q8WXD5_1y96_C_Q9H840_1y96_D.pdb,1y96,C,D
ENSG00000143119-ENSG00000143119,fpp1151481_P19397_6WVG_A_P19397_6WVG_A.pdb,6WVG,A,A
ENSG00000143119-ENSG00000182093,fpp1151497_P19397_6WVG_A_O00258_6SO5_C.pdb,6WVG,A,C
ENSG00000143198-ENSG00000143198,mmf1038831_O14880_2q7r_a_O14880_2q7r_a.pdb,2q7r,a,a
ENSG00000143198-ENSG00000158457,mmf1038813_Q86UF1_6wvg_B_O14880_2q7r_a.pdb,6wvg,B,a
ENSG00000143198-ENSG00000175514,mmf1038842_Q8TDT2_5ndz_A_O14880_2q7r_a.pdb,5ndz,A,a
ENSG00000143595-ENSG00000175514,mmf1404026_Q8TDT2_5ndz_A_Q96PS8_6f7h_A.pdb,5ndz,A,A
ENSG00000143947-ENSG00000179262,fpp1273961_P54725_1P98_A_P62979_2L0T_A.pdb,1P98,A,A
ENSG00000144744-ENSG00000144744,mmf943634_Q8TBC4_2nvu_B_Q8TBC4_2nvu_B.pdb,2nvu,B,B
ENSG00000145248-ENSG00000176087,mmf1054953_Q96EP9_4n7w_A_Q96G79_6oh2_A.pdb,4n7w,A,A
ENSG00000145685-ENSG00000175514,mmf1045631_Q8TDT2_5ndz_A_Q6ZUX7_6c14_B.pdb,5ndz,A,B
ENSG00000145687-ENSG00000198728,mmf1420246_Q86U70_6tyd_V_P81877_6tyd_A.pdb,6tyd,V,A
ENSG00000145781-ENSG00000170619,mmf1039282_Q9Y6G5_6bp6_A_Q9GZQ3_6bp6_A.pdb,6bp6,A,A
ENSG00000146281-ENSG00000146281,mmf1291276_Q8IYS1_3ram_C_Q8IYS1_3ram_C.pdb,3ram,C,C
ENSG00000147155-ENSG00000170509,mmf1397963_Q7Z5P4_1xu9_a_Q15125_6ohu_C.pdb,1xu9,a,C
ENSG00000147155-ENSG00000175514,mmf1397924_Q8TDT2_5ndz_A_Q15125_6ohu_C.pdb,5ndz,A,C
ENSG00000147155-ENSG00000205808,mmf1397967_Q15125_6ohu_C_Q8IY26_4px7_A.pdb,6ohu,C,A
ENSG00000147155-ENSG00000213316,mmf1397954_Q15125_6ohu_C_Q16873_2uui_A.pdb,6ohu,C,A
ENSG00000147155-ENSG00000213689,mmf1397949_Q9NSU2_1y97_a_Q15125_6ohu_C.pdb,1y97,a,C
ENSG00000147689-ENSG00000147689,mmf1357721_Q86UY5_4urj_A_Q86UY5_4urj_A.pdb,4urj,A,A
ENSG00000151224-ENSG00000168906,mmf1223877_Q00266_2obv_A_P31153_2p02_a.pdb,2obv,A,a
ENSG00000153140-ENSG00000159173,mmf1334849_O15182_6u2m_C_P19237_1ytz_I.pdb,6u2m,C,I
ENSG00000153574-ENSG00000153574,mmf1279074_P49247_4nml_A_P49247_4nml_A.pdb,4nml,A,A
ENSG00000153767-ENSG00000197265,c946286_P29083_6O9L_Q_1_P29084_6O9L_R_1.pdb,6O9L,Q,R
ENSG00000155189-ENSG00000162144,mmf1199754_Q9NUQ2_5kym_A_Q8NBI2_5zlg_A.pdb,5kym,A,A
ENSG00000155508-ENSG00000159388,mmf1329320_Q9UFF9_4gmj_B_P78543_3e9v_a.pdb,4gmj,B,a
ENSG00000155508-ENSG00000183864,mmf1237098_Q9UFF9_4gmj_B_Q14106_2z15_a.pdb,4gmj,B,a
ENSG00000156298-ENSG00000175514,mmf1020634_Q8TDT2_5ndz_A_P41732_6wvg_B.pdb,5ndz,A,B
ENSG00000156298-ENSG00000197753,mmf1020635_P41732_6wvg_B_Q8TAF8_6c14_B.pdb,6wvg,B,B
ENSG00000156738-ENSG00000168685,mmf1398143_P16871_3di3_B_P11836_6vja_D.pdb,3di3,B,D
ENSG00000156738-ENSG00000170509,mmf1398139_Q7Z5P4_1xu9_a_P11836_6vja_D.pdb,1xu9,a,D
ENSG00000156738-ENSG00000188167,mmf1398128_Q6ZT21_3t1i_C_P11836_6vja_D.pdb,3t1i,C,D
ENSG00000156738-ENSG00000198189,mmf1398136_Q8NBQ5_1yb1_a_P11836_6vja_D.pdb,1yb1,a,D
ENSG00000156973-ENSG00000185305,mmf1304323_Q9NXU5_6bbq_A_O43924_1ksh_b.pdb,6bbq,A,b
ENSG00000156973-ENSG00000213465,mmf1304315_P36404_3doe_A_O43924_1ksh_b.pdb,3doe,A,b
ENSG00000156973-ENSG00000214087,mmf1304322_Q0P5N6_6bbq_A_O43924_1ksh_b.pdb,6bbq,A,b
ENSG00000157131-ENSG00000169446,fpp1128792_P07357_6H03_F_Q8N4V1_6WW7_E.pdb,6H03,F,E
ENSG00000157216-ENSG00000198728,mmf1372951_Q86U70_6tyd_V_Q9BWW4_6tyd_A.pdb,6tyd,V,A
ENSG00000157884-ENSG00000213588,mmf1155793_A0PJX0_3dd4_A_Q96C00_3ga1_A.pdb,3dd4,A,A
ENSG00000158457-ENSG00000164626,mmf1006916_O95279_6wlv_A_Q86UF1_6wvg_B.pdb,6wlv,A,B
ENSG00000158457-ENSG00000175514,mmf1006909_Q8TDT2_5ndz_A_Q86UF1_6wvg_B.pdb,5ndz,A,B
ENSG00000158457-ENSG00000181885,mmf1006906_Q86UF1_6wvg_B_O95471_6akf_C.pdb,6wvg,B,C
ENSG00000158457-ENSG00000197753,mmf1006917_Q86UF1_6wvg_B_Q8TAF8_6c14_B.pdb,6wvg,B,B
ENSG00000159055-ENSG00000159055,mmf976165_Q9NYP9_5hj0_C_Q9NYP9_5hj0_C.pdb,5hj0,C,C
ENSG00000159173-ENSG00000167791,mmf1243547_Q9NPB3_6u2m_C_P19237_1ytz_I.pdb,6u2m,C,I
ENSG00000159173-ENSG00000171453,mmf1243534_O15160_5fj8_C_P19237_1ytz_I.pdb,5fj8,C,I
ENSG00000159388-ENSG00000198791,mmf1329321_Q9UIV1_4gmj_B_P78543_3e9v_a.pdb,4gmj,B,a
ENSG00000160062-ENSG00000160062,mmf1101719_Q96BR9_1r29_a_Q96BR9_1r29_a.pdb,1r29,a,a
ENSG00000160200-ENSG00000181929,fpp1264018_P54619_2UV4_A_P35520_4UUU_A.pdb,2UV4,A,A
ENSG00000160307-ENSG00000160678,fpp1314379_P23297_2LP3_A_P04271_2PRU_A.pdb,2LP3,A,A
ENSG00000161944-ENSG00000187912,mmf978491_P07307_5ao6_A_Q6ZS10_5ao6_A.pdb,5ao6,A,A
ENSG00000162144-ENSG00000175514,mmf1412210_Q8TDT2_5ndz_A_Q8NBI2_5zlg_A.pdb,5ndz,A,A
ENSG00000162144-ENSG00000181885,mmf1412209_Q8NBI2_5zlg_A_O95471_6akf_C.pdb,5zlg,A,C
ENSG00000162144-ENSG00000184113,mmf1412212_Q8NBI2_5zlg_A_O00501_5b2g_G.pdb,5zlg,A,G
ENSG00000162517-ENSG00000162517,mmf1023853_Q9UBV8_1kfx_L_Q9UBV8_1kfx_L.pdb,1kfx,L,L
ENSG00000163156-ENSG00000198081,mmf1093144_O43829_1buo_a_Q9BWG6_6ff4_7.pdb,1buo,a,7
ENSG00000163217-ENSG00000181885,mmf1160732_O95471_6akf_C_O95393_6sf1_B.pdb,6akf,C,B
ENSG00000163806-ENSG00000164885,mmf1286823_Q00535_1unl_a_Q5MJ70_5uq2_B.pdb,1unl,a,B
ENSG00000163993-ENSG00000171643,mmf1381888_Q8WXG8_5hyd_A_P25815_1j55_a.pdb,5hyd,A,a
ENSG00000164414-ENSG00000197753,mmf925007_P78382_6oh2_A_Q8TAF8_6c14_B.pdb,6oh2,A,B
ENSG00000164626-ENSG00000197753,mmf1402530_O95279_6wlv_A_Q8TAF8_6c14_B.pdb,6wlv,A,B
ENSG00000164708-ENSG00000164708,mmf1028265_P15259_1e58_a_P15259_1e58_a.pdb,1e58,a,a
ENSG00000164708-ENSG00000172331,mmf1028268_P15259_1e58_a_P07738_2hhj_a.pdb,1e58,a,a
ENSG00000164756-ENSG00000184697,mmf1568505_Q8IWU4_6xpd_B_P56747_6akf_C.pdb,6xpd,B,C
ENSG00000164756-ENSG00000198189,mmf1093175_Q8IWU4_6xpd_B_Q8NBQ5_1yb1_a.pdb,6xpd,B,a
ENSG00000164885-ENSG00000183318,mmf1275688_Q00535_1unl_a_A6NLX3_5uq2_B.pdb,1unl,a,B
ENSG00000164967-ENSG00000172336,mmf958990_Q8N5L8_6cwx_B_O75817_6cwx_A.pdb,6cwx,B,A
ENSG00000165169-ENSG00000165169,mmf1093085_P51808_2pg1_E_P51808_2pg1_E.pdb,2pg1,E,E
ENSG00000165272-ENSG00000165272,mmf1158637_Q92482_6f7h_A_Q92482_6f7h_A.pdb,6f7h,A,A
ENSG00000165272-ENSG00000175514,mmf1158634_Q8TDT2_5ndz_A_Q92482_6f7h_A.pdb,5ndz,A,A
ENSG00000165272-ENSG00000278619,mmf1158631_Q6IN84_1gz0_H_Q92482_6f7h_A.pdb,1gz0,H,A
ENSG00000165389-ENSG00000182093,fpp972396_O00258_6SO5_C_Q969W0_7K0J_C.pdb,6SO5,C,C
ENSG00000165916-ENSG00000165916,fpp1228812_P17980_6WJD_F_P17980_6WJD_F.pdb,6WJD,F,F
ENSG00000166228-ENSG00000166228,mmf971467_P61457_1dcp_a_P61457_1dcp_a.pdb,1dcp,a,a
ENSG00000166797-ENSG00000205808,mmf1280377_Q8IY26_4px7_A_Q9H5X1_3ux2_A.pdb,4px7,A,A
ENSG00000167580-ENSG00000197753,mmf1415251_P41181_4nef_B_Q8TAF8_6c14_B.pdb,4nef,B,B
ENSG00000167580-ENSG00000278619,mmf1415220_Q6IN84_1gz0_H_P41181_4nef_B.pdb,1gz0,H,B
ENSG00000167791-ENSG00000182117,mmf1151948_Q9NPB3_6u2m_C_Q9NPE3_7bgb_F.pdb,6u2m,C,F
ENSG00000168283-ENSG00000204227,mmf1168569_Q06587_4r8p_L_P35226_4r8p_L.pdb,4r8p,L,L
ENSG00000169016-ENSG00000198176,mmf1350081_Q14186_2aze_a_O75461_2aze_b.pdb,2aze,a,b
ENSG00000169446-ENSG00000214253,fpp997951_Q9Y3D6_1PC2_A_Q8N4V1_6WW7_E.pdb,1PC2,A,E
ENSG00000170509-ENSG00000185883,mmf1225722_Q7Z5P4_1xu9_a_P27449_6vq6_b.pdb,1xu9,a,b
ENSG00000170509-ENSG00000189143,mmf1225697_Q7Z5P4_1xu9_a_O14493_5b2g_G.pdb,1xu9,a,G
ENSG00000170689-ENSG00000171453,mmf1330877_O15160_5fj8_C_P17482_1puf_a.pdb,5fj8,C,a
ENSG00000170860-ENSG00000175324,mmf1236898_O15116_4c92_A_P62310_3jcr_3.pdb,4c92,A,3
ENSG00000170860-ENSG00000181817,mmf940476_Q969L4_6v4x_C_P62310_3jcr_3.pdb,6v4x,C,3
ENSG00000171135-ENSG00000188820,fpp1020016_Q8N5M9_6WVD_A_Q5R3K3_6YTV_A.pdb,6WVD,A,A
ENSG00000171222-ENSG00000172466,mmf1305847_P17028_3lhr_A_P57086_4e6s_A.pdb,3lhr,A,A
ENSG00000171222-ENSG00000196812,mmf932636_Q9H4T2_4bhx_A_P57086_4e6s_A.pdb,4bhx,A,A
ENSG00000171448-ENSG00000171448,mmf1316735_Q9HCK0_3ga1_A_Q9HCK0_3ga1_A.pdb,3ga1,A,A
ENSG00000171448-ENSG00000177125,mmf1316732_Q8NCN2_1buo_a_Q9HCK0_3ga1_A.pdb,1buo,a,A
ENSG00000171448-ENSG00000186130,mmf914781_Q15916_1r29_a_Q9HCK0_3ga1_A.pdb,1r29,a,A
ENSG00000171448-ENSG00000204366,mmf1316728_Q9HCK0_3ga1_A_Q9Y330_3ga1_A.pdb,3ga1,A,A
ENSG00000171448-ENSG00000213588,mmf1316734_Q9HCK0_3ga1_A_Q96C00_3ga1_A.pdb,3ga1,A,A
ENSG00000171643-ENSG00000188015,mmf1267081_Q8WXG8_5hyd_A_P33764_1kso_a.pdb,5hyd,A,a
ENSG00000171643-ENSG00000197747,mmf1267083_Q8WXG8_5hyd_A_P60903_1a4p_a.pdb,5hyd,A,a
ENSG00000172057-ENSG00000182093,fpp1236307_Q8N138_7K0P_D_O00258_6SO5_C.pdb,7K0P,D,C
ENSG00000172466-ENSG00000172466,mmf1305884_P17028_3lhr_A_P17028_3lhr_A.pdb,3lhr,A,A
ENSG00000172466-ENSG00000196812,mmf1305890_P17028_3lhr_A_Q9H4T2_4bhx_A.pdb,3lhr,A,A
ENSG00000175029-ENSG00000175029,mmf988103_P56545_2ome_A_P56545_2ome_A.pdb,2ome,A,A
ENSG00000175309-ENSG00000175309,mmf913049_Q8IUZ5_5h7d_I_Q8IUZ5_5h7d_I.pdb,5h7d,I,I
ENSG00000175324-ENSG00000204392,mmf1236927_O15116_4c92_A_Q9Y333_3jcr_2.pdb,4c92,A,2
ENSG00000175390-ENSG00000175390,fpp1030232_O00303_6ZON_F_O00303_6ZON_F.pdb,6ZON,F,F
ENSG00000175514-ENSG00000175514,mmf1075709_Q8TDT2_5ndz_A_Q8TDT2_5ndz_A.pdb,5ndz,A,A
ENSG00000175514-ENSG00000176087,mmf1075735_Q96G79_6oh2_A_Q8TDT2_5ndz_A.pdb,6oh2,A,A
ENSG00000175514-ENSG00000185883,mmf1075731_Q8TDT2_5ndz_A_P27449_6vq6_b.pdb,5ndz,A,b
ENSG00000175514-ENSG00000197753,mmf1075740_Q8TDT2_5ndz_A_Q8TAF8_6c14_B.pdb,5ndz,A,B
ENSG00000175514-ENSG00000213316,mmf1075719_Q8TDT2_5ndz_A_Q16873_2uui_A.pdb,5ndz,A,A
ENSG00000176410-ENSG00000183166,mmf922411_Q9BXU9_6u2m_C_Q96LL9_2yua_A.pdb,6u2m,C,A
ENSG00000177300-ENSG00000197753,mmf988278_Q8N7P3_4p79_A_Q8TAF8_6c14_B.pdb,4p79,A,B
ENSG00000179262-ENSG00000221983,fpp1041302_P54725_1P98_A_P62987_2RSU_A.pdb,1P98,A,A
ENSG00000179958-ENSG00000179958,mmf1371372_Q9H773_2a3q_a_Q9H773_2a3q_a.pdb,2a3q,a,a
ENSG00000180628-ENSG00000204227,mmf1398011_Q06587_4r8p_L_Q86SE9_4s3o_C.pdb,4r8p,L,C
ENSG00000181092-ENSG00000213937,mmf1198895_O95484_6ov2_A_Q15848_4dou_A.pdb,6ov2,A,A
ENSG00000181754-ENSG00000205808,mmf1167108_Q86WK6_2xot_A_Q8IY26_4px7_A.pdb,2xot,A,A
ENSG00000182093-ENSG00000240583,fpp1357996_P29972_6POJ_A_O00258_6SO5_C.pdb,6POJ,A,C
ENSG00000183864-ENSG00000198791,mmf1275755_Q9UIV1_4gmj_B_Q14106_2z15_a.pdb,4gmj,B,a
ENSG00000184113-ENSG00000197753,mmf1159495_O00501_5b2g_G_Q8TAF8_6c14_B.pdb,5b2g,G,B
ENSG00000184979-ENSG00000187608,mmf1165300_Q9UMW8_5jtv_A_P05161_1z2m_A.pdb,5jtv,A,A
ENSG00000185619-ENSG00000204227,mmf1398028_Q06587_4r8p_L_Q3KNV8_2ckl_A.pdb,4r8p,L,A
ENSG00000185787-ENSG00000185787,mmf995222_Q9UBU8_2f5j_A_Q9UBU8_2f5j_A.pdb,2f5j,A,A
ENSG00000185897-ENSG00000213316,mmf1074969_O14843_5ndz_A_Q16873_2uui_A.pdb,5ndz,A,A
ENSG00000187912-ENSG00000187912,mmf1166982_Q6ZS10_5ao6_A_Q6ZS10_5ao6_A.pdb,5ao6,A,A
ENSG00000188015-ENSG00000196754,mmf1006429_P29034_2rgi_A_P33764_1kso_a.pdb,2rgi,A,a
ENSG00000188015-ENSG00000197747,mmf1006430_P33764_1kso_a_P60903_1a4p_a.pdb,1kso,a,a
ENSG00000188643-ENSG00000189334,fpp1308736_Q9HCY8_2M0R_A_Q96FQ6_2L50_A.pdb,2M0R,A,A
ENSG00000188910-ENSG00000197753,mmf1077708_O75712_2zw3_B_Q8TAF8_6c14_B.pdb,2zw3,B,B
ENSG00000189171-ENSG00000189334,fpp914499_Q9HCY8_2M0R_A_Q99584_2LE9_B.pdb,2M0R,A,B
ENSG00000189241-ENSG00000189241,mmf1323548_Q9H0U9_2e50_a_Q9H0U9_2e50_a.pdb,2e50,a,a
ENSG00000189241-ENSG00000213588,mmf1323537_Q9H0U9_2e50_a_Q96C00_3ga1_A.pdb,2e50,a,A
ENSG00000189280-ENSG00000205808,mmf1236763_O95377_2zw3_B_Q8IY26_4px7_A.pdb,2zw3,B,A
ENSG00000189433-ENSG00000197753,mmf1236618_Q9NTQ9_2zw3_B_Q8TAF8_6c14_B.pdb,2zw3,B,B
ENSG00000196470-ENSG00000196470,mmf1354928_Q8IUQ4_4i7c_C_Q8IUQ4_4i7c_C.pdb,4i7c,C,C
ENSG00000196470-ENSG00000278705,mmf1354925_Q8IUQ4_4i7c_C_P62805_1kx5_b.pdb,4i7c,C,b
ENSG00000196482-ENSG00000196482,mmf1073583_P62508_2e2r_a_P62508_2e2r_a.pdb,2e2r,a,a
ENSG00000196565-ENSG00000206177,mmf1145213_P69892_1i3d_a_Q6B0K9_1qpw_a.pdb,1i3d,a,a
ENSG00000198563-ENSG00000198563,fpp957899_Q13838_1XTK_A_Q13838_1XTK_A.pdb,1XTK,A,A
ENSG00000204227-ENSG00000277258,mmf1168188_Q06587_4r8p_L_P35227_2ckl_A.pdb,4r8p,L,A
ENSG00000205808-ENSG00000213937,mmf1265751_O95484_6ov2_A_Q8IY26_4px7_A.pdb,6ov2,A,A
ENSG00000213588-ENSG00000213588,mmf1124304_Q96C00_3ga1_A_Q96C00_3ga1_A.pdb,3ga1,A,A
ENSG00000206172-ENSG00000213931,c1408217_P02100_1A9W_E_1_P69905_1A9W_A_1.pdb,1A9W,E,A
ENSG00000206172-ENSG00000244734,c1406054_P68871_1ABW_A_1_P69905_1ABW_B_1.pdb,1ABW,A,B
ENSG00000126522-ENSG00000126522,c1011966_P04424_1AOS_A_1_P04424_1AOS_B_2.pdb,1AOS,A,B,
ENSG00000105810-ENSG00000129355,c1198184_P55273_1BI8_A_1_Q00534_1BI8_B_1.pdb,1BI8,A,B
ENSG00000067560-ENSG00000141522,c962060_P52565_1CC0_C_1_P61586_1CC0_F_1.pdb,1CC0,C,F
ENSG00000095059-ENSG00000095059,c1096552_P49366_1DHS_A_1_P49366_1DHS_A_2.pdb,1DHS,A,A
ENSG00000173207-ENSG00000173207,c1329480_P61024_1DKS_A_1_P61024_1DKS_B_1.pdb,1DKS,A,B
ENSG00000117308-ENSG00000117308,c954812_Q14376_1EK5_A_1_Q14376_1EK5_A_2.pdb,1EK5,A,A
ENSG00000113924-ENSG00000113924,c957043_Q93099_1EY2_A_4_Q93099_1EY2_A_5.pdb,1EY2,A,A
ENSG00000105810-ENSG00000123080,c961978_P42773_1G3N_A_1_Q00534_1G3N_B_1.pdb,1G3N,A,B
ENSG00000002822-ENSG00000164109,c985918_Q13257_1GO4_B_1_Q9Y6D9_1GO4_F_1.pdb,1GO4,B,F
ENSG00000002822-ENSG00000002822,c1086168_Q9Y6D9_1GO4_G_1_Q9Y6D9_1GO4_H_1.pdb,1GO4,G,H
ENSG00000102898-ENSG00000102898,c1139232_P61970_1GY5_B_1_P61970_1GY5_A_1.pdb,1GY5,B,A
ENSG00000151552-ENSG00000151552,c904085_P09417_1HDR_A_1_P09417_1HDR_A_2.pdb,1HDR,A,A
ENSG00000111716-ENSG00000111716,c1029352_P07195_1I0Z_A_1_P07195_1I0Z_B_1.pdb,1I0Z,A,B
ENSG00000132254-ENSG00000132254,c1380635_P53365_1I4L_A_1_P53365_1I4L_B_1.pdb,1I4L,A,B
ENSG00000133731-ENSG00000133731,c946820_P29218_1IME_A_1_P29218_1IME_B_1.pdb,1IME,A,B
ENSG00000106348-ENSG00000106348,c949373_P20839_1JCN_B_2_P20839_1JCN_B_3.pdb,1JCN,B,B
ENSG00000100721-ENSG00000100721,c951607_P56279_1JSG_A_1_P56279_1JSG_A_2.pdb,1JSG,A,A
ENSG00000117143-ENSG00000117143,c1225887_Q16222_1JV3_A_1_Q16222_1JV3_B_1.pdb,1JV3,A,B
ENSG00000158571-ENSG00000158571,c1346758_P16118_1K6M_A_1_P16118_1K6M_A_2.pdb,1K6M,A,A
ENSG00000002016-ENSG00000066136,mmf1328325_P43351_1kn0_a_Q13952_1n1j_b.pdb,1kn0,a,b
ENSG00000173614-ENSG00000173614,c1109897_Q9HAN9_1KR2_C_1_Q9HAN9_1KR2_D_1.pdb,1KR2,C,D
ENSG00000117748-ENSG00000132383,c1416392_P27694_1L1O_C_1_P15927_1L1O_B_1.pdb,1L1O,C,B
ENSG00000146733-ENSG00000146733,c1412281_P78330_1L8O_A_1_P78330_1L8O_B_1.pdb,1L8O,A,B
ENSG00000138814-ENSG00000221823,c1152202_P63098_1M63_E_1_Q08209_1M63_F_1.pdb,1M63,E,F
ENSG00000158825-ENSG00000158825,c1001207_P32320_1MQ0_A_1_P32320_1MQ0_B_2.pdb,1MQ0,A,B
ENSG00000123505-ENSG00000123505,c1079244_P17707_1MSV_B_1_P17707_1MSV_A_1.pdb,1MSV,B,A
ENSG00000132541-ENSG00000132541,c1362186_P52758_1ONI_A_1_P52758_1ONI_B_1.pdb,1ONI,A,B
ENSG00000127125-ENSG00000127125,c957824_Q9HAB8_1P9O_B_1_Q9HAB8_1P9O_A_1.pdb,1P9O,B,A
ENSG00000140263-ENSG00000140263,c905979_Q00796_1PL8_A_1_Q00796_1PL8_B_2.pdb,1PL8,A,B
ENSG00000169738-ENSG00000169738,c1105515_Q7Z4W1_1PR9_B_1_Q7Z4W1_1PR9_B_2.pdb,1PR9,B,B
ENSG00000138621-ENSG00000138621,c1112111_Q96CD2_1QZU_A_1_Q96CD2_1QZU_A_2.pdb,1QZU,A,A
ENSG00000124713-ENSG00000124713,c1402589_Q14749_1R74_B_1_Q14749_1R74_A_1.pdb,1R74,B,A
ENSG00000206172-ENSG00000223609,c1408218_P02042_1SHR_D_1_P69905_1SHR_C_1.pdb,1SHR,D,C
ENSG00000144744-ENSG00000159593,c1001406_Q13564_1TT5_A_1_Q8TBC4_1TT5_B_1.pdb,1TT5,A,B
ENSG00000120437-ENSG00000120437,c1221428_Q9BWD1_1WL4_A_3_Q9BWD1_1WL4_A_4.pdb,1WL4,A,A
ENSG00000110063-ENSG00000110063,c938497_Q96C86_1XMM_D_1_Q96C86_1XMM_C_1.pdb,1XMM,D,C
ENSG00000116791-ENSG00000116791,c1027909_Q08257_1YB5_A_1_Q08257_1YB5_B_1.pdb,1YB5,A,B
ENSG00000197448-ENSG00000197448,c1153969_Q9Y2Q3_1YZX_A_1_Q9Y2Q3_1YZX_B_1.pdb,1YZX,A,B
ENSG00000069424-ENSG00000069424,c1421469_Q13303_1ZSX_A_6_Q13303_1ZSX_A_8.pdb,1ZSX,A,A
ENSG00000164039-ENSG00000164039,c1158344_Q9BUT1_2AG5_B_1_Q9BUT1_2AG5_C_1.pdb,2AG5,B,C
ENSG00000141504-ENSG00000141504,c1023612_Q96F10_2BEI_B_1_Q96F10_2BEI_A_1.pdb,2BEI,B,A
ENSG00000137198-ENSG00000137198,c1260377_P36959_2BLE_A_1_P36959_2BLE_A_2.pdb,2BLE,A,A
ENSG00000053371-ENSG00000053371,c1209520_O43488_2BP1_A_1_O43488_2BP1_B_1.pdb,2BP1,A,B
ENSG00000007255-ENSG00000054116,c1354366_O43617_2C0J_A_1_O75865_2C0J_B_1.pdb,2C0J,A,B
ENSG00000108578-ENSG00000108578,c1364134_Q13867_2CB5_A_3_Q13867_2CB5_A_4.pdb,2CB5,A,A
ENSG00000124357-ENSG00000124357,c919181_Q9UJ70_2CH5_C_1_Q9UJ70_2CH5_D_1.pdb,2CH5,C,D
ENSG00000079387-ENSG00000188612,c1049813_Q9P0U3_2CKH_A_1_P61956_2CKH_B_1.pdb,2CKH,A,B
ENSG00000162482-ENSG00000162482,c1354456_O95154_2CLP_G_1_O95154_2CLP_H_1.pdb,2CLP,G,H
ENSG00000141401-ENSG00000141401,c1185167_O14732_2CZI_A_1_O14732_2CZI_A_2.pdb,2CZI,A,A
ENSG00000165609-ENSG00000165609,c1120612_Q9UKK9_2DSB_C_1_Q9UKK9_2DSB_D_1.pdb,2DSB,C,D
ENSG00000131153-ENSG00000147536,c1381361_Q9Y248_2E9X_H_1_Q9BRT9_2E9X_F_1.pdb,2E9X,H,F
ENSG00000168522-ENSG00000257365,c932577_P49356_2F0Y_B_1_P49354_2F0Y_A_1.pdb,2F0Y,B,A
ENSG00000091140-ENSG00000110435,c1281211_P09622_2F5Z_E_1_O00330_2F5Z_M_1.pdb,2F5Z,E,M
ENSG00000130066-ENSG00000130066,c978846_P21673_2G3T_A_1_P21673_2G3T_A_2.pdb,2G3T,A,A
ENSG00000160307-ENSG00000160307,c1314387_P04271_2H61_B_1_P04271_2H61_A_1.pdb,2H61,B,A
ENSG00000100983-ENSG00000100983,c1030024_P48637_2HGS_A_1_P48637_2HGS_A_2.pdb,2HGS,A,A
ENSG00000239672-ENSG00000239672,c991142_P15531_2HVD_A_1_P15531_2HVD_A_2.pdb,2HVD,A,A
ENSG00000125877-ENSG00000125877,c930412_Q9BY32_2I5D_A_1_Q9BY32_2I5D_A_2.pdb,2I5D,A,A
ENSG00000079387-ENSG00000116030,c1049833_Q9P0U3_2IY1_A_1_P63165_2IY1_B_1.pdb,2IY1,A,B
ENSG00000025708-ENSG00000025708,c921135_P19971_2J0F_A_1_P19971_2J0F_C_1.pdb,2J0F,A,C
ENSG00000141127-ENSG00000141127,c1128832_O60256_2JI4_A_1_O60256_2JI4_A_5.pdb,2JI4,A,A
ENSG00000189171-ENSG00000189171,c914494_Q99584_2KOT_A_1_Q99584_2KOT_B_1.pdb,2KOT,A,B
ENSG00000017797-ENSG00000144118,c922612_P11234_2KWI_A_1_Q15311_2KWI_B_1.pdb,2KWI,A,B
ENSG00000160678-ENSG00000160678,c1160159_P23297_2LLU_A_1_P23297_2LLU_B_1.pdb,2LLU,A,B
ENSG00000069509-ENSG00000140941,c1263541_Q9GZQ8_2N9X_A_1_Q8IVP5_2N9X_B_1.pdb,2N9X,A,B
ENSG00000130707-ENSG00000130707,c1361931_P00966_2NZ2_A_2_P00966_2NZ2_A_3.pdb,2NZ2,A,A
ENSG00000116649-ENSG00000116649,c1111846_P19623_2O0L_B_1_P19623_2O0L_A_1.pdb,2O0L,B,A
ENSG00000151224-ENSG00000151224,c1223876_Q00266_2OBV_A_1_Q00266_2OBV_A_2.pdb,2OBV,A,A
ENSG00000135821-ENSG00000135821,c1398273_P15104_2OJW_D_1_P15104_2OJW_E_1.pdb,2OJW,D,E
ENSG00000125354-ENSG00000168385,c932552_Q15019_2QAG_B_1_Q14141_2QAG_A_1.pdb,2QAG,B,A
ENSG00000110921-ENSG00000110921,c1210232_Q03426_2R3V_A_1_Q03426_2R3V_B_1.pdb,2R3V,A,B
ENSG00000196754-ENSG00000196754,c1215166_P29034_2RGI_A_1_P29034_2RGI_B_1.pdb,2RGI,A,B
ENSG00000139410-ENSG00000139410,c1055065_Q96GA7_2RKB_E_1_Q96GA7_2RKB_E_2.pdb,2RKB,E,E
ENSG00000129187-ENSG00000129187,c1318125_P32321_2W4L_A_1_P32321_2W4L_F_1.pdb,2W4L,A,F
ENSG00000110092-ENSG00000135446,c1032990_P24385_2W96_B_1_P11802_2W96_A_1.pdb,2W96,B,A
ENSG00000135363-ENSG00000198728,c1358247_P25791_2XJZ_D_1_Q86U70_2XJZ_L_1.pdb,2XJZ,D,L
ENSG00000007001-ENSG00000007001,c1023555_O95045_2XRF_A_1_O95045_2XRF_A_2.pdb,2XRF,A,A
ENSG00000079277-ENSG00000100030,c904077_P28482_2Y9Q_A_1_Q9BUB5_2Y9Q_B_1.pdb,2Y9Q,A,B
ENSG00000109846-ENSG00000109846,c1055781_P02511_2YGD_W_1_P02511_2YGD_X_1.pdb,2YGD,W,X
ENSG00000158411-ENSG00000158411,c980480_Q8WV92_2YMB_D_1_Q8WV92_2YMB_B_1.pdb,2YMB,D,B
ENSG00000131165-ENSG00000158411,c1051235_Q9HD42_2YMB_D_1_Q8WV92_2YMB_H_1.pdb,2YMB,D,H
ENSG00000131475-ENSG00000159210,c1167996_Q96H20_2ZME_A_1_Q9BRG1_2ZME_C_1.pdb,2ZME,A,C
ENSG00000131475-ENSG00000136100,c1068462_Q86VN1_2ZME_B_1_Q9BRG1_2ZME_D_1.pdb,2ZME,B,D
ENSG00000136100-ENSG00000159210,c1068469_Q86VN1_3CUQ_A_1_Q96H20_3CUQ_B_1.pdb,3CUQ,A,B
ENSG00000100522-ENSG00000100522,c1184520_Q96EK6_3CXP_A_1_Q96EK6_3CXP_A_2.pdb,3CXP,A,A
ENSG00000102931-ENSG00000213465,c1150507_P36404_3DOE_A_1_Q9Y2Y0_3DOE_B_1.pdb,3DOE,A,B
ENSG00000198650-ENSG00000198650,c1067497_P17735_3DYD_A_1_P17735_3DYD_B_1.pdb,3DYD,A,B
ENSG00000135069-ENSG00000135069,c1048300_Q9Y617_3E77_A_1_Q9Y617_3E77_B_1.pdb,3E77,A,B
ENSG00000111361-ENSG00000111361,c1050150_Q14232_3ECS_D_1_Q14232_3ECS_E_1.pdb,3ECS,D,E
ENSG00000162385-ENSG00000265241,c1118748_P61326_3EX7_A_1_Q9Y5S9_3EX7_B_1.pdb,3EX7,A,B
ENSG00000108349-ENSG00000141543,c948098_O15234_3EX7_H_1_P38919_3EX7_I_1.pdb,3EX7,H,I
ENSG00000139684-ENSG00000139684,c983292_P10768_3FCX_B_1_P10768_3FCX_A_2.pdb,3FCX,B,A
ENSG00000086475-ENSG00000086475,c1369015_P49903_3FD6_B_1_P49903_3FD6_A_1.pdb,3FD6,B,A
ENSG00000153094-ENSG00000171552,c979665_O43521_3FDL_A_1_Q07817_3FDL_B_1.pdb,3FDL,A,B
ENSG00000136273-ENSG00000172613,c1180137_Q99638_3GGR_B_1_O60921_3GGR_A_1.pdb,3GGR,B,A
ENSG00000134202-ENSG00000134202,c1307606_P21266_3GTU_B_1_P21266_3GTU_D_2.pdb,3GTU,B,D
ENSG00000101266-ENSG00000101266,c1324480_P68400_3H30_A_1_P68400_3H30_B_1.pdb,3H30,A,B
ENSG00000100266-ENSG00000100266,c1375430_Q9UNF0_3HAJ_A_1_Q9UNF0_3HAJ_B_1.pdb,3HAJ,A,B
ENSG00000240972-ENSG00000240972,c1256614_P14174_3HOF_A_1_P14174_3HOF_B_1.pdb,3HOF,A,B
ENSG00000150787-ENSG00000150787,c1367219_Q03393_3I2B_A_1_Q03393_3I2B_D_1.pdb,3I2B,A,D
ENSG00000170899-ENSG00000170899,c927204_O15217_3IK7_A_1_O15217_3IK7_B_1.pdb,3IK7,A,B,
ENSG00000119929-ENSG00000119929,c1186688_Q9NTM9_3IWP_C_1_Q9NTM9_3IWP_D_1.pdb,3IWP,C,D
ENSG00000130332-ENSG00000139343,mmf1338923_Q9UK45_3jcr_7_P62306_1i4k_1.pdb,3jcr,7,1
ENSG00000126261-ENSG00000142230,c1403484_Q9UBT2_3KYC_B_1_Q9UBE0_3KYC_A_1.pdb,3KYC,B,A
ENSG00000116030-ENSG00000126261,c1310938_P63165_3KYC_B_1_Q9UBT2_3KYC_D_1.pdb,3KYC,B,D
ENSG00000113558-ENSG00000151876,c1264236_Q9UKT5_3L2O_B_1_P63208_3L2O_A_1.pdb,3L2O,B,A
ENSG00000116120-ENSG00000179115,c1267518_Q9Y285_3L4G_F_1_Q9NSD9_3L4G_E_1.pdb,3L4G,F,E
ENSG00000167720-ENSG00000167720,c1043907_Q9GZT4_3L6R_A_1_Q9GZT4_3L6R_A_2.pdb,3L6R,A,A
ENSG00000075624-ENSG00000075624,c1049450_P60709_3LUE_H_1_P60709_3LUE_J_1.pdb,3LUE,H,J
ENSG00000168710-ENSG00000168710,c1341646_O43865_3MTG_A_1_O43865_3MTG_B_1.pdb,3MTG,A,B
ENSG00000149532-ENSG00000167005,c1375666_O43809_3N9U_B_1_Q8N684_3N9U_C_1.pdb,3N9U,B,C
ENSG00000129151-ENSG00000129151,c938260_O75936_3O2G_A_1_O75936_3O2G_A_2.pdb,3O2G,A,A
ENSG00000113272-ENSG00000113272,c1415323_Q9NWX6_3OTC_A_1_Q9NWX6_3OTC_B_1.pdb,3OTC,A,B
ENSG00000197713-ENSG00000197713,c1013140_Q96AT9_3OVP_B_1_Q96AT9_3OVP_A_1.pdb,3OVP,B,A
ENSG00000211460-ENSG00000211460,c1375294_Q15631_3PJA_E_1_Q15631_3PJA_A_1.pdb,3PJA,E,A
ENSG00000167005-ENSG00000167005,c1375678_O43809_3Q2S_A_1_O43809_3Q2S_B_1.pdb,3Q2S,A,B
ENSG00000111605-ENSG00000167005,c1375594_O43809_3Q2S_A_1_Q16630_3Q2S_D_1.pdb,3Q2S,A,D
ENSG00000183828-ENSG00000183828,c1115390_O95848_3Q91_D_1_O95848_3Q91_C_1.pdb,3Q91,D,C
ENSG00000065621-ENSG00000065621,c1320853_Q9H4Y5_3QAG_A_1_Q9H4Y5_3QAG_A_2.pdb,3QAG,A,A
ENSG00000116918-ENSG00000211460,c1375293_Q99598_3QB5_K_2_Q15631_3QB5_C_1.pdb,3QB5,K,C
ENSG00000160191-ENSG00000160191,c1160448_O76083_3QI3_A_1_O76083_3QI3_B_2.pdb,3QI3,A,B
ENSG00000169764-ENSG00000169764,c1353190_Q16851_3R2W_B_1_Q16851_3R2W_B_2.pdb,3R2W,B,B
ENSG00000109332-ENSG00000121481,c983582_P61077_3RPG_A_1_Q99496_3RPG_C_1.pdb,3RPG,A,C
ENSG00000121481-ENSG00000168283,c1168530_Q99496_3RPG_C_1_P35226_3RPG_B_1.pdb,3RPG,C,B
ENSG00000196511-ENSG00000196511,c1099810_Q9H3S4_3S4Y_A_1_Q9H3S4_3S4Y_B_1.pdb,3S4Y,A,B
ENSG00000107560-ENSG00000132698,c1152412_P57735_3TSO_B_1_Q7L804_3TSO_C_1.pdb,3TSO,B,C
ENSG00000107560-ENSG00000107560,c1218492_Q7L804_3TSO_C_1_Q7L804_3TSO_D_1.pdb,3TSO,C,D
ENSG00000068024-ENSG00000170027,c1363335_P56524_3UZD_A_1_P61981_3UZD_B_1.pdb,3UZD,A,B
ENSG00000117751-ENSG00000172531,c1311416_P62136_3V4Y_A_1_Q12972_3V4Y_B_1.pdb,3V4Y,A,B
ENSG00000136436-ENSG00000197769,c1092006_Q9BXW4_3VVW_B_1_Q13137_3VVW_A_1.pdb,3VVW,B,A
ENSG00000130656-ENSG00000244734,c1340114_P68871_3W4U_F_1_P02008_3W4U_E_1.pdb,3W4U,F,E
ENSG00000114209-ENSG00000115694,c977051_O00506_3W8H_A_1_Q9BUL8_3W8H_B_1.pdb,3W8H,A,B
ENSG00000065833-ENSG00000065833,c1111378_P48163_3WJA_B_1_P48163_3WJA_A_1.pdb,3WJA,B,A
ENSG00000113558-ENSG00000132879,c1264251_P63208_3WSO_A_1_Q9H4M3_3WSO_B_1.pdb,3WSO,A,B
ENSG00000163904-ENSG00000188612,c943221_P61956_3ZO5_A_1_Q9HC62_3ZO5_B_1.pdb,3ZO5,A,B
ENSG00000072832-ENSG00000072832,c1377159_Q14194_4B3Z_D_1_Q14194_4B3Z_B_1.pdb,4B3Z,D,B
ENSG00000137875-ENSG00000153094,c1402330_Q9HD36_4B4S_A_1_O43521_4B4S_B_1.pdb,4B4S,A,B
ENSG00000170854-ENSG00000170854,c1248721_Q8IUF8_4BXF_A_1_Q8IUF8_4BXF_B_1.pdb,4BXF,A,B
ENSG00000172482-ENSG00000172482,c1015270_P21549_4CBR_A_1_P21549_4CBR_A_2.pdb,4CBR,A,A
ENSG00000105755-ENSG00000105755,c951560_O95571_4CHL_B_1_O95571_4CHL_A_1.pdb,4CHL,B,A
ENSG00000240583-ENSG00000240583,c1011733_P29972_4CSK_A_3_P29972_4CSK_A_4.pdb,4CSK,A,A
ENSG00000004487-ENSG00000117625,c1210452_O60341_4CZZ_A_1_Q9P2K3_4CZZ_B_1.pdb,4CZZ,A,B
ENSG00000138663-ENSG00000168090,c903608_Q7L5N1_4D18_D_1_Q9BT78_4D18_F_1.pdb,4D18,D,F
ENSG00000077522-ENSG00000077522,c1231336_P35609_4D1E_A_1_P35609_4D1E_A_2.pdb,4D1E,A,A
ENSG00000131508-ENSG00000167770,c983305_P62837_4DDI_A_1_Q96FW1_4DDI_D_1.pdb,4DDI,A,D
ENSG00000048392-ENSG00000048392,c1139469_Q7LG56_4DJN_A_1_Q7LG56_4DJN_B_1.pdb,4DJN,A,B
ENSG00000065427-ENSG00000106305,c1256657_Q13155_4DPG_E_1_Q15046_4DPG_L_1.pdb,4DPG,E,L
ENSG00000123992-ENSG00000123992,c1322926_Q9ULA0_4DYO_A_5_Q9ULA0_4DYO_A_11.pdb,4DYO,A,A
ENSG00000104522-ENSG00000104522,c1142217_Q13630_4E5Y_B_1_Q13630_4E5Y_A_1.pdb,4E5Y,B,A
ENSG00000100387-ENSG00000174842,c909628_Q92990_4F52_F_1_P62877_4F52_D_1.pdb,4F52,F,D
ENSG00000125743-ENSG00000139343,c1338994_P62306_4F7U_B_1_P62316_4F7U_F_1.pdb,4F7U,B,F
ENSG00000006634-ENSG00000097046,c1084560_O00311_4F9A_A_1_Q9UBU7_4F9A_B_1.pdb,4F9A,A,B
ENSG00000189283-ENSG00000189283,c1319688_P49789_4FIT_A_1_P49789_4FIT_A_2.pdb,4FIT,A,A
ENSG00000114209-ENSG00000134602,c1290732_Q9BUL8_4GEH_C_1_Q9P289_4GEH_D_1.pdb,4GEH,C,D
ENSG00000163041-ENSG00000204209,c1007750_Q9UER7_4H9P_C_1_P84243_4H9P_A_1.pdb,4H9P,C,A
ENSG00000138794-ENSG00000138794,c1358478_P55212_4HVA_B_1_P55212_4HVA_A_1.pdb,4HVA,B,A
ENSG00000100030-ENSG00000162734,c903906_P28482_4IZ5_D_1_Q15121_4IZ5_E_1.pdb,4IZ5,D,E
ENSG00000135363-ENSG00000135363,c1358240_P25791_4KFZ_B_2_P25791_4KFZ_B_6.pdb,4KFZ,B,B
ENSG00000107882-ENSG00000111087,c1130887_P08151_4KMD_A_1_Q9UMX1_4KMD_B_1.pdb,4KMD,A,B
ENSG00000160200-ENSG00000160200,c1264028_P35520_4L27_C_1_P35520_4L27_A_1.pdb,4L27,C,A
ENSG00000125458-ENSG00000125458,c1007065_Q8TCD5_4L57_A_1_Q8TCD5_4L57_B_2.pdb,4L57,A,B
ENSG00000037757-ENSG00000037757,c1387665_Q9BV20_4LDR_B_1_Q9BV20_4LDR_A_1.pdb,4LDR,B,A
ENSG00000136810-ENSG00000265972,c1407136_P10599_4LL4_C_1_Q9H3M7_4LL4_D_1.pdb,4LL4,C,D
ENSG00000103769-ENSG00000167306,c1163200_Q9ULV0_4LX0_B_1_P62491_4LX0_A_1.pdb,4LX0,B,A
ENSG00000147224-ENSG00000147224,c1256948_P60891_4M0U_B_1_P60891_4M0U_A_1.pdb,4M0U,B,A
ENSG00000145692-ENSG00000145692,c1258762_Q93088_4M3P_D_1_Q93088_4M3P_C_1.pdb,4M3P,D,C
ENSG00000149089-ENSG00000149089,c1320491_Q96GX9_4M6R_B_1_Q96GX9_4M6R_C_1.pdb,4M6R,B,C
ENSG00000101266-ENSG00000204435,c1364024_P68400_4MD7_E_1_P67870_4MD7_B_1.pdb,4MD7,E,B
ENSG00000196565-ENSG00000206172,c1145215_P69905_4MQK_F_1_P69892_4MQK_E_1.pdb,4MQK,F,E
ENSG00000108381-ENSG00000108381,c1393391_P45381_4MRI_B_1_P45381_4MRI_A_1.pdb,4MRI,B,A
ENSG00000006007-ENSG00000100652,mmf1415929_Q14973_4n7w_A_Q9NZC3_4r7o_E.pdb,4n7w,A,E
ENSG00000144848-ENSG00000145782,c952409_O94817_4NAW_A_1_Q9NT62_4NAW_D_1.pdb,4NAW,A,D
ENSG00000038274-ENSG00000168906,c1224001_P31153_4NDN_B_1_Q9NZL9_4NDN_F_1.pdb,4NDN,B,F
ENSG00000152556-ENSG00000152556,c1386763_P08237_4OMT_A_1_P08237_4OMT_A_2.pdb,4OMT,A,A
ENSG00000112130-ENSG00000112130,c1142169_O76064_4ORH_H_1_O76064_4ORH_G_1.pdb,4ORH,H,G
ENSG00000157601-ENSG00000157601,c1414406_P20591_4P4S_B_1_P20591_4P4S_A_1.pdb,4P4S,B,A
ENSG00000112667-ENSG00000112667,c909921_O43598_4P5E_A_1_O43598_4P5E_B_2.pdb,4P5E,A,B
ENSG00000100387-ENSG00000130725,c1171895_P62877_4P5O_I_1_P61081_4P5O_B_1.pdb,4P5O,I,B
ENSG00000101444-ENSG00000101444,c1309585_P23526_4PGF_A_1_P23526_4PGF_A_2.pdb,4PGF,A,A
ENSG00000113643-ENSG00000164022,c1077346_Q12904_4R3Z_B_1_P54136_4R3Z_A_1.pdb,4R3Z,B,A
ENSG00000165704-ENSG00000165704,c1032085_P00492_4RAD_E_1_P00492_4RAD_G_1.pdb,4RAD,E,G
ENSG00000131791-ENSG00000132356,c1153034_O43741_4RER_A_1_Q13131_4RER_B_1.pdb,4RER,A,B
ENSG00000132356-ENSG00000181929,c1125285_P54619_4RER_A_1_Q13131_4RER_G_1.pdb,4RER,A,G
ENSG00000131791-ENSG00000181929,c1152985_P54619_4REW_G_1_O43741_4REW_B_1.pdb,4REW,G,B
ENSG00000124762-ENSG00000132646,c1129051_P12004_4RJF_A_1_P38936_4RJF_B_1.pdb,4RJF,A,B
ENSG00000146143-ENSG00000198056,c1122761_P49642_4RR2_A_1_P49643_4RR2_B_1.pdb,4RR2,A,B
ENSG00000162961-ENSG00000162961,c1111638_Q9C005_4RTA_B_1_Q9C005_4RTA_A_1.pdb,4RTA,B,A
ENSG00000057663-ENSG00000205356,c1257109_Q7Z6L1_4TQ1_A_1_Q9H1Y0_4TQ1_B_1.pdb,4TQ1,A,B
ENSG00000116750-ENSG00000130706,c1398300_Q16186_4UEL_A_1_Q9Y5K5_4UEL_C_1.pdb,4UEL,A,C
ENSG00000075142-ENSG00000075142,c1043210_P30626_4UPG_A_1_P30626_4UPG_A_2.pdb,4UPG,A,A
ENSG00000116750-ENSG00000170322,c1072341_Q6P4R8_4WLP_A_1_Q9Y5K5_4WLP_B_1.pdb,4WLP,A,B
ENSG00000170312-ENSG00000173207,c1087870_P06493_4YC6_G_1_P61024_4YC6_H_1.pdb,4YC6,G,H
ENSG00000107643-ENSG00000111266,c1357360_P45983_4YR8_A_1_Q9BY84_4YR8_B_1.pdb,4YR8,A,B
ENSG00000165092-ENSG00000165092,c1364142_P00352_5AC2_A_1_P00352_5AC2_A_4.pdb,5AC2,A,A
ENSG00000103485-ENSG00000103485,c1046949_Q15274_5AYY_B_1_Q15274_5AYY_B_2.pdb,5AYY,B,B
ENSG00000171174-ENSG00000171174,c929222_Q9H477_5BYF_A_1_Q9H477_5BYF_B_1.pdb,5BYF,A,B
ENSG00000165280-ENSG00000165280,c1012399_P55072_5C1A_A_1_P55072_5C1A_B_1.pdb,5C1A,A,B
ENSG00000073111-ENSG00000111875,c963361_P49736_5C3I_A_1_Q9Y294_5C3I_D_1.pdb,5C3I,A,D
ENSG00000111875-ENSG00000278705,c1324921_P62805_5C3I_I_1_Q9Y294_5C3I_K_1.pdb,5C3I,I,K
ENSG00000123395-ENSG00000175224,c1121737_O75143_5C50_A_1_Q9BSB4_5C50_B_1.pdb,5C50,A,B
ENSG00000111218-ENSG00000111218,c1151324_Q9NR22_5DST_F_1_Q9NR22_5DST_E_1.pdb,5DST,F,E
ENSG00000100567-ENSG00000100567,c1361282_P25788_5DSV_L_1_P25788_5DSV_K_1.pdb,5DSV,L,K
ENSG00000132646-ENSG00000132646,c1128991_P12004_5E0T_C_1_P12004_5E0T_C_2.pdb,5E0T,C,C
ENSG00000111725-ENSG00000181929,c1125265_Q9Y478_5EZV_F_1_P54619_5EZV_D_1.pdb,5EZV,F,D
ENSG00000069329-ENSG00000122958,c1319195_O75436_5F0M_A_1_Q96QK1_5F0M_B_1.pdb,5F0M,A,B
ENSG00000126749-ENSG00000126749,c925267_Q92979_5FAI_A_1_Q92979_5FAI_A_2.pdb,5FAI,A,A
ENSG00000005075-ENSG00000171453,mmf930544_O15160_5fj8_C_P52435_5flm_K.pdb,5fj8,C,K
ENSG00000030110-ENSG00000171552,c1350220_Q07817_5FMK_A_1_Q16611_5FMK_B_1.pdb,5FMK,A,B
ENSG00000080815-ENSG00000205155,c1382031_P49768_5FN2_B_1_Q9NZ42_5FN2_D_1.pdb,5FN2,B,D
ENSG00000051620-ENSG00000249915,c937481_O75340_5GQQ_B_1_Q9Y5Z4_5GQQ_D_1.pdb,5GQQ,B,D
ENSG00000249915-ENSG00000249915,c937479_O75340_5GQQ_C_1_O75340_5GQQ_D_1.pdb,5GQQ,C,D
ENSG00000239282-ENSG00000239282,c1105674_Q8WTX7_5GS9_C_1_Q8WTX7_5GS9_D_1.pdb,5GS9,C,D
ENSG00000165280-ENSG00000169696,c1012274_Q9BZE9_5IFW_B_1_P55072_5IFW_A_1.pdb,5IFW,B,A
ENSG00000138750-ENSG00000139496,c966307_Q7Z3B4_5IJN_L_1_Q9BVL2_5IJN_M_1.pdb,5IJN,L,M
ENSG00000138750-ENSG00000213024,c1321708_P37198_5IJN_L_1_Q7Z3B4_5IJN_N_1.pdb,5IJN,L,N
ENSG00000139496-ENSG00000213024,c1321737_P37198_5IJN_M_1_Q9BVL2_5IJN_N_1.pdb,5IJN,M,N
ENSG00000100994-ENSG00000100994,c979492_P11216_5IKO_A_1_P11216_5IKO_A_3.pdb,5IKO,A,A
ENSG00000112699-ENSG00000112699,c976781_O60547_5IN4_C_1_O60547_5IN4_D_1.pdb,5IN4,C,D
ENSG00000140307-ENSG00000165417,c993440_P52655_5IYC_N_1_P52657_5IYC_O_1.pdb,5IYC,N,O
ENSG00000077380-ENSG00000146425,c1087665_P63172_5JPW_A_1_Q13409_5JPW_B_1.pdb,5JPW,A,B
ENSG00000148346-ENSG00000148346,c1253331_P80188_5JR8_B_1_P80188_5JR8_B_2.pdb,5JR8,B,B
ENSG00000140153-ENSG00000152484,c1101575_Q8TBZ3_5K1C_C_1_O75317_5K1C_A_1.pdb,5K1C,C,A
ENSG00000149925-ENSG00000149925,c1270374_P04075_5KY6_B_1_P04075_5KY6_D_1.pdb,5KY6,B,D
ENSG00000008018-ENSG00000129084,c1211667_P20618_5L4G_F_1_P25786_5L4G_1_1.pdb,5L4G,F,1
ENSG00000100519-ENSG00000165916,c1228749_P62333_5L4G_M_1_P17980_5L4G_L_1.pdb,5L4G,M,L
ENSG00000100567-ENSG00000100902,c1361276_P25788_5L4G_N_1_P60900_5L4G_T_1.pdb,5L4G,N,T
ENSG00000041357-ENSG00000101182,c1376500_O14818_5L4G_P_1_P25789_5L4G_Q_1.pdb,5L4G,P,Q
ENSG00000108344-ENSG00000127922,c1185803_P60896_5L4K_S_1_O43242_5L4K_Y_1.pdb,5L4K,S,Y
ENSG00000103035-ENSG00000115233,c1069046_O00487_5L4K_V_1_P51665_5L4K_U_1.pdb,5L4K,V,U
ENSG00000094880-ENSG00000094880,c931669_Q9UJX2_5LCW_C_1_Q9UJX2_5LCW_P_1.pdb,5LCW,C,P
ENSG00000094880-ENSG00000129055,c1070392_Q9UJX2_5LCW_P_1_Q9BS18_5LCW_M_1.pdb,5LCW,P,M
ENSG00000100567-ENSG00000159377,c1361146_P28070_5LN3_G_1_P25788_5LN3_7_1.pdb,5LN3,G,7
ENSG00000074266-ENSG00000106462,c1316165_O75530_5LS6_A_1_Q15910_5LS6_B_1.pdb,5LS6,A,B
ENSG00000160783-ENSG00000167842,c951181_Q6P1K2_5LSJ_A_1_Q9H081_5LSJ_B_1.pdb,5LSJ,A,B
ENSG00000139112-ENSG00000168397,c1180042_Q9H0R8_5LXI_D_1_Q9Y4P1_5LXI_C_1.pdb,5LXI,D,C
ENSG00000112339-ENSG00000152684,c1005509_Q9BRX2_5LZY_jj_1_Q9Y450_5LZY_ii_1.pdb,5LZY,jj,ii
ENSG00000145675-ENSG00000171608,c1257216_O00329_5M6U_A_1_P27986_5M6U_B_1.pdb,5M6U,A,B
ENSG00000067560-ENSG00000175220,c918859_P61586_5M6X_H_1_Q07960_5M6X_I_1.pdb,5M6X,H,I
ENSG00000076924-ENSG00000084072,c1414305_Q9HCS7_5MQF_M_1_Q9UNP9_5MQF_o_1.pdb,5MQF,M,o
ENSG00000175793-ENSG00000175793,c1115087_P31947_5OK9_E_1_P31947_5OK9_A_1.pdb,5OK9,E,A
ENSG00000130957-ENSG00000130957,c1380828_O00757_5Q0C_C_1_O00757_5Q0C_D_1.pdb,5Q0C,C,D
ENSG00000171793-ENSG00000171793,c1191512_P17812_5U03_A_1_P17812_5U03_C_1.pdb,5U03,A,C
ENSG00000198805-ENSG00000198805,c1109484_P00491_5UGF_C_1_P00491_5UGF_B_1.pdb,5UGF,C,B
ENSG00000013275-ENSG00000101843,c1094303_P43686_5VHM_D_1_O75832_5VHM_G_1.pdb,5VHM,D,G
ENSG00000113595-ENSG00000113595,c1029664_P36406_5VZW_F_1_P36406_5VZW_G_1.pdb,5VZW,F,G
ENSG00000092964-ENSG00000092964,c1377134_Q16555_5X1D_A_1_Q16555_5X1D_A_3.pdb,5X1D,A,A
ENSG00000111196-ENSG00000265241,c1034881_Q96A72_5XJC_v_1_Q9Y5S9_5XJC_w_1.pdb,5XJC,v,w
ENSG00000092208-ENSG00000139343,c1294103_O14893_5XJT_2_1_P62306_5XJT_F_1.pdb,5XJT,2,F
ENSG00000092208-ENSG00000205571,c1294087_O14893_5XJU_2_1_Q16637_5XJU_M_1.pdb,5XJU,2,M
ENSG00000128609-ENSG00000213619,c906484_Q16718_5XTI_P_1_O75489_5XTI_H_1.pdb,5XTI,P,H
ENSG00000109270-ENSG00000116586,c940409_Q9Y2Q5_5Y3A_C_1_Q9UHA4_5Y3A_B_1.pdb,5Y3A,C,B
ENSG00000106305-ENSG00000115866,c1263133_P14868_5Y6L_D_1_Q13155_5Y6L_E_1.pdb,5Y6L,D,E
ENSG00000172336-ENSG00000178718,c958991_Q9BUL9_6AHU_G_1_O75817_6AHU_F_1.pdb,6AHU,G,F
ENSG00000148688-ENSG00000167272,c1038068_Q969H6_6AHU_I_1_P78346_6AHU_E_1.pdb,6AHU,I,E
ENSG00000148688-ENSG00000163684,c1239053_P78346_6AHU_J_1_O95059_6AHU_H_1.pdb,6AHU,J,H
ENSG00000104375-ENSG00000151748,c1114259_Q13188_6AO5_A_1_Q9H4B6_6AO5_B_1.pdb,6AO5,A,B
ENSG00000135838-ENSG00000135838,c966393_Q9BXD5_6ARH_D_1_Q9BXD5_6ARH_A_1.pdb,6ARH,D,A
ENSG00000167325-ENSG00000167325,c1169490_P23921_6AUI_C_1_P23921_6AUI_D_1.pdb,6AUI,C,D
ENSG00000111725-ENSG00000162409,c954686_P54646_6B1U_A_1_Q9Y478_6B1U_B_1.pdb,6B1U,A,B
ENSG00000162409-ENSG00000181929,c1125251_P54619_6B1U_C_1_P54646_6B1U_F_1.pdb,6B1U,C,F
ENSG00000131791-ENSG00000162409,c1152928_O43741_6B2E_A_1_P54646_6B2E_B_1.pdb,6B2E,A,B
ENSG00000109814-ENSG00000109814,c1129229_O60701_6C4J_E_1_O60701_6C4J_F_1.pdb,6C4J,E,F
ENSG00000152904-ENSG00000152904,c1104283_O95749_6C56_A_1_O95749_6C56_B_1.pdb,6C56,A,B
ENSG00000142619-ENSG00000142619,c1339223_Q9ULW8_6CE1_A_1_Q9ULW8_6CE1_A_2.pdb,6CE1,A,A
ENSG00000076685-ENSG00000076685,c1370638_P49902_6DDQ_A_1_P49902_6DDQ_A_2.pdb,6DDQ,A,A
ENSG00000132661-ENSG00000162231,c941887_Q9UBU9_6E5U_E_1_Q9UKK6_6E5U_F_1.pdb,6E5U,E,F
ENSG00000079246-ENSG00000196419,c1329074_P13010_6ERG_E_1_P12956_6ERG_D_1.pdb,6ERG,E,D
ENSG00000071539-ENSG00000071539,c1051572_Q15645_6F0X_D_1_Q15645_6F0X_E_1.pdb,6F0X,D,E
ENSG00000071539-ENSG00000124688,c923346_Q15013_6F0X_D_1_Q15645_6F0X_P_1.pdb,6F0X,D,P
ENSG00000124688-ENSG00000164109,c985900_Q15013_6F0X_Z_1_Q13257_6F0X_P_1.pdb,6F0X,Z,P
ENSG00000077380-ENSG00000125971,c1309762_Q13409_6F1T_o_1_Q9NP97_6F1T_t_1.pdb,6F1T,o,t
ENSG00000100129-ENSG00000178982,c989956_Q9Y262_6FEC_7_1_Q9UBQ5_6FEC_6_1.pdb,6FEC,7,6
ENSG00000132109-ENSG00000132109,c1008340_P19474_6FGA_E_1_P19474_6FGA_A_1.pdb,6FGA,E,A
ENSG00000131981-ENSG00000131981,c945911_P17931_6FOF_D_1_P17931_6FOF_C_1.pdb,6FOF,D,C
ENSG00000112578-ENSG00000135521,c1248379_Q13895_6G18_w_1_Q96GA3_6G18_t_1.pdb,6G18,w,t
ENSG00000115946-ENSG00000141101,c1118924_Q9ULX3_6G18_y_1_Q9NRX1_6G18_x_1.pdb,6G18,y,x
ENSG00000184009-ENSG00000184009,c1088366_P63261_6G2T_A_1_P63261_6G2T_C_1.pdb,6G2T,A,C
ENSG00000071462-ENSG00000173113,c1020390_Q9UI30_6G4W_q_1_O43709_6G4W_r_1.pdb,6G4W,q,r
ENSG00000143514-ENSG00000172531,c1311595_P62136_6GHM_A_1_Q13625_6GHM_D_1.pdb,6GHM,A,D
ENSG00000170270-ENSG00000196976,c1283940_Q14657_6GWJ_B_1_Q9BXV9_6GWJ_D_1.pdb,6GWJ,B,D
ENSG00000092094-ENSG00000196976,c1283944_Q9NPF4_6GWJ_K_1_Q14657_6GWJ_B_1.pdb,6GWJ,K,B
ENSG00000132646-ENSG00000166803,c1129090_P12004_6GWS_B_1_Q15004_6GWS_E_1.pdb,6GWS,B,E
ENSG00000077348-ENSG00000120699,c916172_Q96B26_6H25_C_1_Q9NQT4_6H25_D_1.pdb,6H25,C,D
ENSG00000138382-ENSG00000173113,c1181953_Q9NRN9_6H2U_A_1_Q9UI30_6H2U_B_1.pdb,6H2U,A,B
ENSG00000105393-ENSG00000158019,c1125450_Q9NWV8_6H3C_H_1_Q9NXR7_6H3C_I_1.pdb,6H3C,H,I
ENSG00000034713-ENSG00000081307,c1191257_P60520_6H8C_A_1_Q9GZZ9_6H8C_B_1.pdb,6H8C,A,B
ENSG00000173465-ENSG00000173465,c985047_O60232_6HCZ_A_1_O60232_6HCZ_B_1.pdb,6HCZ,A,B
ENSG00000175792-ENSG00000183207,c1034128_Q9Y230_6HTS_A_1_Q9Y265_6HTS_F_1.pdb,6HTS,A,F
ENSG00000109189-ENSG00000140153,c1399623_Q8TBZ3_6JLQ_C_1_P62068_6JLQ_A_1.pdb,6JLQ,C,A
ENSG00000117222-ENSG00000129691,c1228398_Q15291_6KIV_N_1_Q9UBL3_6KIV_T_1.pdb,6KIV,N,T
ENSG00000165140-ENSG00000165140,c946852_P09467_6LS5_A_1_P09467_6LS5_B_1.pdb,6LS5,A,B
ENSG00000147894-ENSG00000176994,c1174073_Q8TEV9_6LT0_E_1_Q96LT7_6LT0_F_1.pdb,6LT0,E,F
ENSG00000099956-ENSG00000139613,c1218799_Q8TAQ2_6LTJ_O_1_Q12824_6LTJ_M_1.pdb,6LTJ,O,M
ENSG00000176974-ENSG00000176974,c1389025_P34896_6M5W_A_2_P34896_6M5W_A_3.pdb,6M5W,A,A
ENSG00000100567-ENSG00000129084,c1132305_P25788_6MSE_a_1_P25786_6MSE_Z_1.pdb,6MSE,a,Z
ENSG00000008018-ENSG00000159377,c1211646_P28070_6MSE_B_1_P20618_6MSE_A_1.pdb,6MSE,B,A
ENSG00000106588-ENSG00000129084,c1132156_P25786_6MSE_V_1_P25787_6MSE_Z_1.pdb,6MSE,V,Z
ENSG00000013275-ENSG00000087191,c1089152_P43686_6MSJ_C_1_P62195_6MSJ_D_1.pdb,6MSJ,C,D
ENSG00000161057-ENSG00000175166,c1240881_P35998_6MSJ_f_1_Q13200_6MSJ_A_1.pdb,6MSJ,f,A
ENSG00000100764-ENSG00000175166,c1156653_P62191_6MSK_f_1_Q13200_6MSK_B_1.pdb,6MSK,f,B
ENSG00000143179-ENSG00000143179,c969515_Q9BZX2_6N53_B_1_Q9BZX2_6N53_B_2.pdb,6N53,B,B
ENSG00000116761-ENSG00000116761,c1273060_P32929_6NBA_A_1_P32929_6NBA_B_1.pdb,6NBA,A,B
ENSG00000143256-ENSG00000155959,c935162_Q9UHV9_6NR9_3_1_P61758_6NR9_2_1.pdb,6NR9,3,2
ENSG00000123349-ENSG00000155959,c935168_P61758_6NRB_3_1_Q99471_6NRB_5_1.pdb,6NRB,3,5
ENSG00000123349-ENSG00000143256,c1002336_Q9UHV9_6NRB_5_1_Q99471_6NRB_2_1.pdb,6NRB,5,2
ENSG00000101132-ENSG00000155959,c935157_P61758_6NRD_3_1_Q9NQP4_6NRD_4_1.pdb,6NRD,3,4
ENSG00000126457-ENSG00000126457,c907570_Q99873_6NT2_A_1_Q99873_6NT2_D_1.pdb,6NT2,A,D
ENSG00000164904-ENSG00000164904,c1418760_P49419_6O4F_E_1_P49419_6O4F_F_1.pdb,6O4F,E,F
ENSG00000113558-ENSG00000153558,c1264339_P63208_6O60_C_1_Q9UKC9_6O60_D_1.pdb,6O60,C,D
ENSG00000110768-ENSG00000153767,c946280_P32780_6O9L_1_1_P29083_6O9L_Q_1.pdb,6O9L,1,Q
ENSG00000213780-ENSG00000272047,c1410223_Q6ZYL4_6O9M_2_1_Q92759_6O9M_5_1.pdb,6O9M,2,5
ENSG00000147155-ENSG00000147155,c1397990_Q15125_6OHU_C_1_Q15125_6OHU_C_2.pdb,6OHU,C,C
ENSG00000110092-ENSG00000111276,c1100820_P24385_6P8G_A_1_P46527_6P8G_C_1.pdb,6P8G,A,C
ENSG00000110092-ENSG00000124762,c1100815_P24385_6P8H_A_1_P38936_6P8H_C_1.pdb,6P8H,A,C
ENSG00000168906-ENSG00000168906,c1223996_P31153_6P9V_A_1_P31153_6P9V_A_2.pdb,6P9V,A,A
ENSG00000047230-ENSG00000047230,c1191496_Q9NRF8_6PK4_B_1_Q9NRF8_6PK4_D_1.pdb,6PK4,B,D
ENSG00000164134-ENSG00000242028,c1239961_Q9BXJ9_6PW9_B_1_Q9NX55_6PW9_D_1.pdb,6PW9,B,D
ENSG00000129691-ENSG00000162961,c1111624_Q9UBL3_6PWV_D_1_Q9C005_6PWV_F_1.pdb,6PWV,D,F
ENSG00000151790-ENSG00000151790,c1320803_P48775_6PYZ_A_1_P48775_6PYZ_B_1.pdb,6PYZ,A,B
ENSG00000130177-ENSG00000176386,c1228522_Q8NHZ8_6Q6G_Q_1_Q13042_6Q6G_G_1.pdb,6Q6G,Q,G
ENSG00000113141-ENSG00000122692,c1243506_Q13123_6Q8I_E_1_Q2TAY7_6Q8I_G_1.pdb,6Q8I,E,G
ENSG00000143977-ENSG00000182004,c1043355_P62304_6QDV_p_1_P62308_6QDV_r_1.pdb,6QDV,p,r
ENSG00000105205-ENSG00000105205,c1338377_Q05315_6QRN_A_1_Q05315_6QRN_A_2.pdb,6QRN,A,A
ENSG00000170860-ENSG00000204392,c940481_P62310_6QX9_62_1_Q9Y333_6QX9_63_1.pdb,6QX9,62,63
ENSG00000164167-ENSG00000170860,c940487_P62312_6QX9_63_1_P62310_6QX9_66_1.pdb,6QX9,63,66
ENSG00000106355-ENSG00000164167,c1339547_Q9Y4Y9_6QX9_65_1_P62312_6QX9_66_1.pdb,6QX9,65,66
ENSG00000130332-ENSG00000130520,c944371_Q9UK45_6QX9_67_1_Q9Y4Z0_6QX9_64_1.pdb,6QX9,67,64
ENSG00000106355-ENSG00000130332,c944360_Q9UK45_6QX9_67_1_Q9Y4Y9_6QX9_65_1.pdb,6QX9,67,65
ENSG00000166200-ENSG00000169727,c1310038_P61201_6R7H_A_1_Q13098_6R7H_B_1.pdb,6R7H,A,B
ENSG00000141030-ENSG00000198612,c1267655_Q99627_6R7H_C_1_Q9UNS2_6R7H_H_1.pdb,6R7H,C,H
ENSG00000100387-ENSG00000108094,c909787_P62877_6R7H_O_1_Q13617_6R7H_R_1.pdb,6R7H,O,R
ENSG00000103363-ENSG00000154582,c1054606_Q15369_6R7H_Q_1_Q15370_6R7H_P_1.pdb,6R7H,Q,P
ENSG00000102119-ENSG00000175334,c1063664_P50402_6RPR_D_1_O75531_6RPR_G_1.pdb,6RPR,D,G
ENSG00000134504-ENSG00000134504,c1354185_Q719H9_6S4L_D_1_Q719H9_6S4L_C_1.pdb,6S4L,D,C
ENSG00000116954-ENSG00000155876,c1257120_Q7L523_6S6D_A_1_Q9HB90_6S6D_C_1.pdb,6S6D,A,C
ENSG00000164615-ENSG00000198356,c917796_O43681_6SO5_A_1_P49069_6SO5_E_1.pdb,6SO5,A,E
ENSG00000164615-ENSG00000182093,c1120223_P49069_6SO5_D_1_O00258_6SO5_E_1.pdb,6SO5,D,E
ENSG00000160202-ENSG00000160202,c1077521_P02489_6T1R_I_1_P02489_6T1R_J_1.pdb,6T1R,I,J
ENSG00000112237-ENSG00000132964,c972896_P24863_6T41_A_1_P49336_6T41_B_1.pdb,6T41,A,B
ENSG00000006712-ENSG00000166477,c998744_Q8WVC0_6TED_V_1_Q8N7H5_6TED_U_1.pdb,6TED,V,U
ENSG00000112530-ENSG00000197889,c1400069_Q5JSS6_6UCC_A_2_Q96M98_6UCC_B_1.pdb,6UCC,A,B
ENSG00000178035-ENSG00000178035,c949423_P12268_6UDQ_E_1_P12268_6UDQ_H_1.pdb,6UDQ,E,H
ENSG00000097033-ENSG00000097033,c1225842_Q9Y371_6UPN_c_1_Q9Y371_6UPN_d_1.pdb,6UPN,c,d
ENSG00000102048-ENSG00000166165,c1244349_P12277_6V9H_A_1_Q96DX5_6V9H_C_1.pdb,6V9H,A,C
ENSG00000111445-ENSG00000163918,c1270684_P35249_6VVO_C_1_P40937_6VVO_D_1.pdb,6VVO,C,D
ENSG00000133119-ENSG00000163918,c1270694_P40938_6VVO_E_1_P35249_6VVO_D_1.pdb,6VVO,E,D
ENSG00000107960-ENSG00000257949,c1277086_Q9H668_6W6W_C_1_Q86WV5_6W6W_D_1.pdb,6W6W,C,D
ENSG00000100554-ENSG00000128524,c1323428_Q9Y5K8_6WLZ_G_1_Q16864_6WLZ_N_1.pdb,6WLZ,G,N
ENSG00000144034-ENSG00000172315,c910236_Q9Y3C4_6WQX_C_1_Q96S44_6WQX_B_1.pdb,6WQX,C,B
ENSG00000104412-ENSG00000131148,c1247338_O43402_6WW7_B_1_Q15006_6WW7_H_1.pdb,6WW7,B,H
ENSG00000127774-ENSG00000169446,c997884_Q8N4V1_6WW7_E_1_Q9BV81_6WW7_F_1.pdb,6WW7,E,F
ENSG00000073111-ENSG00000076003,c963498_P49736_6XTX_2_1_Q14566_6XTX_6_1.pdb,6XTX,2,6
ENSG00000140406-ENSG00000140406,c1014307_Q9H1K6_6XZ4_A_1_Q9H1K6_6XZ4_B_1.pdb,6XZ4,A,B
ENSG00000100908-ENSG00000104412,c981205_Q15006_6Y4L_A_1_Q9Y3B6_6Y4L_B_1.pdb,6Y4L,A,B
ENSG00000128050-ENSG00000128050,c1024251_P22234_6YB8_A_1_P22234_6YB8_B_1.pdb,6YB8,A,B
ENSG00000111640-ENSG00000111640,c1149128_P04406_6YND_A_1_P04406_6YND_C_1.pdb,6YND,A,C
ENSG00000136950-ENSG00000241553,c1380153_Q9BPX5_6YW6_F_1_P59998_6YW6_G_1.pdb,6YW6,F,G
ENSG00000112110-ENSG00000204316,c925663_Q9H0U6_6ZM5_6_1_Q96DV4_6ZM5_P_1.pdb,6ZM5,6,P
ENSG00000174547-ENSG00000183617,c1332913_Q9Y3B7_6ZM5_J_1_Q6P161_6ZM5_l_1.pdb,6ZM5,J,l
ENSG00000104131-ENSG00000104131,c903851_O75822_6ZVJ_J_1_O75822_6ZVJ_G_1.pdb,6ZVJ,J,G
ENSG00000149100-ENSG00000175390,c1030318_Q7L2H7_6ZVJ_M_1_O00303_6ZVJ_F_1.pdb,6ZVJ,M,F
ENSG00000113356-ENSG00000186141,c972947_O15318_7A6H_O_1_Q9BUI4_7A6H_Q_1.pdb,7A6H,O,Q
ENSG00000162521-ENSG00000182979,c944283_Q13330_7AOA_F_1_Q09028_7AOA_D_1.pdb,7AOA,F,D
ENSG00000139343-ENSG00000182004,c1043359_P62306_7B0Y_g_1_P62304_7B0Y_f_1.pdb,7B0Y,g,f
ENSG00000069329-ENSG00000111237,c1267324_Q9UBQ0_7BLN_C_1_Q96QK1_7BLN_D_1.pdb,7BLN,C,D
ENSG00000133318-ENSG00000133318,c961577_O95197_7BRU_A_1_O95197_7BRU_B_1.pdb,7BRU,A,B
ENSG00000100206-ENSG00000100206,c1179115_Q14565_7C98_A_1_Q14565_7C98_B_1.pdb,7C98,A,B
ENSG00000115211-ENSG00000119718,c1247167_Q9UI10_7D43_H_1_P49770_7D43_D_1.pdb,7D43,H,D
ENSG00000092010-ENSG00000092010,c990110_Q06323_7DRW_a_1_Q06323_7DRW_i_1.pdb,7DRW,a,i
ENSG00000167996-ENSG00000167996,c1396949_P02794_7JGM_b_5_P02794_7JGM_f_6.pdb,7JGM,b,f
ENSG00000074266-ENSG00000108799,c1316108_O75530_7KSO_A_1_Q92800_7KSO_B_1.pdb,7KSO,A,B
ENSG00000071539-ENSG00000116670,c1397727_Q9UI95_7L9P_B_1_Q15645_7L9P_I_1.pdb,7L9P,B,I
ENSG00000115484-ENSG00000166226,c1242698_P50991_7LUM_M_1_P78371_7LUM_N_1.pdb,7LUM,M,N
