O00148-Q13838,0.44358
O00231-O00232,0.56758
O00231-O00487,0.64120
O00231-Q15008,0.94567
O00232-O00231,0.56751
O00232-O00487,0.50227
O00232-P51665,0.58130
O00232-Q9UNM6,0.51543
O00303-O15372,0.90565
O00303-Q14152,0.73929
O00303-Q7L2H7,0.89949
O00303-Q9Y262,0.62766
O00330-P09622,0.92691
O00487-P51665,0.83709
O00487-P62195,0.33269
O00487-Q99460,0.88099
O00506-Q9BUL8,0.94183
O00716-Q5H9I0,0.69881
O14531-Q9BPU6,0.49664
O14579-P53621,0.96575
O14744-Q9BQA1,0.97236
O14802-P05423,0.83845
O14802-Q9Y535,0.88935
O14818-P20618,0.39091
O14818-P28062,0.92172
O14818-P28065,0.53250
O14818-P28066,0.95299
O14818-P28070,0.35022
O14818-P28072,0.43618
O14818-P28074,0.92464
O14818-P49721,0.96441
O14818-Q99436,0.51319
O14949-P31930,0.89786
O15143-P59998,0.96992
O15143-Q9BPX5,0.95057
O15144-P61158,0.96270
O15145-P61158,0.94200
O15145-P61160,0.66271
O15160-P62875,0.94610
O15212-Q99471,0.77896
O15212-Q9NQP4,0.64847
O15239-P51970,0.81739
O15318-O14802,0.86359
O15318-Q9BUI4,0.95654
O15318-Q9NW08,0.82322
O15371-P60228,0.50474
O15372-Q7L2H7,0.39973
O15372-Q99613,0.58872
O15372-Q9Y262,0.43030
O15392-Q53HL2,0.95114
O15511-O15143,0.93753
O15511-P59998,0.95888
O15511-P61160,0.75423
O15514-P62487,0.94034
O15533-P30101,0.16739
O43172-O43395,0.64321
O43172-O94906,0.43329
O43172-Q8WWY3,0.55811
O43172-Q9BUQ8,0.40050
O43242-O00232,0.47968
O43242-O00487,0.31493
O43242-P48556,0.78266
O43242-P51665,0.72043
O43242-P55036,0.20790
O43242-Q15008,0.78294
O43242-Q9UNM6,0.19111
O43402-Q15006,0.96656
O43402-Q8N4V1,0.73368
O43482-Q9NYP9,0.90109
O43521-Q07817,0.79717
O43617-Q8IUR0,0.91452
O43617-Q9Y5R8,0.53383
O43678-P28331,0.97698
O43741-P54619,0.94623
O43809-Q16630,0.65956
O43809-Q8N684,0.67687
O43837-P51553,0.97169
O60216-Q14683,0.65478
O60216-Q8N3U4,0.95403
O60216-Q9UQE7,0.55971
O60341-Q9P2K3,0.95334
O60341-Q9UKL0,0.94597
O60566-Q12834,0.49646
O60671-Q99638,0.88699
O60783-P82675,0.52594
O60783-Q96EL2,0.90280
O60825-Q16875,0.84294
O60921-O60671,0.90958
O60921-Q99638,0.93949
O60925-Q99471,0.77013
O60925-Q9UHV9,0.65922
O75306-O75489,0.91053
O75323-Q9BPW8,0.47344
O75461-Q14186,0.73282
O75489-O00217,0.65659
O75489-O43181,0.87824
O75489-O75251,0.91513
O75496-Q9H211,0.91120
O75533-Q7RTV0,0.74996
O75533-Q9BWJ5,0.80911
O75533-Q9Y3B4,0.66571
O75787-Q15904,0.82500
O75792-Q5TBB1,0.84746
O75792-Q8TDP1,0.91561
O75817-Q9BUL9,0.90348
O75934-Q99459,0.18610
O75934-Q9UMS4,0.71013
O94906-O43172,0.13883
O94906-O43290,0.51801
O94906-Q15029,0.66278
O94906-Q8WWY3,0.57639
O94906-Q96DI7,0.41169
O94906-Q9BUQ8,0.35296
O95182-O75489,0.72978
O95299-O75306,0.51662
O95639-Q10570,0.98525
O95639-Q9C0J8,0.71977
O95707-O75818,0.95793
O95777-Q9Y333,0.91769
O95926-Q9BZJ0,0.61521
O95926-Q9HCS7,0.78818
O96000-Q9NX14,0.65148
P00325-P00326,0.53403
P00492-Q9NRG1,0.91934
P04406-O14556,0.97789
P04899-P08754,0.46103
P04899-P09471,0.46492
P04908-P62805,0.52268
P04908-P68431,0.94108
P04908-P84243,0.95517
P04908-Q71DI3,0.95816
P05141-P45880,0.48154
P05198-P41091,0.79997
P05386-P05387,0.47441
P05388-P05386,0.71786
P05388-P05387,0.57421
P05388-P30050,0.71156
P05423-Q9NVU0,0.69532
P07195-P00338,0.98134
P07316-P07315,0.62816
P07355-P60903,0.47639
P07437-Q3ZCM7,0.97045
P07737-P68032,0.69805
P07814-O43324,0.48590
P07814-Q13155,0.95495
P07992-Q92889,0.79203
P08238-Q16543,0.73818
P08263-O15217,0.98838
P08559-P11177,0.97727
P08574-P07919,0.94924
P08621-P09234,0.27344
P08621-P62316,0.63559
P08621-P62318,0.62124
P08754-P09471,0.46521
P08754-P62873,0.72179
P08865-P15880,0.86990
P08865-P46782,0.52001
P08865-P63220,0.94639
P09001-P49406,0.93031
P09001-Q9NYK5,0.53854
P09012-P09661,0.98451
P09210-Q16772,0.98540
P09234-P62318,0.20956
P09382-P17931,0.62021
P09467-O00757,0.98292
P09622-O00330,0.92949
P09661-O43719,0.63204
P09661-P08579,0.98473
P09661-P62318,0.66381
P09884-P49642,0.53806
P0C0S8-P62805,0.52793
P0C862-B2RNN3,0.91574
P0CG13-Q9BVC3,0.69094
P10276-P10826,0.93117
P10276-P13631,0.93793
P10321-P13747,0.91901
P11802-P42773,0.56792
P12004-Q15004,0.93701
P12235-Q9Y277,0.53556
P12277-Q96DX5,0.59860
P12956-P13010,0.92598
P13010-Q8IW19,0.77089
P13804-P38117,0.97764
P13984-P35269,0.46600
P14635-P06493,0.36821
P14678-P08621,0.47243
P14678-P62308,0.73739
P14678-P62318,0.90573
P14868-O43324,0.70165
P14868-Q13155,0.74355
P14868-Q15046,0.98102
P14927-P22695,0.97120
P15880-P46781,0.92226
P15880-P62244,0.88370
P15927-P35244,0.94703
P17980-O00487,0.52958
P17980-P35998,0.92186
P17980-P43686,0.86050
P17980-P51665,0.53318
P17980-P55036,0.48495
P17980-P62195,0.86530
P17980-P62333,0.87798
P17980-Q9UNM6,0.46375
P17987-P49368,0.97016
P17987-P50991,0.96773
P17987-Q99832,0.45109
P18124-P46778,0.73238
P18124-Q02543,0.89294
P18124-Q07020,0.54300
P18754-O00629,0.54720
P18754-P62826,0.93071
P19367-P52789,0.47759
P19387-P52435,0.93646
P19387-P61218,0.69953
P19387-P62875,0.91672
P19404-P49821,0.98265
P19447-P32780,0.47789
P19447-Q13888,0.78986
P19447-Q6ZYL4,0.89726
P19447-Q92759,0.83117
P20231-P20231,0.53686
P20248-P49918,0.79483
P20248-P78396,0.49805
P20339-P51148,0.58846
P20618-P25786,0.91954
P20618-P28062,0.98372
P20618-P28070,0.18248
P20618-P28074,0.17967
P20618-Q99436,0.97295
P20671-P62805,0.53347
P20839-P12268,0.88916
P21266-Q03013,0.98515
P21281-P36543,0.87201
P23396-P46783,0.89295
P23396-P60866,0.92503
P24928-P36954,0.90606
P24928-P52434,0.95795
P24928-P52435,0.92880
P24928-P61218,0.93556
P24928-P62487,0.92009
P24941-O96020,0.92674
P24941-P14635,0.36278
P24941-P20248,0.92339
P24941-P24864,0.93538
P24941-P46527,0.73742
P24941-P61024,0.74910
P25205-P33991,0.77415
P25205-P33992,0.71798
P25205-P33993,0.78341
P25208-Q13952,0.96151
P25786-O00487,0.37120
P25786-O14818,0.89408
P25786-P20618,0.40710
P25786-P25787,0.96684
P25786-P25788,0.18306
P25786-P25789,0.91417
P25786-P28062,0.53775
P25786-P28065,0.54908
P25786-P28066,0.91819
P25786-P28070,0.97158
P25786-P28072,0.54888
P25786-P28074,0.42891
P25786-P49720,0.16527
P25786-P49721,0.53897
P25786-P60900,0.92641
P25786-Q99436,0.39734
P25787-O14818,0.89143
P25787-P25788,0.91254
P25787-P25789,0.85897
P25787-P28062,0.54553
P25787-P28065,0.52111
P25787-P28066,0.96169
P25787-P28070,0.48479
P25787-P28072,0.51894
P25787-P28074,0.95673
P25787-P49720,0.23582
P25787-P49721,0.19742
P25787-P60900,0.96203
P25787-Q99436,0.49925
P25788-O14818,0.96849
P25788-P25789,0.91200
P25788-P28062,0.55323
P25788-P28065,0.97348
P25788-P28066,0.97741
P25788-P28070,0.91122
P25788-P28072,0.96741
P25788-P28074,0.44090
P25788-P49721,0.53949
P25788-P60900,0.97447
P25788-Q99436,0.52220
P25789-O14818,0.90259
P25789-P25787,0.94050
P25789-P28062,0.93621
P25789-P28065,0.53612
P25789-P28066,0.96374
P25789-P28070,0.35307
P25789-P28072,0.52420
P25789-P28074,0.41473
P25789-P49721,0.96042
P25789-P60900,0.96308
P25789-Q99436,0.40527
P26373-P42766,0.52192
P26373-P46776,0.59156
P26373-P61313,0.48786
P26373-P62906,0.39044
P26373-Q07020,0.44735
P27694-P15927,0.96389
P27694-P35244,0.97551
P27707-Q16854,0.93093
P28065-P40306,0.92484
P28066-O14818,0.95716
P28066-P20618,0.95526
P28066-P25786,0.91678
P28066-P28062,0.53094
P28066-P28065,0.53318
P28066-P28070,0.50842
P28066-P28072,0.52612
P28066-P28074,0.54629
P28066-P49721,0.17755
P28066-P60900,0.96401
P28066-Q99436,0.42533
P28070-P28062,0.87571
P28070-P28072,0.47241
P28070-P28074,0.18837
P28070-Q99436,0.95704
P28070-Q99460,0.14622
P28072-Q99436,0.87736
P28074-P28072,0.51370
P28074-P49721,0.98282
P28074-Q99436,0.91598
P28161-Q03013,0.99061
P28331-O75489,0.77687
P28331-P19404,0.96296
P28331-P49821,0.97899
P28340-P49005,0.92801
P28482-P27361,0.53921
P28749-P20248,0.95247
P29083-P29084,0.56917
P29084-P13984,0.33680
P30050-P05388,0.71988
P30101-P07237,0.43890
P30153-P63151,0.54467
P30153-Q15172,0.93667
P30260-Q9BS18,0.85615
P30281-P49918,0.93549
P30876-P19387,0.90417
P30876-P36954,0.89707
P30876-P52435,0.91613
P30876-P62487,0.78149
P30876-P62875,0.91038
P31150-P51153,0.84443
P31150-Q15286,0.89188
P31150-Q9BZG1,0.87330
P31153-Q9NZL9,0.59305
P31371-Q9NP95,0.61732
P31946-P61981,0.96296
P31946-P62258,0.96877
P31946-P63104,0.98832
P31946-Q04917,0.96754
P32119-P30048,0.98798
P32322-Q9UKK9,0.58714
P32780-Q13888,0.61018
P32780-Q13889,0.56176
P32780-Q92759,0.38052
P32969-Q02543,0.81959
P33552-P06493,0.77559
P33991-P33992,0.53562
P33991-P33993,0.78395
P33991-Q14566,0.84337
P33992-P25205,0.70951
P33992-P33993,0.69556
P33993-P25205,0.77562
P33993-P33991,0.77748
P35249-P40937,0.84596
P35250-P35249,0.93397
P35250-P40937,0.96416
P35251-P40938,0.74306
P35269-P13984,0.46165
P35998-O00231,0.43634
P35998-P17980,0.91927
P35998-P43686,0.73675
P35998-P62191,0.87888
P35998-P62195,0.87329
P35998-P62333,0.87153
P35998-Q13200,0.65389
P35998-Q9UNM6,0.20132
P36543-O75348,0.91491
P36578-P18124,0.52546
P36578-P61313,0.44502
P36578-Q02878,0.42617
P36578-Q07020,0.74007
P37198-Q7Z3B4,0.66603
P37198-Q9BVL2,0.42563
P38606-P21281,0.95224
P38936-O96020,0.94914
P38936-P12004,0.95170
P38936-P20248,0.86396
P38936-P30281,0.95575
P39019-P62249,0.89242
P39019-P62269,0.93087
P39023-P62829,0.71683
P39023-P83731,0.85171
P39656-P04844,0.92300
P39748-P12004,0.58031
P40227-P50990,0.95934
P40429-P18077,0.89248
P40429-P39023,0.90033
P40429-P50914,0.76927
P40429-Q02543,0.58438
P40938-P35249,0.96387
P40939-P55084,0.97980
P41091-P20042,0.91443
P41227-Q9BXJ9,0.97929
P42025-P61163,0.49178
P42025-Q9NZ32,0.42898
P43487-P62826,0.97958
P43686-O00231,0.47107
P43686-O00232,0.51853
P43686-O00487,0.39665
P43686-O75832,0.63791
P43686-P51665,0.35521
P43686-P55036,0.16872
P43686-P62195,0.85012
P43686-P62333,0.86775
P43686-Q99460,0.72809
P46060-P63279,0.49291
P46527-P20248,0.81993
P46527-P30281,0.91397
P46777-P27635,0.48146
P46777-P46778,0.87383
P46777-P62913,0.84829
P46779-P36578,0.52393
P46779-P62910,0.89689
P46781-P62847,0.72838
P46782-P46783,0.61809
P46782-P62249,0.90468
P46782-P62851,0.92977
P46783-P25398,0.80056
P47755-P47756,0.92773
P47755-Q9BTE1,0.57173
P47897-P54136,0.21737
P47897-Q12904,0.83089
P48426-P78356,0.98833
P48426-Q8TBX8,0.98099
P48556-O00487,0.44663
P48556-Q9UNM6,0.28330
P48643-P40227,0.90703
P48643-P78371,0.97432
P48643-Q99832,0.89880
P49005-Q9HCU8,0.93498
P49336-P24863,0.94899
P49354-P49356,0.99243
P49368-P17987,0.97131
P49368-P40227,0.98179
P49368-P50990,0.43867
P49368-P50991,0.48311
P49450-Q8NCD3,0.74690
P49642-P49643,0.90866
P49720-P28074,0.50006
P49720-P60900,0.96522
P49720-Q99436,0.98875
P49721-O14818,0.53634
P49721-P28062,0.98678
P49721-P28072,0.50517
P49721-P28074,0.47691
P49721-P49720,0.98342
P49721-Q99436,0.49013
P49736-P33992,0.74254
P49736-Q14566,0.77817
P49770-Q13144,0.98147
P49821-P19404,0.98173
P50213-O43837,0.95900
P50213-P51553,0.96956
P50613-P51948,0.80787
P50616-Q9UIV1,0.94832
P50750-O60563,0.96121
P50914-P40429,0.77830
P50914-Q02878,0.72042
P50990-P40227,0.95134
P50990-P49368,0.44016
P50991-P48643,0.45009
P50991-P78371,0.94871
P51148-P51149,0.64395
P51398-P82673,0.90787
P51532-O96019,0.17105
P51532-Q969G3,0.48522
P51532-Q96GM5,0.46997
P51665-O00231,0.63044
P51665-O00232,0.57592
P51665-O00487,0.52783
P51665-P48556,0.40899
P51665-Q15008,0.63630
P51665-Q9UNM6,0.52730
P51946-P50613,0.79417
P51948-P51946,0.97308
P52298-Q9BXP5,0.83144
P52655-P52657,0.89361
P52948-P55735,0.49819
P53597-Q96I99,0.94611
P53597-Q9P2R7,0.96484
P53621-O14579,0.95729
P54105-O14744,0.95106
P54136-Q12904,0.81321
P54646-P54619,0.44260
P55036-O00231,0.16879
P55036-P51665,0.77061
P55036-Q9UNM6,0.17746
P55072-Q9BZE9,0.12830
P55209-Q99733,0.57944
P55735-Q96EE3,0.49060
P55769-O43172,0.73548
P55769-O43395,0.52581
P55884-Q13347,0.54532
P56192-O43324,0.96336
P56556-O75489,0.81547
P57086-P17028,0.89581
P57735-P62491,0.63740
P57735-Q15907,0.63898
P59998-O15143,0.96616
P59998-O15144,0.95203
P59998-P61158,0.82003
P59998-P61160,0.61577
P59998-Q9BPX5,0.94826
P60228-O00303,0.55455
P60228-O15371,0.50652
P60228-Q99613,0.85677
P60228-Q9Y262,0.67865
P60842-Q04637,0.74701
P60900-O14818,0.94534
P60900-P25787,0.96295
P60900-P25788,0.97599
P60900-P28065,0.91354
P60900-P28072,0.94858
P60900-P28074,0.42456
P60900-P49721,0.53362
P60900-Q99436,0.87952
P61024-P06493,0.76852
P61024-Q13309,0.80402
P61026-P31150,0.88585
P61081-Q15843,0.70838
P61088-Q15819,0.93414
P61158-O15144,0.96411
P61158-P61160,0.49729
P61160-O15145,0.66201
P61160-Q9BPX5,0.75497
P61163-Q9NZ32,0.49882
P61201-Q13098,0.77925
P61201-Q7L5N1,0.53004
P61218-P62487,0.90175
P61247-P62263,0.91013
P61313-P42766,0.79388
P61313-Q9Y3U8,0.82377
P61326-P38919,0.69968
P61326-Q9Y5S9,0.95878
P61353-P49207,0.80644
P61353-P62424,0.53833
P61353-P62888,0.92602
P61513-P62917,0.73466
P61758-Q9UHV9,0.61364
P61956-P63279,0.32588
P61964-Q15291,0.93657
P61981-P62258,0.96624
P61981-P63104,0.96457
P61981-Q04917,0.94402
P62068-Q8TBZ3,0.96771
P62081-P62244,0.95627
P62081-P62277,0.83775
P62136-P36873,0.60259
P62136-P62140,0.48801
P62136-Q12972,0.98653
P62136-Q13625,0.91528
P62136-Q15435,0.89311
P62140-P36873,0.60878
P62191-P17980,0.73474
P62191-P25789,0.46455
P62191-P35998,0.87910
P62191-P43686,0.75895
P62191-P62195,0.85135
P62191-P62333,0.76110
P62191-Q13200,0.65674
P62191-Q99460,0.63010
P62195-O00231,0.17622
P62195-O00487,0.33871
P62195-O43242,0.44744
P62195-P35998,0.86647
P62195-P43686,0.84139
P62195-P62191,0.85716
P62195-P62333,0.84524
P62195-Q15008,0.51509
P62195-Q99460,0.70543
P62241-P62280,0.83917
P62249-P39019,0.89445
P62258-P61981,0.96542
P62258-P63104,0.97107
P62258-Q04917,0.97016
P62269-P62851,0.84136
P62277-P42677,0.93292
P62277-P62888,0.55995
P62280-P62266,0.62390
P62304-P62308,0.92719
P62310-O95777,0.90224
P62310-Q9UK45,0.87010
P62310-Q9Y333,0.92674
P62312-P62310,0.91301
P62314-P62304,0.43137
P62314-P62308,0.93212
P62314-P62316,0.86421
P62314-P62318,0.41264
P62314-Q15029,0.87797
P62314-Q96DI7,0.72597
P62316-O43172,0.72990
P62316-P62304,0.82445
P62316-P62318,0.83833
P62316-Q9BUQ8,0.55871
P62318-P62304,0.81094
P62318-Q15029,0.87507
P62333-O00232,0.47425
P62333-O00487,0.46726
P62333-O43242,0.42863
P62333-P62195,0.81879
P62424-P61313,0.83765
P62424-P61353,0.53367
P62424-P62750,0.59972
P62424-P62917,0.42815
P62424-Q9Y3U8,0.84494
P62701-P46781,0.74060
P62701-P62753,0.82512
P62750-P42766,0.77210
P62805-P84243,0.95733
P62805-Q9UER7,0.47116
P62820-Q9H0U4,0.65036
P62826-O14980,0.83926
P62826-P43487,0.97957
P62826-Q14974,0.74465
P62841-P62269,0.89858
P62888-P49207,0.77069
P62888-P62277,0.14697
P62906-P26373,0.39143
P62913-P62269,0.53733
P62913-P62841,0.55704
P62917-P61513,0.73451
P62979-P62987,0.48176
P63096-A8MTJ3,0.46141
P63096-P08754,0.46594
P63096-P09471,0.46608
P63104-P61981,0.96789
P63104-Q04917,0.96955
P63272-O00267,0.60311
P63279-Q9UBT2,0.64848
P67775-P30153,0.66994
P68371-P07437,0.97586
P68371-Q9BQE3,0.97072
P68400-P67870,0.62572
P68402-Q15102,0.98551
P68431-Q96QV6,0.95937
P68431-Q9Y5B9,0.79443
P78346-O95707,0.88477
P78368-Q9Y6M4,0.49954
P78371-P40227,0.89236
P78371-P48643,0.97329
P81877-Q86U70,0.95046
P81877-Q9BWG4,0.89955
P81877-Q9BWW4,0.90206
P82650-P82663,0.75693
P82650-P82675,0.84384
P82650-P82930,0.71164
P82663-P82675,0.14454
P82663-Q9Y3D3,0.46239
P82673-P51398,0.91294
P82673-P82933,0.76507
P82673-Q96EL2,0.86136
P82914-P82932,0.66707
P82921-P82912,0.88811
P82933-P51398,0.70264
P82933-P82675,0.35567
P83731-P62753,0.69538
P83731-P62829,0.76126
P83916-Q13185,0.55190
P84098-P35268,0.48045
Q00266-P31153,0.98245
Q00535-Q15078,0.94514
Q00535-Q8IZL9,0.55637
Q02080-Q02080,0.93872
Q02080-Q06413,0.96187
Q02108-Q02153,0.90962
Q02543-P46778,0.79301
Q02543-P50914,0.93715
Q02750-P15056,0.85253
Q02750-P36507,0.39329
Q02878-P18077,0.82362
Q02878-P18124,0.48229
Q02878-P46779,0.58923
Q02878-P50914,0.73140
Q02878-P62910,0.46818
Q03518-Q03519,0.78264
Q04917-P63104,0.97172
Q05193-Q9UQ16,0.45968
Q06265-Q9NPD3,0.95244
Q06265-Q9NQT4,0.93156
Q06265-Q9Y3B2,0.54509
Q06330-Q92585,0.85460
Q06587-Q99496,0.69737
Q07020-P46776,0.67625
Q07812-Q07817,0.84706
Q08945-Q9Y5B9,0.57069
Q08AG7-Q96RT7,0.28144
Q09028-Q13330,0.63743
Q12824-Q8TAQ2,0.38975
Q12874-O75533,0.52293
Q12874-Q13435,0.46887
Q12874-Q15393,0.76202
Q12874-Q15428,0.16461
Q13042-P30260,0.45639
Q13042-Q9BS18,0.80524
Q13084-Q8IXM3,0.68220
Q13084-Q8TAE8,0.68378
Q13084-Q9BYD2,0.93138
Q13084-Q9BZE1,0.54893
Q13084-Q9HD33,0.73805
Q13084-Q9NQ50,0.62815
Q13098-P61201,0.76371
Q13098-Q9UNS2,0.92228
Q13123-Q2TAY7,0.60920
Q13131-O43741,0.50741
Q13131-P54619,0.45326
Q13131-Q9Y478,0.45257
Q13155-O43324,0.90982
Q13283-Q9UN86,0.96055
Q13309-P20248,0.64520
Q13405-Q9BYD3,0.92483
Q13409-P63172,0.33660
Q13435-Q15393,0.94343
Q13547-Q13330,0.54928
Q13547-Q6PJG2,0.70908
Q13547-Q9UBB5,0.86985
Q13564-Q8TBC4,0.98218
Q13573-O43660,0.65771
Q13573-O60508,0.44194
Q13573-O95926,0.23874
Q13573-Q99459,0.23232
Q13573-Q9BZJ0,0.43892
Q13573-Q9Y3C6,0.49290
Q13636-Q9UL26,0.57444
Q13765-P20290,0.91947
Q13769-Q96FV9,0.43984
Q13825-Q86YB7,0.98254
Q13838-O00148,0.43276
Q13868-Q9NPD3,0.95790
Q13888-Q13889,0.85808
Q13889-Q92759,0.77674
Q13895-Q96GA3,0.76507
Q14141-Q16181,0.96504
Q14152-O00303,0.71095
Q14152-O15372,0.83631
Q14152-Q7L2H7,0.73815
Q14181-P09884,0.56873
Q14194-Q14195,0.50049
Q14197-Q96DV4,0.55610
Q14197-Q9P015,0.51083
Q14232-P49770,0.89211
Q14232-Q13144,0.61677
Q14232-Q9UI10,0.53408
Q14566-P33991,0.84224
Q14691-Q9BRX5,0.93879
Q14974-P52292,0.82179
Q14974-P62826,0.74992
Q14982-Q9P121,0.59596
Q14997-P25786,0.86978
Q15006-Q8N4V1,0.82950
Q15008-O43242,0.76307
Q15018-P46736,0.90552
Q15019-Q14141,0.47746
Q15022-O75530,0.56746
Q15022-Q92833,0.39076
Q15024-Q06265,0.88692
Q15024-Q13868,0.95911
Q15024-Q5RKV6,0.92723
Q15024-Q9NPD3,0.90503
Q15024-Q9NQT4,0.95666
Q15024-Q9Y3B2,0.58127
Q15029-P62308,0.89617
Q15029-Q9BUQ8,0.59162
Q15046-Q13155,0.98014
Q15118-Q15119,0.96363
Q15369-Q15370,0.96979
Q15369-Q96DX5,0.97144
Q15393-Q7RTV0,0.84268
Q15393-Q9BWJ5,0.83979
Q15427-Q13435,0.55371
Q15435-P62136,0.57561
Q15459-Q12874,0.63158
Q15459-Q15393,0.72980
Q15459-Q15428,0.39176
Q15542-P49848,0.91240
Q15631-Q99598,0.96612
Q15831-Q7RTN6,0.53008
Q15910-O75530,0.83298
Q15910-Q15022,0.81498
Q16186-Q9Y5K5,0.95757
Q16531-Q13619,0.49416
Q16531-Q13620,0.48853
Q16531-Q92466,0.68143
Q16531-Q9BW61,0.90392
Q16539-P49137,0.66026
Q16555-Q14195,0.49639
Q16555-Q9BPU6,0.49494
Q16718-O75489,0.91136
Q16778-P62805,0.82902
Q16795-O75489,0.77115
Q3SYG4-Q8NFJ9,0.48115
Q4U2R6-Q9HD33,0.54680
Q5J8M3-Q15006,0.80219
Q5J8M3-Q9P0I2,0.63664
Q5T653-Q9BZE1,0.90385
Q5TA45-Q96HW7,0.83687
Q5TA45-Q9NV88,0.92008
Q5TBB1-Q8TDP1,0.94444
Q676U5-Q9H1Y0,0.98492
Q68E01-Q9BQ15,0.98338
Q69YH5-P36873,0.90027
Q69YH5-P62136,0.90092
Q6I9Y2-Q13769,0.50893
Q6I9Y2-Q96FV9,0.70573
Q6P1J9-Q6PD62,0.86448
Q6P1K2-Q96IY1,0.36053
Q6P1K2-Q9H410,0.57292
Q6P1K8-Q6P1K8,0.42074
Q6P2I3-Q96GK7,0.94176
Q6P4R8-Q9Y5K5,0.58620
Q6ZN18-Q15022,0.44294
Q6ZN18-Q15910,0.50566
Q6ZN18-Q92833,0.30806
Q7L2H7-O00303,0.90018
Q7L523-Q9HB90,0.87067
Q7L5N1-Q13098,0.53163
Q7L5N1-Q92905,0.84137
Q7L5N1-Q9BT78,0.86240
Q7L5N1-Q9H9Q2,0.58034
Q7L5N1-Q9UBW8,0.55541
Q7RTV0-Q15393,0.83948
Q7Z2W9-Q9H9J2,0.62395
Q7Z3B4-Q9BVL2,0.62089
Q7Z6K3-P53611,0.98542
Q7Z7C8-O00268,0.47464
Q7Z7C8-P49848,0.67841
Q7Z7C8-Q15542,0.66640
Q7Z7C8-Q16594,0.40696
Q7Z7F7-Q96GC5,0.70890
Q7Z7F7-Q9H2W6,0.88148
Q7Z7F7-Q9NQ50,0.32400
Q86SZ2-Q8IUR0,0.50153
Q86SZ2-Q9Y5R8,0.47792
Q86TS9-Q96DV4,0.72275
Q86U70-Q9BWG4,0.94671
Q86VN1-Q9BRG1,0.79556
Q86W42-Q13769,0.77863
Q86W42-Q6I9Y2,0.68351
Q86W42-Q96FV9,0.53917
Q86WV5-Q9H668,0.34438
Q8IXH7-Q9H3P2,0.92876
Q8N142-P30520,0.98255
Q8N4V1-Q15006,0.81241
Q8N5N7-Q8N983,0.78495
Q8N766-Q15006,0.71840
Q8N766-Q5J8M3,0.93991
Q8N766-Q5UCC4,0.96954
Q8N766-Q8N4V1,0.92456
Q8N766-Q9NPA0,0.98072
Q8N766-Q9P0I2,0.91078
Q8N7H5-Q6P1J9,0.30411
Q8N7H5-Q6PD62,0.79377
Q8N9I0-P21579,0.32033
Q8NFJ9-Q96RK4,0.83086
Q8NHZ8-Q13042,0.89895
Q8NI27-Q96J01,0.87735
Q8TAF3-P62068,0.91273
Q8TAF3-Q8TBZ3,0.66557
Q8TAQ2-Q969G3,0.24548
Q8TAQ2-Q96GM5,0.17178
Q8WTW4-O75140,0.82448
Q8WUF5-P62136,0.90947
Q8WUM0-P57740,0.67096
Q8WV22-Q96MG7,0.47741
Q8WVC0-Q8N7H5,0.49919
Q8WVM7-O60216,0.82725
Q8WWY3-O94906,0.57109
Q92506-Q8N4T8,0.50863
Q92552-P82930,0.89063
Q92552-Q9Y676,0.55669
Q92665-O60783,0.74406
Q92665-P82664,0.51553
Q92665-P82673,0.84700
Q92665-P82675,0.57155
Q92665-Q96EL2,0.60763
Q92665-Q96EY7,0.87536
Q92665-Q9Y291,0.56604
Q92759-Q6ZYL4,0.70933
Q92785-Q12824,0.51995
Q92785-Q8TAQ2,0.29308
Q92797-Q9P2I0,0.59532
Q92871-O15305,0.84752
Q92905-P61201,0.64734
Q92905-Q9BT78,0.70170
Q92905-Q9H9Q2,0.67822
Q92905-Q9UBW8,0.82023
Q92905-Q9UNS2,0.60138
Q93050-P61421,0.54419
Q96B26-Q06265,0.45078
Q96B26-Q15024,0.93765
Q96B26-Q9NPD3,0.43387
Q96B26-Q9NQT4,0.93505
Q96BH1-P62837,0.37763
Q96C36-P32322,0.88311
Q96CW5-Q08AG7,0.86799
Q96CW5-Q9BSJ2,0.94789
Q96DE0-Q9BRJ7,0.97515
Q96DE5-P30260,0.87232
Q96DE5-Q9UJX3,0.86045
Q96DI7-Q99459,0.40672
Q96DI7-Q9BUQ8,0.39965
Q96EL2-P82675,0.51223
Q96EL2-P82933,0.50275
Q96EY7-P82673,0.86331
Q96EY7-P82675,0.58679
Q96EY9-Q7Z6V5,0.69881
Q96FW1-P62837,0.59181
Q96FX7-Q9UJA5,0.97800
Q96GM5-Q969G3,0.73223
Q96H20-Q86VN1,0.88934
Q96H20-Q9BRG1,0.91245
Q96I99-P53597,0.94591
Q96IY1-Q9H081,0.36444
Q96IY1-Q9H410,0.48576
Q96K17-Q13765,0.92548
Q96L21-P46777,0.50005
Q96LZ2-Q9UBF1,0.41739
Q96N28-O43715,0.71876
Q96QK1-O75436,0.93342
Q96RT8-P23258,0.58894
Q96RT8-Q9UGJ1,0.82355
Q99436-P20618,0.97355
Q99436-P28070,0.95936
Q99436-P60900,0.88554
Q99459-O75934,0.21961
Q99459-Q9UMS4,0.26604
Q99460-O00487,0.89865
Q99460-O43242,0.15907
Q99460-P48556,0.88192
Q99460-P62191,0.63192
Q99460-P62195,0.71390
Q99460-Q13200,0.46838
Q99471-O15212,0.78222
Q99471-P61758,0.83916
Q99547-Q9NQT5,0.87991
Q99547-Q9Y3B2,0.54348
Q99613-O00303,0.69130
Q99613-O15371,0.89622
Q99613-O15372,0.59278
Q99627-Q7L5N1,0.43749
Q99627-Q92905,0.60044
Q99627-Q9H9Q2,0.52353
Q99627-Q9UBW8,0.58325
Q99627-Q9UNS2,0.93054
Q99832-P17987,0.43932
Q99832-P40227,0.85873
Q99832-P48643,0.89903
Q99832-P50990,0.96885
Q99832-P50991,0.49101
Q9BPX5-P59998,0.94856
Q9BPX6-Q8IYU8,0.71167
Q9BQE3-P07437,0.97190
Q9BRT9-Q14691,0.95851
Q9BRX5-Q14691,0.94092
Q9BSJ2-Q6P582,0.90057
Q9BT78-P61201,0.68942
Q9BT78-Q9H9Q2,0.83510
Q9BUF5-Q9BQE3,0.97012
Q9BUI4-O14802,0.84232
Q9BUL8-Q9P289,0.94756
Q9BUQ8-Q8WWY3,0.44128
Q9BV35-Q6KCM7,0.48488
Q9BV81-Q15006,0.58908
Q9BV81-Q8N4V1,0.89349
Q9BW85-Q99459,0.41804
Q9BWW4-Q86U70,0.94617
Q9BWW4-Q9BWG4,0.90445
Q9BXJ9-P41227,0.98031
Q9BXJ9-Q9GZZ1,0.94337
Q9BYC9-Q7Z2W9,0.88493
Q9BYC9-Q8N983,0.50243
Q9BYD2-Q13084,0.94891
Q9BYD2-Q9BYD6,0.70512
Q9BYD3-Q4U2R6,0.90508
Q9BYD3-Q8N5N7,0.89243
Q9BYD3-Q8TAE8,0.56331
Q9BYN8-P82914,0.57560
Q9BYN8-P82930,0.56540
Q9BZE1-Q9HD33,0.61830
Q9BZE4-Q13823,0.54165
Q9BZJ0-O60508,0.43289
Q9BZJ0-Q96DI7,0.40139
Q9BZJ0-Q99459,0.48963
Q9BZJ0-Q9HCS7,0.42889
Q9C086-Q9Y265,0.63754
Q9GZQ3-Q9H0A8,0.76187
Q9GZS3-Q6PD62,0.66888
Q9H009-P20290,0.92134
Q9H009-Q96K17,0.93119
Q9H081-Q9H410,0.36857
Q9H0U3-Q8TCJ2,0.93417
Q9H0U6-Q14197,0.45385
Q9H0U6-Q96DV4,0.82165
Q9H147-Q6PJG2,0.70643
Q9H1D9-O14802,0.83747
Q9H1D9-O15318,0.52264
Q9H2W6-Q7Z7F7,0.87837
Q9H2W6-Q96GC5,0.59701
Q9H2W6-Q9NQ50,0.84703
Q9H2X3-Q9NNX6,0.45665
Q9H668-Q2NKJ3,0.81772
Q9H936-Q9H1K4,0.46382
Q9H9J2-Q8N983,0.89521
Q9H9Q2-Q92905,0.70456
Q9H9Q2-Q9UNS2,0.64182
Q9HCS7-Q99459,0.56797
Q9HD33-Q16540,0.75129
Q9HD33-Q8IXM3,0.80211
Q9HD33-Q96A35,0.88474
Q9HD33-Q9BQ48,0.85330
Q9NP92-Q16540,0.81686
Q9NP92-Q9BZE1,0.92518
Q9NP92-Q9NRX2,0.71368
Q9NP97-Q96EX3,0.63119
Q9NPD3-Q06265,0.95364
Q9NPD3-Q5RKV6,0.95257
Q9NPD3-Q9NQT4,0.92471
Q9NPF4-Q14657,0.95459
Q9NQP4-P61758,0.68289
Q9NQT4-Q5RKV6,0.95816
Q9NQT5-Q06265,0.94581
Q9NQT5-Q9NQT4,0.96996
Q9NQT5-Q9Y3B2,0.74566
Q9NR50-Q13144,0.96858
Q9NRR4-Q8WYQ5,0.86485
Q9NRX2-P49406,0.81092
Q9NRY2-Q68E01,0.98776
Q9NSD9-Q9Y285,0.98266
Q9NV88-Q96HW7,0.55382
Q9NW08-P05423,0.86850
Q9NW08-Q9Y535,0.78009
Q9NWU5-Q9NYK5,0.60886
Q9NWV8-Q9NXR7,0.82771
Q9NX18-P31040,0.94934
Q9NX20-Q7Z7H8,0.56414
Q9NX55-P41227,0.63479
Q9NX55-Q9BXJ9,0.95321
Q9NYB9-Q7L576,0.87499
Q9NYB9-Q8WUW1,0.76791
Q9NYB9-Q92558,0.66481
Q9NYB9-Q9Y2A7,0.88730
Q9NYK5-Q9BYC8,0.70407
Q9NYK5-Q9NRX2,0.86610
Q9NZL9-P31153,0.57777
Q9P000-Q9H0A8,0.44028
Q9P000-Q9NX08,0.43454
Q9P015-Q13405,0.78942
Q9P015-Q14197,0.51383
Q9P015-Q8TAE8,0.78639
Q9P015-Q96DV4,0.40574
Q9P015-Q9BYD3,0.46177
Q9P0I2-Q15006,0.85819
Q9P0I2-Q8N4V1,0.51960
Q9P0N9-Q92574,0.57750
Q9P2I0-Q9C0J8,0.88273
Q9UBB5-Q13330,0.62667
Q9UBI1-Q9GZQ3,0.43714
Q9UBI1-Q9H0A8,0.41424
Q9UBI1-Q9NX08,0.74205
Q9UBI1-Q9P000,0.35752
Q9UBI1-Q9Y6G5,0.43492
Q9UBQ0-Q96QK1,0.89702
Q9UBQ5-O00303,0.19087
Q9UBQ5-O15372,0.54150
Q9UBQ5-Q9Y262,0.81253
Q9UBT2-Q9UBE0,0.92961
Q9UBU8-Q15014,0.54666
Q9UBU9-Q9UKK6,0.67761
Q9UBW8-Q9BT78,0.85966
Q9UGJ1-P23258,0.95286
Q9UHE8-Q6NZ63,0.86304
Q9UHN1-P54098,0.84899
Q9UHV9-O60925,0.67214
Q9UHV9-P61758,0.61397
Q9UHV9-Q99471,0.47136
Q9UI08-P50552,0.46765
Q9UI09-O95182,0.58792
Q9UI10-P49770,0.97384
Q9UI10-Q13144,0.56017
Q9UI10-Q9NR50,0.92180
Q9UIV1-P62324,0.92169
Q9UIV1-P78543,0.93146
Q9UJX2-Q13042,0.81608
Q9UJX2-Q9BS18,0.86775
Q9UJX3-P30260,0.49658
Q9UJX4-Q9UJX2,0.82361
Q9UJX5-Q9UJX4,0.92887
Q9UJX6-Q13042,0.43832
Q9UJX6-Q9UJX5,0.57831
Q9UK45-O95777,0.49861
Q9UK45-Q9Y333,0.91377
Q9UKF6-Q9P2I0,0.95503
Q9UKK9-Q96C36,0.54670
Q9ULG1-Q9Y265,0.38094
Q9ULR0-Q99459,0.37775
Q9UM07-Q9ULW8,0.52934
Q9UM11-Q13042,0.55666
Q9UM11-Q9UJX2,0.53839
Q9UM13-P30260,0.71520
Q9UMS4-Q99459,0.19398
Q9UNM6-O00232,0.51564
Q9UNM6-O00487,0.55820
Q9UNP9-Q9HCS7,0.58362
Q9UNP9-Q9ULR0,0.54647
Q9UNS2-P61201,0.48171
Q9UNS2-Q7L5N1,0.71781
Q9Y230-Q9C086,0.64154
Q9Y230-Q9ULG1,0.38917
Q9Y248-Q14691,0.48822
Q9Y248-Q9BRT9,0.84205
Q9Y248-Q9BRX5,0.84070
Q9Y265-Q9Y230,0.75010
Q9Y285-Q9NSD9,0.98582
Q9Y291-P82675,0.71470
Q9Y296-Q9Y5R8,0.82439
Q9Y2L1-Q15024,0.54831
Q9Y2Q9-Q9Y399,0.90576
Q9Y2R9-P82912,0.51552
Q9Y2R9-P82933,0.74750
Q9Y2Y1-O14802,0.90413
Q9Y333-O43172,0.72790
Q9Y399-P82933,0.76046
Q9Y399-Q9Y3D9,0.86079
Q9Y3B1-O43715,0.66521
Q9Y3B2-Q06265,0.54708
Q9Y3B2-Q5RKV6,0.75556
Q9Y3B2-Q9NPD3,0.79004
Q9Y3B2-Q9NQT4,0.64967
Q9Y3B6-Q15006,0.96569
Q9Y3C4-Q96S44,0.97160
Q9Y3D3-P82930,0.37119
Q9Y3D5-P82912,0.52509
Q9Y3D5-P82932,0.76551
Q9Y3D9-P82675,0.60228
Q9Y3U8-P26373,0.59240
Q9Y3U8-P46776,0.33861
Q9Y3U8-P61313,0.81434
Q9Y3U8-P62424,0.85297
Q9Y478-P54619,0.75106
Q9Y4Y9-Q9Y4Z0,0.85277
Q9Y4Z0-O43172,0.74610
Q9Y4Z0-O95777,0.92801
Q9Y4Z0-P62310,0.90061
Q9Y4Z0-Q9Y333,0.91952
Q9Y5B9-Q08945,0.57345
Q9Y5J7-P62072,0.90306
Q9Y5K8-P21281,0.79898
Q9Y5R8-Q8IUR0,0.51258
Q9Y676-P82650,0.83707
Q9Y676-P82930,0.42281
Q9Y6G3-Q9NYK5,0.76297
Q9Y6G5-Q9H0A8,0.42207
Q9Y6G5-Q9NX08,0.69923
