Name,NumRes,IF_plDDT,plDDT
A1X4Q1-O14745,124,72.27441311258696,65.71999778222121
A1X4Q1-Q15599,91,72.29719297244493,66.25847994903604
A4IFA9-Q07731,52,87.51235964841922,73.77158475019192
A6NIX2-O60663,66,63.069357395530616,63.38227107009997
B2ZZS9-H2L8A6,86,66.23917570574228,75.67847075700888
B2ZZS9-H2LD76,10,89.78963792091594,79.79820032778738
B2ZZS9-H2LUV9,10,68.40461740327717,78.95611821601156
B3VK31-Q95JH1,71,56.041092258686255,78.27083619499516
B7Z018-Q02870,93,74.93265623813977,71.90053142145895
B9EKI3-P42224,232,72.69962124309303,68.62980502653282
C9WF17-Q26807,277,47.87438173518861,53.53775895319993
F6IB71-P08956,23,79.95556616273441,78.77377515700323
F6IB71-P08957,31,83.08316687150855,87.42904444460527
G0TQZ9-Q9U6W1,119,53.55093872884954,62.385139054176705
G3V608-Q08125,76,61.65647954531647,59.27429635404403
G5DGD4-O24017,146,65.9472776171846,77.64691735909163
O00212-Q7L099,83,76.35683614525696,74.80494367113147
O00238-P01137,63,61.938325369899545,74.73340178942846
O00238-P12465,202,47.67214293244219,57.71494517051397
O00238-P22003,112,56.46361447253618,73.35014627776641
O00238-P22004,104,63.44389683638878,70.3779729047432
O00463-Q8TDR0,97,59.67057394763215,67.57053429833398
O00482-Q96EB6,67,73.63330792454762,62.778384109018454
O00623-O00623,58,49.67813909437206,74.62265197155492
O00623-O75192,4,77.48162104530614,81.01143187776125
O00623-O75381,87,64.77651411286065,69.85645897130837
O00623-O96011,9,73.04780778938785,80.34090190920385
O00623-P28328,313,76.92149887057907,78.06843365779564
O00623-P56589,17,68.09273748899692,79.22602196221676
O00623-Q92968,46,65.69920051305934,68.40973557063244
O00623-Q9Y5Y5,69,65.63149625640614,79.87422573090431
O00626-P51679,101,71.67119960763705,76.29455714710186
O00628-O00628,34,86.60859683158478,93.20358347119009
O00628-O60683,78,74.53947209942754,85.32654588373126
O00628-O75192,27,82.70916634504722,90.02982912657428
O00628-O75381,83,72.88818295846248,75.86620291216964
O00628-O96011,36,86.73886968330963,88.96647913287241
O00628-P28328,16,72.4493660735352,83.0703812086266
O00628-P56589,44,88.07750600940489,86.73676780601855
O00628-Q92968,154,81.31664489834591,73.64034663471998
O00628-Q9Y5Y5,56,75.04170622267536,84.67067771705652
O00716-Q8TAK5,154,44.80204549651125,54.07681013360463
O04291-Q61501,210,57.42060989606999,65.10363469710579
O04291-Q64701,217,53.824697180556406,69.15218487609786
O08584-P11103,330,60.36403048159222,73.16485612376299
O08599-P70452,308,80.22426303479557,82.44208328949432
O08599-Q80T23,159,52.79787810337213,70.95467018705497
O08599-Q8K1E0,88,65.55588778268147,76.14796221413266
O08599-Q99N48,170,59.903600077972754,76.45182960007588
O08599-Q99N50,203,55.93745570799152,64.40779045984733
O08674-P12978,188,54.04364355987403,59.61927019601244
O08715-P31324,158,70.03631026021382,59.04449948170745
O08849-Q9Z0G0,98,69.9503871861925,75.0375856632318
O08915-P53762,123,62.33789125869221,61.99169825383415
O08983-Q99KG7,458,77.52261046961439,69.61196829244948
O14543-O60674,93,61.36062063435411,70.55326883777676
O14640-P35222,306,54.418287896479235,65.10176249936058
O14640-P48729,142,62.8170437809425,65.08589733890663
O14640-P49841,154,64.26639860442634,64.75517747863681
O14640-Q92574,201,58.10568549613635,56.64583922159331
O14775-Q6Y2X3,211,62.14476306391007,65.2278932430663
O14776-O75400,317,53.803192920619765,62.75780628652644
O14776-P07196,161,60.79824363769924,65.46796013295199
O14776-P21246,10,60.698035833804575,68.82698139156095
O14776-P26641,186,53.24338912062745,70.98402227552369
O14776-P51693,242,49.201686105725585,63.39427905999402
O14776-P55854,29,63.8446380122887,68.7394745623927
O14776-Q16891,166,52.24238727332185,65.73070511832087
O14776-Q5T3J3,261,47.103937889768616,54.93223866515535
O14776-Q7L311,221,48.34897925615592,61.60306998065918
O14776-Q9H213,57,60.32183407524931,66.92303894037902
O14776-Q9UKY1,304,48.0549777815016,60.84760539868899
O14893-Q8TEQ6,39,61.0093410103541,72.31062847985783
O15105-P31269,51,54.703722760486976,62.936710663319886
O15105-P31273,61,74.95102359882026,65.02640842247442
O15105-Q13363,84,68.83538366722455,72.39941958660538
O15105-Q9UPN9,151,53.881898180739306,59.064088084294
O15111-Q96Q05,180,44.373489428737166,67.73948673336383
O15116-O15116,69,84.44309711633262,83.14784393795827
O15116-O95777,47,92.998750966956,87.73937777401717
O15116-Q9UK45,50,81.08786702420738,83.83269424209496
O15116-Q9Y4Y9,123,89.30667984853967,86.10286885502276
O15151-P04637,23,66.61532888258625,68.44085683901439
O15169-P30153,272,63.79040820081808,66.15419762554683
O15169-Q13485,101,63.224461275953644,59.17099477272742
O15169-Q15797,128,61.051080850660114,61.30694637425047
O15169-Q99717,177,65.90684810076652,61.44456465505448
O15197-Q5JZY3,557,62.14984104016615,70.72790333305457
O15304-Q92633,53,52.713710325181914,72.37281127547384
O15304-Q9UBY5,58,53.8274091710713,72.58793315565784
O15315-O43542,298,74.2831634733626,78.47749395819129
O15315-Q9BXW9,115,55.15811853278388,74.28880342812961
O15360-Q00597,91,59.00783029378414,71.74929190674683
O15379-Q99814,137,62.244197829015846,63.53107155639315
O15492-P25100,129,63.489367032271716,64.7281280648606
O15492-P35348,155,64.87746814246367,66.57760257431069
O15492-P35368,148,69.92909351261598,66.15868098051592
O15530-O95988,107,59.9446367639584,72.77362629188737
O15530-P56277,62,63.43985135580849,75.23169381521663
O15530-P56279,112,72.32665250930472,75.25627357066894
O24456-P49177,75,80.13319974757178,89.59196565105862
O26901-P0AGE0,221,61.441465095228075,86.01782833798922
O30916-P55072,141,58.972589079469145,80.47846025304615
O34580-P37455,125,56.28536347172934,81.44391539818474
O35182-P70323,134,58.827287308139645,62.32290328024547
O35551-Q3UMR0,152,62.239605513865854,62.824411535529414
O35625-P70339,179,66.47289901190247,56.28291684526682
O35657-P01132,104,63.237278874134226,70.27669582349786
O35717-P05532,220,60.488498629648504,52.69987836555493
O35718-P05532,108,54.53518367390966,56.306391751047066
O35718-P52332,90,55.01852232877944,65.87895486036788
O35718-Q62120,103,54.39956235055051,69.32300938716227
O35984-Q7TPV4,309,50.57317068217435,67.16381137281158
O43172-Q15029,10,71.66059575463623,80.38866953149122
O43194-Q9UBU3,153,65.31810534147617,68.64933671789831
O43290-O43447,8,68.21406492505703,64.4374940161816
O43290-P83876,15,69.53287303333218,64.35336993323314
O43290-Q15029,43,57.722076133646695,65.46174341675766
O43353-P57730,54,87.64238080582706,76.57216570049117
O43353-Q5XLA6,31,83.03272584609729,74.9422219452287
O43395-O43395,877,72.70701464132065,60.76167581766361
O43395-O43447,21,58.2754920952699,72.51769765393168
O43395-O94906,349,65.3450326050743,68.74434649799944
O43395-P83876,21,57.465233793988084,72.1381800936385
O43395-Q15029,210,65.00845963024082,72.76028988087788
O43395-Q8WWY3,83,51.770172798211654,68.18688867319881
O43395-Q9BUQ8,81,47.28532771891255,67.29234028476931
O43447-O43447,43,92.92880556457555,93.28521522920673
O43447-O94906,49,59.29028773694268,75.36498855887803
O43447-Q15029,34,66.32842796581292,86.2022486366579
O43447-Q53GS9,91,77.35899449535918,80.26820820089601
O43447-Q9BUQ8,14,78.94422618901795,74.55160172643194
O43502-Q9BXW9,62,50.55211894748684,74.66088931452495
O43541-Q9UPN9,126,55.82052716454562,57.94010184691579
O43542-O43543,273,78.76051899116382,81.16320107236604
O43542-O75771,243,78.10262039916825,81.68840042399769
O43542-Q9BXW9,108,70.25216897176759,74.64172599971592
O43543-Q9BXW9,230,68.8670207852346,73.60534426072826
O43559-P61587,64,75.66210487573777,56.0823281609702
O43623-Q13363,112,82.57752386673211,71.39535672126136
O43739-P10276,116,57.48684089636699,76.2563230251024
O43929-P49736,0,0,73.75213763590973
O54880-P60881,57,61.173920660161336,68.23025851224988
O54968-Q05343,176,65.8114657705376,58.58535396629698
O55003-Q99JI6,50,70.27270359353493,72.24161904131425
O55055-Q9UJW3,156,67.50402069040136,77.4593750103516
O55131-P42208,276,72.21848956161861,74.37215133563399
O60260-P56524,138,59.095780171849135,64.77341361428059
O60313-Q7Z434,121,51.615121719586895,63.140156835904094
O60423-Q3MIR4,427,81.5062799752652,73.18166288949575
O60566-P08700,26,55.668004948721624,61.386151154640054
O60583-P28799,78,78.70662035474787,63.22152127421646
O60683-O75192,26,73.17656108362561,82.26575034568842
O60683-P28328,192,88.70604942100874,80.46861048798496
O60683-P56589,15,88.70218535343554,81.03158353506407
O60683-Q92968,25,75.45245023748633,70.87133473778935
O60683-Q9Y5Y5,20,64.09098782846532,81.27475922471574
O60716-O60716,789,51.47146986615793,58.68079061068405
O60716-P14923,266,56.53513463478061,66.06373151505483
O60716-P35221,391,51.18661057403817,66.69730176514388
O60716-P35222,317,58.35021977630482,65.52756128479098
O60716-P60568,80,60.72213490138754,64.1732798562261
O60716-Q9UBT7,550,53.89352880436003,66.65545278071937
O60784-O95405,362,60.49429778325596,56.7942594559453
O60832-O15360,34,55.47705749354023,74.05858511491898
O60885-P12004,79,65.50703229542918,59.52284933280254
O60907-P09874,314,70.92967753149492,78.36856959769379
O60907-Q04724,165,73.87055529118969,70.16926068853788
O60936-P62995,4,61.03158674932896,58.82118337247167
O60936-P63162,41,74.8637639527962,65.21549211927109
O60936-P84103,58,89.54490685546085,66.47756585578028
O60936-Q01081,37,92.24384859297757,73.8282892320846
O60936-Q01130,55,88.65896637758695,64.2006904955481
O60936-Q07955,37,85.93652837691323,67.50787294026244
O60936-Q08170,74,83.00399341582877,58.239386726534825
O60936-Q13247,64,84.51966852922791,63.091844302444706
O60936-Q15424,48,61.62779408206442,55.426826055594994
O70355-P09793,51,80.6214085184742,81.32643949548753
O70355-P31041,56,70.16576831389071,79.51427908621739
O70355-Q02242,111,77.69140578019368,76.28490175609551
O70355-Q7TSA3,107,68.10647273058888,75.31095555233178
O70355-Q9WVS0,30,64.71376267209529,77.92162481618796
O70433-Q62219,189,62.52660783284915,72.80094875618342
O70622-Q7M6Z0,77,57.397038532789885,62.41721026017128
O70622-Q8K0S5,104,60.2766682183874,63.24690859450421
O75175-O75175,604,66.88294722193457,56.670450426561345
O75175-P17036,269,64.28391786410668,62.156396735132255
O75175-P18847,158,68.86045239441647,63.42133100452217
O75175-P18848,116,64.93884008438485,58.004326190187875
O75175-P25963,44,60.87286375143292,64.31027065164137
O75175-P31150,129,61.2428431442444,71.05477750090503
O75175-P36915,123,59.251331456314,65.92079173515378
O75175-P41240,114,60.60158419051126,66.99579651419886
O75175-P62879,44,70.93479505537483,70.1342213127461
O75175-Q14192,134,66.60516989143296,67.55146799510302
O75175-Q16828,93,52.90013546662159,63.578449662796466
O75175-Q68DY1,199,61.77149057156588,63.64592381864996
O75175-Q70SY1,212,60.30673725280124,56.67207126601679
O75175-Q8TAU0,121,58.04728491551909,57.282888959118594
O75175-Q8TBX8,59,53.18852014596768,66.01357472702199
O75175-Q92730,60,80.88319451444676,65.70375571880703
O75175-Q92785,99,69.74334750033468,61.4143664337159
O75175-Q93096,55,64.90054782804552,64.99342652513333
O75175-Q9H2S9,201,48.17954394808816,56.222317601147296
O75175-Q9H6S3,165,60.95124563749015,65.32101021635725
O75175-Q9H9D4,362,59.28962356059229,56.96451888948876
O75175-Q9NQX6,398,66.23561228079069,64.32457315262316
O75175-Q9UDV6,176,61.92244502599045,58.73242687571377
O75175-Q9UH92,95,60.88627636287759,62.788080987314544
O75175-Q9UHR5,63,63.21978711074844,59.78475327328954
O75175-Q9UHX1,36,74.42828398079526,62.45130651353587
O75190-P02533,40,58.20213704564262,65.78815087119527
O75190-P08670,57,62.47813803918977,68.18275636923516
O75190-P13647,56,63.57652025406135,62.94537526589356
O75190-P14136,39,60.7191396677092,69.9624003466735
O75190-P17661,34,62.54003610317396,67.98655574581522
O75192-O75192,147,90.59545166271064,86.94036936573298
O75192-O75381,116,63.76436024209338,68.49081364697965
O75192-O96011,147,84.7894886974221,83.01673662551272
O75192-P28328,18,72.33571498057877,80.52638603361176
O75192-P56589,24,78.47490369007545,83.31026728995208
O75192-Q92968,83,61.80340543191223,68.6481127918564
O75192-Q9Y5Y5,56,66.5635933098226,79.47565239695491
O75360-Q04724,31,63.699863627794606,63.57064947262094
O75381-O96011,59,80.43607664065982,70.20733929701865
O75400-O75400,885,58.782710201496734,54.24906683541514
O75400-P07196,262,64.0059218257272,65.88202093157588
O75400-P21246,64,75.0945818682469,67.53001556562202
O75400-P26641,138,68.1332114799706,70.08677026026184
O75400-P55854,69,86.03426447250853,67.82415820915483
O75400-Q16891,249,56.496031223360696,65.10460711044449
O75400-Q5T3J3,214,47.04710634795909,53.001410760561384
O75400-Q7L311,146,48.94865398830954,60.845617468998746
O75400-Q9H213,58,63.21247533756558,65.98774768328157
O75400-Q9P2H0,507,48.62452146406924,50.3562142607297
O75410-Q92831,194,57.52507719571295,60.77084138426169
O75414-P04637,44,77.57540403715726,74.8900714813633
O75419-P49736,76,83.21440400508511,75.87010584746386
O75446-Q06330,88,65.43193043798013,76.71829223729085
O75446-Q96QT6,57,56.489040274303385,56.80192249358526
O75496-P49736,59,49.629117790043566,69.9131416772497
O75528-P10276,105,58.732509177994096,71.03127832790933
O75531-O43186,32,91.606813105585,65.80359292359559
O75558-Q13642,16,53.55318498346469,72.76056203910193
O75558-Q13643,65,64.56716285295018,78.53797158437611
O75558-Q14192,48,75.87458320828478,80.34147650092717
O75674-Q7Z3T8,285,50.53388507653353,55.112860884940254
O75771-Q9BXW9,58,66.463062409886,74.3513185002296
O75791-P22681,95,66.39665637445184,61.43151432806849
O75791-Q07666,48,61.82649777913367,63.89432886819192
O75791-Q07889,170,53.39965913567569,70.29159648195582
O75888-Q96RJ3,119,68.52540479094199,69.02230381336956
O80809-Q9SYQ8,456,77.49110644943639,80.85979280167177
O88346-P0C605,172,77.37305842881966,76.23217911533622
O88346-Q61410,173,56.693414232444034,70.10800724623653
O88565-P47224,58,88.45068878433005,82.42118453368656
O88777-Q99569,250,47.261494208572756,56.908341285452885
O88895-P97503,170,72.33502509825679,70.48490589141642
O88974-P37238,235,55.666372048251766,63.21664219775512
O89100-Q9Z1S8,88,78.49244952341685,55.4682707524262
O94907-P04628,87,79.1794917010128,74.18865280503671
O94907-Q9BQB4,17,52.944618573895134,63.372731249576816
O95271-P70371,264,49.75944288328559,64.09513158705566
O95361-Q9ULZ3,8,62.48791204328354,78.38744808012173
O95777-O95777,60,93.46948990028619,93.08850973195636
O95777-Q9Y4Y9,113,90.63823687179789,90.87208115929852
O95819-P62834,125,71.94972555432004,64.55561599909757
O95983-Q9UJW3,38,64.80781739939937,75.80443625524893
O95999-Q13489,246,69.0143911387857,70.91223925686302
O96011-O96011,153,86.6420441272835,83.37952678421838
O96011-P28328,20,75.80647093443852,80.45248310106629
O96011-P56589,44,81.45835340548349,81.77715501447777
O96011-Q92968,25,76.20739655326072,69.86280475619476
O96011-Q9Y5Y5,37,78.74608284303882,79.51366106063722
O96020-P49736,36,45.620738892860174,71.36993337152181
P00533-Q96B97,203,54.03866720339412,58.45523700917427
P00709-Q9NNX6,61,79.9499589850996,69.11220650673715
P00772-P22298,179,82.61962901896571,83.45653393691963
P00813-P27487,47,80.00580153855896,91.03328143145166
P00915-P02730,35,74.5767777988845,81.20313180259271
P00918-P40879,68,71.2911075294678,83.856018549916
P00973-Q9UIS9,218,59.15993440930296,62.83420999099441
P01100-P35452,16,72.14714581733087,55.208351244081435
P01100-P49736,87,48.42175429378536,64.68071089210349
P01108-Q3UPW8,72,56.761996842434435,51.383236632809414
P01112-P28482,103,66.68761949484896,85.18656224211368
P01112-P45983,128,68.16088395425574,80.62078954276683
P01112-Q16539,116,67.93909893478057,85.57543179615396
P01116-Q7L099,87,77.0767827160122,76.656248779997
P01135-Q969G9,32,69.6374083358837,52.96259632384461
P01140-P00756,33,83.49884900197092,85.55910810750727
P01140-P00757,45,71.20196097746239,87.5610475243502
P01186-P30560,153,69.51369953371702,69.21437052780972
P01236-P62937,107,84.49727056671145,85.05442316171083
P01286-P20396,24,67.25436229867833,56.13607020599865
P01344-P08069,189,61.3763262610633,60.63569181297977
P01375-P00533,150,55.70530634403805,67.59398844434249
P01582-Q61730,105,67.34977277861199,74.70434930340069
P01583-P00533,216,57.706733114133755,66.94092830673051
P01857-P26151,191,82.00764755113067,77.390938034538
P01857-P98086,73,78.50108729671182,80.80097512362507
P02340-Q6I6G8,304,53.44027821261566,59.41478393475499
P02545-P04792,5,55.88227018622032,71.19684027030243
P02545-P31946,124,61.63507608294761,77.0494051486283
P02545-P49069,24,52.23416295240482,68.72083858214415
P02545-Q9D666,48,62.72948228057612,62.53424800816938
P02554-Q8HY58,140,71.69911542469119,83.4624413640042
P02753-P52205,41,74.99881342247005,83.34449173972794
P02765-P07384,115,64.14960048613709,79.44123812225246
P02765-Q9Y6Q1,108,60.66786550569265,80.84351773295303
P02769-O27798,5,70.65062192260726,81.99228491963555
P02769-P00747,75,74.06289010229911,82.56920754881817
P02769-P04840,61,73.81177723253035,88.2953772656616
P02769-P63300,74,82.27899913730491,89.24267266034072
P02769-Q06609,66,73.58194924533633,87.17786633101112
P02771-P02870,125,64.0052288983979,83.2490053113768
P02778-Q16570,278,69.11671067273971,75.15954126208054
P02788-Q9NNX6,105,76.90424716533713,83.21868706427462
P02870-Q8C129,124,74.66970958863325,84.14882942444737
P03073-P02340,103,60.571635735159624,71.74954106843084
P03244-Q14790,78,57.09364238531883,75.81995801080086
P03393-P14753,82,53.337575074678995,61.043797728869045
P03495-P05161,69,72.0457529617781,66.5236835996018
P03966-Q3UPW8,27,59.907041204647314,54.084402844395186
P03973-Q9NNX6,98,66.92941496236298,67.01343521670353
P03995-P05627,61,59.75684458045773,67.41430699209701
P04003-P25445,68,76.55380841196765,73.54269159958716
P04003-P25942,117,82.05354110130776,75.33221111245378
P04003-P48023,93,72.16595504204213,75.57961873092573
P04049-Q9BR65,71,76.22911367303263,65.97169454321349
P04141-P26951,133,82.95732038286903,80.0430218850947
P04141-Q6NSJ8,50,54.37513822299998,58.97562346260134
P04150-P22087,173,64.91426044766735,62.26495491656346
P04150-Q92786,212,65.80425106537962,54.009824851838495
P04156-Q9UM11,78,70.22736283974992,71.22060696917518
P04163-P02540,0,0,74.1810436689942
P04234-P43403,20,64.56462032294368,72.40641432019872
P04406-B1P6E5,2,60.920543896645974,82.72251062538363
P04626-O00459,327,59.01150514223044,65.20499420958865
P04637-P56597,114,64.42374807809789,73.26081311972011
P04637-Q01105,52,52.62718471008271,71.80432503993887
P04637-Q13232,76,68.27741786050065,74.47255736037211
P04792-P06730,82,69.10633150154212,74.89483994245239
P04792-P19940,129,61.32252353172873,72.99689885202973
P04792-P23588,146,54.233720773929946,53.732339754489054
P04792-P60842,83,66.97220328803644,75.04736535684378
P04792-Q14152,144,55.66472334592529,63.78963359573284
P04792-Q9BUB5,169,50.130585392829595,65.57944588318992
P05627-P08553,165,55.72085360375195,58.297828267360465
P05627-P28738,57,64.55038254318369,70.09997617999734
P05627-P33175,135,55.35261637376747,66.80516542635516
P05627-P57776,0,0,63.406203173473145
P05627-Q61768,87,67.99947516252908,68.68391918325938
P05627-Q6PER3,26,62.939615996351314,64.47799350927816
P05627-Q9ESN9,176,45.51075343650954,57.96989340889013
P05696-Q62132,225,57.441752172418006,69.83001736053889
P05712-Q9WUD9,68,63.90051712360126,76.16727534997463
P05771-P06241,181,68.74327986631795,75.83244786616757
P05771-P12931,178,70.24352871634694,75.44750707364724
P05783-P00747,123,70.70504162684387,76.975451029713
P05814-Q9NNX6,16,59.047105892634114,58.18892977602951
P05943-P35213,22,85.56851808434278,90.29011668500544
P06241-P17252,126,70.84600919600983,75.76525351768686
P06400-P84022,216,58.24136910049855,73.42312088424127
P06400-Q15796,202,51.900296804966345,71.18109089666619
P06400-Q9NX02,288,64.17208868376458,71.99299408403647
P06493-P24864,232,87.3238058200556,82.00058480010863
P06685-Q01728,134,65.75074936840198,73.23175235700687
P06703-P23297,129,84.37584332487297,82.25501860225226
P06729-P09326,138,82.42103061849046,75.19507938751303
P06729-P13987,94,78.91477955159712,76.23983533755009
P06730-Q9HB40,52,63.344304615042056,86.38163297645731
P06730-Q9UKV8,51,86.12569322103236,86.95023119783941
P06750-P97797,199,68.54122463322442,78.29562855733472
P06753-P60981,2,79.77740550861834,87.597412310591
P06876-P02340,63,68.2986229613587,58.681334282521874
P07196-P21246,12,70.1213410840833,69.43753364278
P07196-P26641,114,68.26956529991756,73.84686275751301
P07196-P51693,120,56.409152557985195,66.03130336156745
P07196-P55854,0,0,71.73710309800248
P07196-Q5T3J3,158,65.0839505378266,54.23379652510838
P07196-Q7L311,123,65.60788543611706,64.13435081830252
P07196-Q9H213,9,67.85626854129096,68.97556264032957
P07196-Q9P2H0,262,59.763174535858155,51.232050287503775
P07196-Q9UKY1,170,64.36416237788447,62.358809575951774
P07203-P09917,92,71.98341439043594,90.77582810228132
P07249-P13574,66,65.31891573399774,54.498139798396096
P07249-P19419,91,90.25586053152401,58.88424204026173
P07437-P09874,161,61.395849191189185,80.57204778729763
P07437-Q04724,143,68.29991490249922,72.4192009710067
P07620-P06136,18,86.70552171902598,88.04626708664782
P07620-P0A6S5,23,84.03558842308632,88.92293583590298
P07620-P0A9A6,40,77.73082717482906,84.41322699934207
P07620-P0A9X4,58,84.95212649266576,88.93491916399549
P07620-P0ABG4,27,79.15468683740639,87.42454828778659
P07620-P0ABH0,14,87.41159336184575,89.66817370102773
P07620-P0AC30,17,64.62937181960761,85.87548791612004
P07620-P0AD68,31,74.75456525786117,88.84805575348278
P07620-P0AEN4,32,85.34424205381103,89.21875140237266
P07620-P29131,27,78.98002555083005,79.39256241323139
P07621-P06136,10,60.0476668571605,82.18498836345579
P07621-P0A6S5,13,62.61548899943048,81.93802884751986
P07621-P0A9A6,86,78.96365443978735,78.9948266827967
P07621-P0A9X4,166,79.00945687535176,82.09690279935042
P07621-P0ABG4,86,71.87397985738497,81.60371801659021
P07621-P0ABH0,84,88.81130830640457,83.90429873142043
P07621-P0AC30,5,62.7097607310939,81.14586651123926
P07621-P0AD68,64,74.94365700964981,84.4324824867527
P07621-P0AEN4,17,62.77222284213588,80.81758516198315
P07621-P29131,17,71.2562390154218,75.03690308694692
P07766-P43403,67,55.74870597031046,72.46743846670583
P07911-P01375,47,58.75467587644265,74.22327582414245
P07948-P17252,162,68.51983677614744,76.60405422372037
P07949-Q07731,84,52.450795590548196,53.05427693323095
P08047-Q61502,217,60.852742479482366,45.328710078281865
P08047-Q8R0K9,255,57.602488716372655,44.459830763543216
P08047-Q9Y294,157,63.46418803314739,47.71807505986865
P08069-P08133,618,62.76111390443998,63.019514619158514
P08588-P24588,92,61.23252950350852,58.517513764699395
P08621-Q01130,43,58.26652327791331,66.05965994950638
P08621-Q02040,39,65.16078086189927,64.65164288074749
P08752-Q76MZ3,40,83.38274886622058,90.31355962823956
P09056-P42702,32,59.43671586137268,72.88575305602936
P09382-P17948,46,68.21937134127133,68.95757051647422
P09382-P35916,42,57.97324347113879,49.41010661165724
P09382-P35968,81,68.10913555082506,68.0163967362994
P09471-O00167,168,66.24326974881009,72.57554379591791
P09693-P43403,12,63.65704251302572,73.81726393821896
P09803-Q8BN78,135,43.14342587522379,62.627578829217235
P09951-P19491,138,67.39046482874396,69.73302082393509
P0A6A8-P0AG20,29,71.68568952020422,80.19447197595339
P0A9H1-Q01831,18,79.06313076999491,68.89109821755144
P0AFS3-P0A6F5,20,80.22614554924694,90.30549739635391
P0AG74-P24230,24,73.19662045471588,84.77084569713887
P0AG86-P02925,37,90.33464425575016,90.05621351008935
P0CL52-P55072,220,51.862226421442635,68.61312102265839
P10166-Q3UPW8,37,43.704709984491224,53.82543451459569
P10242-P04637,99,73.82012947018666,58.563616378037146
P10276-Q92786,291,65.16364371542296,59.249471318213814
P10398-P10415,100,61.33866689560482,64.08678491614523
P10398-Q07817,116,60.1824059982646,63.55152308050195
P10415-Q07820,160,54.57645090271026,59.87159678114231
P10415-Q96CV9,29,61.570071309838546,72.25227617240645
P10636-P49841,225,67.41233259163081,55.38783081304907
P10745-P62157,66,79.22914201206687,80.50535938130592
P10827-Q92786,155,55.628228178600985,58.22642761044083
P10828-Q92786,199,70.13140218918244,60.601496462652115
P10909-Q504U8,130,67.88353136115877,68.63279256766373
P10993-P58772,8,89.85998791936551,89.74886194538388
P10999-Q91783,140,66.21388389472634,71.13945758468401
P11084-P30154,98,76.67946384794963,90.63959575494651
P11473-Q96RL1,219,72.67621388916346,58.23575254576889
P11627-P53986,159,63.77418296198378,76.70733035400599
P11632-Q02821,97,84.0586823205015,84.6518851023139
P11799-P62149,45,80.6572688003388,78.88168743939711
P11802-Q9UBD5,30,52.45979076818274,75.691538658401
P12757-Q9HAU4,211,57.10068084711885,65.30612139649632
P12956-P16104,13,81.70349900794102,78.86759895022617
P12956-P46063,77,76.43887434020847,78.50584968931106
P12962-O00268,101,59.057977160977835,52.919726441229734
P13010-P46063,187,64.75337667303512,78.39158308726253
P13213-P03969,171,72.52615387181991,77.6433505369947
P13264-P62630,79,57.7664919473903,79.6904451480598
P13405-Q61501,339,68.94611943609125,66.43353938747141
P13631-Q96RL1,175,63.2257182786059,56.03527443976432
P13725-P42702,135,74.68150397752592,70.25446293599549
P14151-O35988,74,61.81303517329896,72.40908311187845
P14373-P17612,77,81.2055881908893,85.62012642850529
P14619-Q5VSY0,271,56.97733269781727,69.16403708557193
P15172-Q01105,71,75.12442578051052,63.83257805502069
P15207-Q96RL1,184,50.168062442660435,50.53074128816326
P15208-P05017,85,63.191032176299224,58.49433660476142
P15337-P60042,57,69.49189305232758,56.549948297128225
P15385-P97879,380,57.292434318844585,62.109491485040074
P15498-P29353,165,53.772728527989344,70.98460275767935
P15499-Q9JJZ9,32,56.87909022188218,70.35459813482527
P15509-P08700,72,73.1818348089635,77.89700156715594
P15514-Q969F2,29,40.659434351527196,53.34955527366491
P15531-Q00987,80,64.1358496541603,64.54248156672939
P15559-Q00987,61,65.19615664475623,68.9241685703331
P15655-P18653,77,68.50176626618854,71.57791896816306
P15976-Q05513,129,54.77956079538684,61.348114682940434
P16333-P00533,133,61.06326603495223,67.73211238170475
P16471-P67930,158,72.6957081510848,61.00552311965899
P16520-Q6Y2X3,164,62.89327392148167,66.29103639724931
P16778-P21796,18,65.49444050032287,69.68222589312461
P16778-Q07812,44,70.33329689773878,68.41177663959938
P17036-P18847,83,68.13519515806348,65.9614794641078
P17036-P18848,279,60.85207015693799,58.04044498534789
P17036-P25963,193,59.650533066080264,66.60005077274013
P17036-P31150,173,69.0381452091423,74.80593345914967
P17036-P36915,124,64.74673054451803,67.46141498625576
P17036-P41240,113,70.69992574561853,71.42673680954329
P17036-P62879,153,70.55086406490446,74.9478581401614
P17036-Q16828,116,62.80959747988199,65.13248831371067
P17036-Q68DY1,543,76.39298490797889,65.31698854007094
P17036-Q70SY1,318,61.848244372398455,56.20684734978534
P17036-Q8TAU0,201,62.96860011243803,58.495683117416945
P17036-Q8TBX8,190,69.34895748021121,68.88499542689557
P17036-Q92730,105,75.79495396453856,67.58330661559681
P17036-Q92785,210,62.74315497247234,61.90643393175866
P17036-Q93096,68,87.75986342492672,68.25086994056448
P17036-Q9H2S9,228,72.70706710339829,54.579211143497716
P17036-Q9H6S3,225,69.5074451101914,66.66680699598815
P17036-Q9H9D4,382,71.7938749737986,55.15200774373673
P17036-Q9NQX6,358,71.22031966084725,63.701059504230614
P17036-Q9UH92,196,61.90386283375729,64.22345050130359
P17036-Q9UHR5,195,62.366295623995136,60.98158295335417
P17036-Q9UHX1,161,67.94428981504409,64.57834531478278
P17141-P25976,287,65.60208757249114,68.68476747873191
P17560-P00797,155,75.32192984109564,86.3109344267553
P17679-Q80YQ2,400,53.25406621817765,74.31980851945023
P17679-Q924H2,65,59.68057177215297,56.8988610494319
P17679-Q9CQA5,101,57.29610661948057,58.25517837357615
P17679-Q9CZB6,102,64.80362205141789,59.716298421040484
P17679-Q9D7W5,106,60.99517105406274,57.37020582915205
P17706-P31946,123,69.46231121026065,82.28419616594095
P17839-P13574,106,63.438114823419994,56.08547865458186
P17839-P19419,61,68.38646555745791,60.14639704691198
P17918-Q9ESU6,79,65.26209400820888,58.85772718941407
P17948-P24666,69,82.87848326965089,69.92663680679486
P17980-Q16143,73,57.89911944819696,69.06873946054871
P18113-P63059,238,68.71569432892066,70.16138995048004
P18206-Q9HBI1,140,57.767102185852124,78.44132226303633
P18576-P63140,102,75.60364354854981,51.01609075568216
P18576-Q62725,101,74.32751071975035,47.29360609298135
P18847-P18848,15,55.08853329047327,63.04796415077681
P18847-P25963,45,68.85122160667957,75.16630188107642
P18847-P31150,105,64.05179392158367,82.15409544501404
P18847-P36915,54,61.340413401659745,72.60909878716646
P18847-P41240,67,65.72230995627028,76.62031662384939
P18847-P62879,59,87.9543032932745,83.51033989245335
P18847-Q16828,50,67.98057899038095,70.55069233891075
P18847-Q68DY1,48,73.23371710692999,69.18055814959472
P18847-Q70SY1,94,92.60745008426066,59.16258322080148
P18847-Q8TAU0,42,68.76856747400626,61.9734866431875
P18847-Q8TBX8,44,73.95281517421441,74.04282687581075
P18847-Q92730,29,89.20015931044792,76.05625947854561
P18847-Q92785,38,70.42116800690823,64.81832652835718
P18847-Q93096,20,74.05808512167002,77.85175424627954
P18847-Q9H2S9,28,69.93542550112136,57.540293135207
P18847-Q9H6S3,95,68.10277990196111,70.61174513865994
P18847-Q9H9D4,63,66.35861855884993,57.69287792244775
P18847-Q9NQX6,143,64.25594573774104,69.29796806096182
P18847-Q9UH92,71,70.41373249078336,69.88407310106392
P18847-Q9UHR5,55,68.35998415084448,64.98307309303219
P18847-Q9UHX1,33,67.69455844587469,67.518263771404
P18848-P18848,69,91.670966896996,56.16295578306349
P18848-P31150,204,65.05333532521891,71.36590977059889
P18848-P36915,91,61.05751962382114,66.29724581275387
P18848-P41240,144,61.526702788841966,66.8430096062348
P18848-P62879,170,68.46367921696275,70.34931153928838
P18848-Q02535,8,74.20985934544953,60.521603094161414
P18848-Q14192,198,69.64277720896148,67.29627409655251
P18848-Q16828,87,54.95942963756976,61.337092694101166
P18848-Q68DY1,328,60.81074223914502,61.33834070194076
P18848-Q70SY1,43,73.48431187575041,54.512164498624784
P18848-Q8TAU0,68,64.47558000193487,56.609261127034735
P18848-Q8TBX8,219,62.28959572421776,65.04341826803814
P18848-Q92730,41,66.94038731807025,65.11081697183008
P18848-Q92785,116,59.030243419296625,60.559665747437016
P18848-Q93096,6,94.87807835897272,64.10379038371532
P18848-Q9H2S9,31,44.27796142153281,53.30859106125995
P18848-Q9H6S3,169,68.8946482138675,64.52456748648657
P18848-Q9H9D4,226,61.6986092851374,54.462985163409016
P18848-Q9NQX6,312,58.99209500131893,61.26958648321691
P18848-Q9UH92,103,67.72659225912864,60.86930342996161
P18848-Q9UHR5,88,70.85703503843786,58.83935714332873
P18848-Q9UHX1,35,59.146132322929404,61.24707149927188
P18901-Q9QUL6,70,58.81409533219683,76.74859359780027
P19366-Q9LHE5,120,75.57640450351238,83.60498212214935
P19490-Q62936,150,53.82507067537326,72.50383427179385
P19491-Q8K430,53,73.0498369909296,79.68959864470054
P19632-Q3T115,79,69.07453803510568,74.96638639954384
P19632-Q58DJ8,48,71.34947330716959,76.95804696642479
P19784-Q13526,80,84.59266831301352,89.23606014315057
P19793-Q92786,166,55.349145103242506,57.57311758128735
P19793-Q96RL1,79,61.30506750205111,54.7684963614724
P19838-Q01105,72,50.22216158418923,65.873465535735
P20023-O00459,156,67.11169491244661,72.18941930820037
P20153-Q9TVM2,430,59.99261246038696,79.47599905541486
P20226-P23511,78,60.1838978671009,57.459751913328304
P20338-P21731,82,67.42653798282605,81.03049848250713
P20338-Q6WKZ4,57,62.97027803818069,47.265385848931224
P20917-P13595,127,59.23992085294182,68.71888860725502
P20917-P20917,179,77.30387671555422,75.92217460976006
P20917-Q8K0S5,124,66.96711800107133,74.9531332695178
P20942-Q32L40,44,70.70110047468445,81.03526434487031
P20963-Q6PIZ9,62,76.64012748231134,56.630694124679096
P21109-P02776,133,62.6928294717148,73.25912958085111
P21109-P09341,98,57.44120098061109,75.79881379622447
P21109-Q99733,112,49.72086266757545,73.66382401493175
P21183-P04401,147,79.09234739873658,78.78791913235575
P21246-P26641,8,62.17333621691158,79.9065236434005
P21246-P55854,0,0,74.88201862780019
P21246-Q16891,7,57.236952434916375,71.97760026638196
P21246-Q5T3J3,61,69.04139080960304,48.55456405251554
P21246-Q7L311,45,61.97449495036898,62.371784640708064
P21246-Q9H213,94,65.88306361059855,66.24791946305012
P21246-Q9P2H0,87,49.81503217186604,49.43302791040358
P21246-Q9UKY1,42,68.09525308850547,63.34813617571996
P21707-P47709,78,63.884067827765826,69.86844809039339
P21803-P15655,130,67.6329083614314,72.87197190011337
P21836-P02866,91,68.75998898826302,85.50511053120738
P21917-Q53G59,132,71.0577680823961,80.66002872846212
P22303-P02866,115,69.04724006412593,85.33008959293164
P22455-P09038,71,60.668191309328904,66.8291152901447
P22561-P50462,29,71.45973852680544,56.93596725456592
P22561-Q62523,152,56.94040738527903,55.00142902123278
P22607-P09038,128,55.60736206999974,65.83583110311287
P22607-P21781,116,58.13462244847637,70.02612140217285
P22681-Q6PIZ9,174,64.37837168276344,59.573501648030586
P22897-P02769,334,76.74323785220265,78.50481941137082
P23297-P31949,139,88.80674926315541,85.63278068921309
P23511-P20226,85,61.68522815367309,57.157540818171896
P23634-P27348,181,54.949775367539495,72.17183330619031
P23634-P63104,198,56.407903749880106,72.50607593247358
P23769-Q04724,83,50.598793038247,57.92110570012209
P23804-P02340,111,69.71610458539726,61.88689748294428
P24385-P49736,30,48.339980669245584,72.7329269283785
P24385-Q9UBD5,50,55.06446958920793,73.4413858691482
P24394-P35225,61,78.47159118368064,55.0898421973853
P24666-P35590,92,80.89691041166769,56.41070147346025
P24786-P01139,204,64.21634995609239,68.41878134662532
P24786-P21237,257,63.5736986061286,69.30063313186238
P24941-P49736,21,50.586445693387375,73.66203754168538
P24941-Q9UBD5,38,58.15632821995956,78.18621103374369
P25100-P41220,141,63.28091782745001,64.12588697824494
P25205-P42224,28,53.8286200651013,70.60564313512285
P25206-Q7L590,145,58.15886048821094,62.812606217022946
P25311-P61769,196,91.25502993716727,88.66570087271661
P25697-P25856,61,77.79289552630652,81.55441086986339
P25822-P31007,193,45.60691969444122,47.801144192541216
P25963-P31150,123,66.68592806374907,83.06366578958904
P25963-P36915,90,64.88928305724914,73.78685173445952
P25963-P41240,62,80.68534398538415,78.85266074114952
P25963-P62879,119,82.93797158460424,84.48043520599006
P25963-Q02535,48,66.15184810625419,74.16841029858075
P25963-Q14192,7,66.85128094148195,81.96289308204675
P25963-Q16828,106,67.90567674568835,72.77654031186465
P25963-Q68DY1,242,63.40279253063317,70.20159674128152
P25963-Q70SY1,66,69.39192033794319,60.14300376317767
P25963-Q8TAU0,165,67.17598282922917,63.5923975440812
P25963-Q8TBX8,94,77.67692954265861,76.48464037169174
P25963-Q92730,89,87.31998685036667,78.98605809487651
P25963-Q92785,88,72.03734916925245,69.02800783769294
P25963-Q93096,99,81.0399943497883,81.45509060549104
P25963-Q9H6S3,94,60.37153824510384,70.38465964152755
P25963-Q9H9D4,117,61.85992975462358,58.90208534480411
P25963-Q9NQX6,182,67.7622823452471,71.09019414904266
P25963-Q9UH92,39,78.03328945261556,71.64509894588969
P25963-Q9UHR5,17,67.59985192724795,66.641758542223
P25963-Q9UHX1,40,62.38677550163868,69.14145658897334
P26038-Q92558,91,58.66565019284428,67.70183996409612
P26450-P97465,115,61.68431913851782,70.49188262490725
P26641-P51693,165,60.8311484948624,70.02810610813691
P26641-P55854,96,79.48755292011931,84.03951300405559
P26641-Q16891,59,58.458386300166694,73.93282687273668
P26641-Q5T3J3,232,65.71144914344163,53.43344157149868
P26641-Q7L311,114,62.750175957080884,68.01515722712982
P26641-Q8N2W9,55,57.103298013268464,77.24393500556415
P26641-Q9H213,222,74.14266270897362,77.38784158725632
P26641-Q9P2H0,216,61.00155622463493,52.008738345910565
P26641-Q9UKY1,170,55.27047995434328,65.18354125252509
P26955-P01586,21,47.329674439316435,58.718567595321176
P26955-P01587,14,68.43559551467729,58.099069578924414
P26955-P04351,30,49.50727910257577,60.215961869002385
P26955-P04401,47,46.752305066412205,57.826756063326705
P26955-P05112,37,55.10735893192348,59.56480219271689
P26955-P07321,104,55.74465542569819,59.14241744460183
P26955-P08700,24,44.43690951130122,58.0147854404326
P26955-P15247,24,58.78483321589198,60.995514804097056
P27348-P31749,103,69.2499006086505,82.32067449290902
P27348-Q01814,87,54.63569670255583,72.53997754774551
P27361-Q49A26,59,78.47737473970079,77.51174006982673
P27361-Q9BV47,150,67.72800268000084,81.14986417188611
P27361-Q9H2B2,203,63.208656709077424,73.62794397117523
P27601-Q76MZ3,47,82.35659701152825,88.56232705022609
P27699-Q8R4I4,132,72.12452944428281,51.44537578150743
P27815-P63244,128,61.451520298004425,67.3604370774148
P27882-P36046,56,55.74214026167045,61.5776308758665
P27918-P08174,105,77.51009054340032,73.20990159970764
P28033-P62500,97,51.79916859480839,43.86925828059398
P28069-Q04724,27,59.950002534210135,64.598649165958
P28328-P28328,164,80.06773847710714,76.69538014199632
P28328-P56589,30,73.00830554295925,78.72363366867664
P28328-Q92968,22,72.24796361760313,68.51275435721296
P28328-Q9Y5Y5,38,73.72466313688263,79.46238940808432
P28360-Q04724,129,86.21723704132738,61.36421363231966
P28482-Q8TAX0,138,69.03926335720905,70.7358782203322
P28574-Q3UPW8,20,68.47135351545327,59.05342658077035
P28651-Q9ERP3,21,90.63682800989912,82.47747383531981
P28749-Q13547,129,71.1740891417598,71.19770285990585
P29351-Q8C180,151,59.663609857622,63.68821435089059
P29965-P04003,88,75.67215122192212,76.48425411637234
P30154-Q15173,182,75.98534763197733,85.32083975200936
P30260-P50750,85,52.33290856102994,69.72418375946026
P30533-P05067,83,52.5084009189507,68.22485621584828
P30658-A2AM29,166,62.99183609815578,50.47347233703525
P30658-P30658,147,52.57695250871575,46.689640390044026
P31016-P41350,95,51.65789863396529,73.76353622446445
P31150-P31150,122,70.84984476455136,89.34712361943697
P31150-P41240,186,78.50652893955721,84.72064569040224
P31150-P62879,27,86.18233477939424,91.29835510749726
P31150-Q02535,117,68.94861810932484,83.90625071566204
P31150-Q14192,57,79.23288676995624,87.69957395099107
P31150-Q16828,188,63.83857313933152,80.11663987526535
P31150-Q68DY1,131,73.26943285271663,77.35786395767973
P31150-Q70SY1,203,68.29012861155628,66.53100068184686
P31150-Q8TAU0,214,67.05339470309269,69.14543527752964
P31150-Q8TBX8,132,60.933904395096,81.66193731630305
P31150-Q92730,144,77.34220322485548,85.61664717543326
P31150-Q92785,200,62.57640652937284,73.51352755301906
P31150-Q93096,156,79.87057249007445,89.54409477903121
P31150-Q9H2S9,265,66.20218404730201,65.11585901717001
P31150-Q9H6S3,155,72.0578614194578,75.25494122908371
P31150-Q9H9D4,204,66.65180991299492,65.80328902360786
P31150-Q9NQX6,123,70.62917055344941,79.51926635727715
P31150-Q9UDV6,178,62.30087449633499,68.40600408492212
P31150-Q9UH92,97,75.10256666240655,79.03206810465088
P31150-Q9UHR5,166,61.99168667661225,73.82597043231922
P31150-Q9UHX1,135,75.14383088260914,75.8677921778782
P31269-P84022,110,59.04587600288426,68.31750115833096
P31269-Q15796,95,62.64120831839543,65.04903470734456
P31273-P84022,151,68.91285073592272,70.1709252873463
P31273-Q15796,124,65.68327669202337,66.64146759433258
P31749-P31946,98,70.52324109899433,81.6212531806812
P31749-Q92574,153,62.60095016902033,62.299364386050044
P31750-Q155Q3,129,59.78787006739939,69.8498079945718
P31786-O89090,85,67.27465367796036,46.61423099869951
P31786-P06537,108,70.05849621718482,60.68859620953278
P31946-Q92574,145,59.74647224968928,63.242478531546396
P31947-Q92574,145,59.393212940918175,63.32394978924643
P32494-P10276,124,54.01091103271088,64.4660772241077
P32851-P47709,108,59.77780436105688,69.41811124949248
P33176-Q96EK5,106,73.18872916949034,77.14707767799547
P33991-Q9UBD5,84,60.814398244625586,69.37504776744986
P34741-P05230,2,63.876984530444346,70.57193014312878
P34932-Q07812,86,77.98612259740909,83.30060303710916
P35221-Q8BN78,432,56.483610041250444,64.27720394687209
P35221-Q9UBT7,518,79.97314914063884,78.86150468407861
P35222-P07900,122,56.06877310083063,76.80769892820335
P35222-P10809,157,57.6765367376742,79.23042748672296
P35222-P14625,105,53.325239902559886,75.01444337869059
P35222-P34932,198,78.58911323494532,79.19301285936533
P35222-P35638,125,59.918408341902875,72.43931246269449
P35222-P62136,205,60.527310607097206,78.96808298889766
P35240-P15311,274,83.63764465202492,79.67423967659988
P35240-Q92558,172,59.50268926026843,67.98698809624777
P35279-Q91V27,60,66.06227707906548,58.41025949381819
P35285-Q80T23,78,79.01264151912315,66.52051670243078
P35285-Q91V27,75,64.74760877367744,60.18840054581588
P35288-Q80T23,112,67.01657933379266,64.69063978669205
P35288-Q91V27,73,60.449693331046994,58.987702108436785
P35292-Q80T23,74,64.44983481620051,64.80705262306803
P35292-Q91V27,65,61.61444844673752,59.475040626054756
P35293-Q80T23,113,63.023810947507904,65.64727754647774
P35293-Q91V27,97,66.46620823063333,59.207464391830506
P35295-Q80T23,106,69.87780010627955,65.8441144114629
P35295-Q91V27,71,67.57775009109318,60.20910038319486
P35367-Q9UBB6,158,65.3738169634203,73.54691758710362
P35368-P41220,152,64.98292691916653,65.68592944326036
P35396-Q6PDY0,44,74.79534979344936,77.59172261240536
P35439-Q8K430,50,58.521995369578086,80.02508779373683
P35548-P29590,80,52.13247531369091,63.47062152732779
P35570-P62994,71,69.1818772387165,49.984135467041256
P35590-Q9Y5C1,197,61.51319612641843,57.52005710924596
P35606-Q08499,300,55.16550054116107,72.19277511592388
P35609-Q13418,4,78.50463623352687,81.1056553055473
P35609-Q9BYV2,54,77.11057338762812,79.34221660773963
P35872-Q5SJE9,72,78.63980524187242,88.27637185990244
P35917-Q00731,118,53.270010269992966,52.80188434224296
P35968-P49763,83,47.3488887345871,64.10086127268652
P36871-P25815,12,83.14781329542974,94.07095197912777
P36894-P01137,50,67.9434795065129,74.29761094460392
P36894-P12645,64,66.18255224103915,67.98537685042947
P36894-P22003,91,55.513198711601135,71.93812528008522
P36894-P22004,73,57.87760158563592,70.84162276706935
P36915-P36915,864,73.72109093686859,69.98588428653728
P36915-P41240,126,60.08407881465518,76.73364750725023
P36915-P62879,88,64.95268622546753,79.57577583064065
P36915-Q02535,68,50.19624104260381,72.64101682687057
P36915-Q14192,70,65.94134593379377,76.24053218008912
P36915-Q16828,108,47.62891107370236,71.87240825376198
P36915-Q68DY1,108,60.33001167010619,69.77067949827732
P36915-Q70SY1,54,60.82024630765372,62.16118354855013
P36915-Q8TAU0,123,60.31309879418202,63.893059552432106
P36915-Q8TBX8,154,49.356499670322776,73.58545534848862
P36915-Q92730,86,65.14133265062539,74.15571293819494
P36915-Q92785,167,51.7339536555106,67.85002127398656
P36915-Q9H2S9,98,58.76735881584769,60.9108601825341
P36915-Q9H6S3,152,57.49379423906156,69.51381600005904
P36915-Q9H9D4,232,58.084447648461044,61.234982751325596
P36915-Q9NQX6,140,64.86696033919901,70.74588405584656
P36915-Q9UH92,69,60.891623272345754,70.96786978900997
P36915-Q9UHR5,66,56.55570984525632,67.68099655122319
P36915-Q9UHX1,74,60.941750623961646,69.6696508531962
P37231-Q96RL1,158,69.28634750172236,54.815488241701125
P37275-Q13547,332,69.1288627348664,54.929496013156076
P37840-P43004,88,65.19296381619635,70.73378547118178
P37889-P55002,107,61.0637859044714,64.66138667702212
P37889-Q9QZJ6,142,61.71566420279846,64.88658821031012
P38431-P32481,217,67.46484237831186,77.41329445178674
P38936-P49736,34,56.034109332992514,70.0672635703228
P39052-Q62600,117,57.72289295801635,74.35578337331718
P39060-P15692,286,56.98240816603702,53.00868938066464
P39429-Q9D8D0,69,72.07827758890079,77.79817138422423
P40424-Q9BQG0,283,53.28083007484795,67.60075873393002
P40425-Q9BQG0,406,50.58550874439626,67.12594934340551
P40933-P01589,76,66.56819527501195,70.59991937140552
P41240-P41240,113,73.66894326103797,80.44003837269574
P41240-P62879,79,80.02831456622388,87.20614218977475
P41240-Q16828,151,65.31581666934623,75.47316486636507
P41240-Q68DY1,86,73.87877662774764,74.42214901261393
P41240-Q70SY1,82,60.1458490973873,63.322339498647956
P41240-Q8TAU0,138,63.26459101967795,65.0079974422547
P41240-Q8TBX8,111,69.54123021887837,78.5337177962774
P41240-Q92730,68,69.6819497132447,79.45479633416615
P41240-Q92785,47,73.7540813754647,70.07798719090643
P41240-Q93096,68,69.13159281481018,83.34965110506442
P41240-Q9H2S9,164,63.21520131444893,61.6848084849678
P41240-Q9H6S3,111,72.26197634688621,72.58569046553423
P41240-Q9H9D4,143,71.36698390752674,62.472277683138245
P41240-Q9NQX6,118,79.3813513131138,76.07226596902082
P41240-Q9UH92,88,60.30963043963898,74.41139321648552
P41240-Q9UHR5,57,71.10135079356512,69.64707019137109
P41240-Q9UHX1,101,68.53491653250508,71.6550780724437
P41587-O60894,197,68.92346110330386,72.11148942580498
P41587-O60895,205,61.40567362145111,69.52879022611037
P41587-O60896,167,69.70248585898916,71.76705906129288
P41593-Q9WTJ5,132,74.42565519563973,68.18183459367205
P42212-P08238,65,70.59096722702346,82.20077005746693
P42224-Q8TAE8,55,72.52333907363456,81.05843543790796
P42226-Q08211,530,54.868016869977865,71.84467022331035
P42229-Q8TAE8,104,65.03111202621625,80.80439568708539
P42285-P42285,2022,77.763909815317,72.75612878585427
P42285-Q06265,322,54.2122730570217,75.27178355940168
P42285-Q15024,58,52.91566156204163,79.1797584163534
P42285-Q96B26,44,83.26874471881173,81.86656942215218
P42285-Q9NPD3,115,76.3732569738863,81.97352850211931
P42285-Q9NQT4,109,76.902508199655,81.04193186058113
P42285-Q9NQT5,49,73.09866668917005,79.55611488904925
P42285-Q9Y2L1,637,75.25695947567998,77.7396647422935
P42285-Q9Y3B2,47,76.00362105300253,81.10390683617494
P42586-Q62414,93,70.22776546869261,57.56636778036724
P42771-Q9UBD5,2,81.52414107479763,71.56487025201092
P43004-Q15050,119,55.544678284433324,66.73318415252164
P43004-Q9UJV9,46,46.00822938051718,70.76503442553694
P43146-Q6ZVN8,221,56.66021292416229,69.52953797038452
P43351-Q9BXW9,371,53.3086750432344,70.80384937656802
P43403-Q6PIZ9,132,58.55313711376767,68.44172809568374
P43407-P21981,103,59.864683821501735,79.83667116359642
P45983-Q49A26,115,60.66049379070033,76.30139451280354
P45983-Q62132,172,63.365797675812075,68.40723364270157
P45983-Q9BUB5,223,64.04100579189551,70.87589209874693
P46108-Q9H2B2,136,80.3736221780784,69.60311636660637
P46414-Q03147,29,72.6178833966412,73.59359008620324
P46527-Q92574,128,50.704345027849286,59.546017017657206
P46662-Q61391,266,59.06924384002947,84.3156489709939
P46934-Q9Y5X1,310,47.79846170457432,57.49777314974116
P47708-P61027,109,66.77790979682959,68.93984692470397
P47709-P61765,205,60.97448712064672,73.60054384174016
P47709-P63045,43,56.935752402016156,67.96226914168305
P48736-O00459,63,71.45281623304831,80.82848476735735
P48995-Q9UBN4,620,69.2691203494033,68.03738873039674
P49023-Q9HBI1,142,70.0358064839443,66.48982163352474
P49185-Q4G050,169,66.49187123648845,76.08354434752869
P49185-Q5U2N4,202,65.09375307302898,71.14162262353265
P49207-P06493,26,69.03607374919739,85.18719217360626
P49459-Q9NW38,71,87.28336059342182,89.35524787268146
P49597-Q38898,107,53.69263625885541,72.69137089313121
P49717-Q7L590,112,50.91357649734531,62.123952580643575
P49736-P49736,434,68.39870001359489,69.40934382435236
P49736-Q13415,144,52.533196416058594,65.89325746937743
P49736-Q6FHM7,69,64.08773682028938,67.41401024086164
P49763-P35916,152,50.19748406433126,51.42757340451849
P49763-P35968,75,52.57133541224814,64.51505655115714
P49765-P35916,128,45.679161885711174,50.71590543030327
P49765-P35968,77,41.7148416175935,64.47330029830373
P49767-P17948,101,64.67643423986183,65.57092058169144
P49768-Q96IZ0,25,52.162802318482505,58.00207002364667
P49799-Q9Z0G0,87,73.32835614846731,74.55092007518013
P49848-Q15545,179,58.250664203221,64.15724598466184
P50538-Q3UPW8,27,59.7165956740431,57.08434644536605
P50540-Q3UPW8,42,62.958613333086596,56.26657426541501
P50570-P52735,233,56.21724071853269,75.14688265028353
P50570-Q9UKW4,149,64.07479112186654,75.99321687970763
P51141-Q9WV60,173,61.02192389002994,64.5943623899366
P51149-Q7L099,71,73.8376132524836,76.89770586292693
P51150-Q80T23,63,65.18926131225304,65.82820460487117
P51150-Q91V27,91,66.50144136259654,58.42189653566182
P51449-Q96RL1,133,63.669324434885105,56.4907843896984
P51572-Q07812,15,72.28916369655991,77.6822297931353
P51677-P10147,153,74.49508731733759,78.86182744901082
P51677-P13236,120,72.84453496269904,78.59134305759218
P51680-P10855,180,70.54488442982526,77.07101192314227
P51680-P14097,136,71.55693287941725,77.73011840527732
P51680-P30882,224,68.33183018319407,76.74374094042409
P51693-P55854,133,80.80270703654587,66.34145735873172
P51693-Q16891,38,69.47174279876597,66.7258770425139
P51693-Q7L311,262,58.75865163608602,58.95348542805871
P51693-Q8N2W9,177,63.30325993304088,65.97589330655487
P51693-Q9H213,110,59.41263171443483,63.22991955346868
P51693-Q9UKY1,238,55.62100637470564,60.052283164768035
P51843-Q92786,212,56.42533118886465,53.87241100523955
P51965-P63165,43,92.79911317723517,82.16167282616964
P52603-P08956,52,66.01684563731519,77.4773894788416
P52603-P08957,38,73.22664990415022,85.0606426202848
P53566-Q6PDY0,29,76.78802632131928,64.35020331801502
P53994-Q80T23,53,69.37181042100937,67.20209811711567
P53994-Q91V27,41,55.71938106013215,59.500031465863046
P54130-P16092,156,58.94804008633775,71.25480256322297
P54130-Q03142,222,72.19710714872761,71.7829055494243
P54256-P54258,286,44.33504563965882,46.23557030269108
P54274-Q15554,224,82.44038357178744,66.22373597707323
P54394-P37455,136,60.55969270939987,82.33996750588912
P54645-P80385,83,70.66679837520778,72.82067678670565
P54748-Q5U2T9,213,61.391655397222486,68.32228179787943
P54748-Q9JLG9,188,66.49546476330573,67.03190226950524
P54748-Q9QVC8,170,58.66129750239668,68.90290563450533
P54826-P10415,43,68.9166759614545,65.70474780619654
P54826-P55957,16,65.33529007746405,65.67314766166156
P54826-Q07812,52,65.43812297610195,69.03712237339292
P54826-Q92934,18,65.45916692004464,60.14567515885959
P54921-Q62768,75,63.35495001579708,69.78008993573948
P54921-Q63666,93,67.96460201736006,79.05067679489582
P55002-Q08879,102,71.09242090422967,71.92062235873618
P55002-Q8BPB5,197,64.46629486344153,67.98137730467346
P55002-Q9WVH9,39,61.85202829967402,71.8135168885569
P55002-Q9WVJ9,70,69.4403538053422,72.91013749835064
P55258-Q80T23,51,66.69077189513509,65.89556478793399
P55258-Q91V27,73,62.04258408518291,59.216811908921905
P55258-Q99N48,65,67.1757410920627,71.86941232240936
P55258-Q99N50,79,55.616645976504266,58.45222351191229
P55258-Q99N80,82,75.09165184379538,70.35082463816185
P55854-P55854,15,65.878204611989,75.14296241458415
P55854-Q16891,0,0,72.82314238333507
P55854-Q5T3J3,27,61.59403593143546,46.85332748896351
P55854-Q7L311,21,82.29806218952874,63.09800663866482
P55854-Q9H213,28,65.97665146284436,68.29462056209887
P55854-Q9UKY1,59,84.99228280728495,61.96191835593194
P56371-Q80T23,79,61.70422102618878,65.69216835383
P56371-Q91V27,63,57.76555395647819,58.99791642003706
P56371-Q9D0C1,83,64.9577819473067,65.17014874885288
P56524-Q969S8,154,73.19646002319871,69.5910307648813
P56546-P30658,178,64.94478686992922,59.658657281790504
P56589-P56589,96,79.00609899108255,80.48354663726325
P56589-Q92968,112,65.88699015065254,69.95891476912767
P59190-Q15276,0,0,72.04690090320136
P59190-Q9UJ41,186,78.12800664110637,76.07472404326924
P60228-Q8IUI8,30,62.00909202393585,66.52140935743546
P60881-Q8VHQ7,133,65.0414415499934,67.025985520823
P61019-Q7L099,116,82.88716470336986,77.47736206203894
P61027-Q80T23,57,63.99980032799258,65.85704695012014
P61027-Q91V27,65,64.14937763837918,60.23237184182841
P61027-Q99N48,85,66.55159273696412,71.23021717331702
P61027-Q99N50,50,61.34805178346632,58.47330540911494
P61027-Q99N80,38,82.59078886020274,69.94716935058648
P61027-Q9R0Q1,62,64.56659726903965,68.51739407547042
P61073-P01303,118,69.71136656949325,76.0181549265119
P61073-P10145,147,73.54415137311935,79.13787847149932
P61073-P55209,142,61.662491381898604,73.86435673450313
P61587-Q8WU20,75,64.26795421071097,56.117144876517905
P61588-P70336,99,61.50947828538581,66.48309611164477
P61626-Q9NNX6,84,77.54813449027719,74.82412515366664
P62160-P02710,0,0,80.1947041098485
P62258-Q01814,168,53.68187327791612,72.39536745180263
P62258-Q92574,158,60.377680907674666,64.58749133595836
P62259-Q61097,182,60.11303990367262,62.93855651594688
P62310-P62310,34,80.6782700203586,83.22968504152107
P62310-Q9Y4Z0,98,93.50569393740469,81.32446822794556
P62312-P62312,106,91.97323255221538,90.38291622193778
P62312-Q9Y333,109,87.14786095132794,88.70186069303561
P62312-Q9Y4Z0,97,88.88406040146518,79.60316552995506
P62492-Q80T23,81,65.75376411186404,65.32831481031045
P62492-Q91V27,87,67.92763971349912,59.9976171724498
P62500-Q00322,82,54.00451744833135,44.062417167727055
P62821-Q80T23,66,65.19667360046093,64.93177256945368
P62821-Q91V27,60,64.07124830945101,57.66986784101085
P62826-Q7L099,125,78.09127947653823,73.24593318570832
P62873-Q6Y2X3,171,63.058987099200365,67.18325266061048
P62879-P62879,40,84.37446520018241,92.44692354977587
P62879-Q14192,49,82.32346646230329,89.5726398257899
P62879-Q16828,110,68.25356431263651,81.59461022525677
P62879-Q68DY1,159,79.55569668676807,77.1034133798301
P62879-Q6Y2X3,149,63.50425608638714,67.18704516208547
P62879-Q70SY1,166,67.61515798562148,65.36362522015881
P62879-Q8TAU0,163,67.8825109205227,68.53709881710473
P62879-Q8TBX8,132,67.26777946900522,83.10465542681852
P62879-Q92730,66,91.80634761995766,88.3271393785785
P62879-Q92785,64,73.1199467090788,74.13189574740305
P62879-Q93096,59,92.30444996004735,91.72017922526504
P62879-Q9H2S9,212,72.1010881751108,64.1173953568015
P62879-Q9H6S3,109,79.23589511478131,75.63003627676594
P62879-Q9H9D4,245,71.56580013755266,63.13276904479825
P62879-Q9NQX6,142,84.79818718905862,79.94435721253264
P62879-Q9UDV6,121,72.3050458224775,67.29259602059385
P62879-Q9UH92,128,72.6798090663067,79.63580124714566
P62879-Q9UHR5,159,71.71691813312995,72.40717228484728
P62879-Q9UHX1,146,65.86138392822342,75.6284422518082
P62880-P63213,210,95.45715692071113,94.57384995123863
P63006-P19544,216,60.43411994495954,55.45490502888607
P63011-Q91V27,109,62.52095218247009,58.9019660190396
P63011-Q99N48,109,65.09666463423564,70.59426193134253
P63011-Q99N50,82,53.60663979146731,57.515390957681134
P63011-Q99N80,90,79.81045546424488,70.09123736268023
P63059-Q63158,193,43.957627767771186,50.62315155154498
P63095-Q78NN4,109,83.18369642681037,82.02355016484631
P63096-Q6Y2X3,241,60.552567544552524,64.61783619333407
P63101-Q61097,206,58.11277682525713,62.52457350039004
P63104-Q01814,170,56.26535460517847,72.46664974922493
P63104-Q92574,142,59.20101164079487,63.91924000526343
P63146-P63165,44,89.2730442093967,85.52602746176689
P63165-Q12873,36,67.58211374170148,62.470287290839366
P63165-Q16763,51,91.40717821890337,80.73102696208169
P63165-Q9Y2Q3,74,87.8818888150552,88.42418451633118
P63167-Q7LDG7,20,60.23354893716514,75.66122729216472
P63170-P29476,28,59.74154157514187,73.55615636311333
P63239-Q58A65,320,69.9404196411331,65.15711775425596
P63244-P04637,56,88.72475037363802,77.90888707985782
P63244-P27815,109,65.81386141053262,67.63522337622173
P63244-P50148,83,85.26878859430875,89.83863988208634
P63244-P63092,70,84.28271348803985,88.40875725569066
P63244-P63096,77,86.15554466560324,90.10356744278874
P63244-Q04759,71,80.2296522023122,80.89261745378666
P63244-Q07343,78,61.07693796931648,71.47410078202189
P63244-Q07343,48,66.31373634780134,78.57042730033616
P63244-Q07343,47,64.19881642231921,71.8221661786685
P63244-Q07343,45,60.48546760028361,70.64871163542465
P63244-Q08493,56,70.10469573233308,78.65360190530686
P63244-Q08493,121,67.04392617467647,73.34551370326433
P63244-Q08499,138,70.59848630659067,70.17698279223139
P63244-Q08499,88,65.49307891844826,77.23464252500742
P63244-Q08499,106,67.80261407882954,80.37428230171639
P63244-Q08499,147,72.39125466365826,72.00147655105303
P63330-Q9EP53,73,58.09440836691485,65.33553782464001
P67775-Q92572,70,77.99797717984994,86.34044650073231
P68400-P17480,108,64.52468314563349,76.63857862051714
P68400-P68400,59,84.71430227445468,85.14566653266112
P69908-P62199,44,84.28991572884658,89.50141469488369
P70188-Q03059,236,60.815779759376454,82.67823854307498
P70196-Q62523,225,63.8978765715496,67.34840533438948
P70196-Q8BFW7,200,68.62158767425349,65.64829622943263
P70217-P97471,291,60.74040560064066,61.76623949054437
P70371-Q3UES3,317,54.457279335856896,70.12878114893923
P70371-Q6PFX9,126,47.517080217017735,64.12565138875743
P70452-Q549X6,77,62.83339325357878,68.74083668915767
P70644-Q9R0T4,40,72.94975444788071,77.87852386200362
P70644-Q9WU82,73,62.149975554410084,78.26668399261781
P78347-Q13976,228,60.37299882332665,70.9252743516584
P78352-Q05586,112,66.26995239360265,76.49110351179668
P79348-Q9Z0G0,105,74.37905132119408,65.52161423293923
P83436-Q14746,180,69.00337679349906,75.23746965719846
P83436-Q8WTW3,56,54.96426502170992,73.15211634278178
P83436-Q96JB2,74,71.1300615193811,75.38089505504608
P83876-P83876,68,85.0666333121864,89.3678986565303
P83876-Q15029,45,74.53607630169293,84.96460950913405
P84022-Q01094,89,66.33811572275457,64.7519616195737
P84022-Q08999,128,48.923842629390904,68.31782396310415
P84022-Q13547,191,68.8818550557423,78.92339672545847
P84022-Q96ST3,249,57.88751075272161,68.73499731202735
P84022-Q9UPN9,169,55.6309822303985,61.46023470895037
P84103-Q02040,19,56.97116636452633,66.89731424414938
P97287-Q07813,94,52.654690202148586,63.14982700900391
P97428-Q9Z0G0,106,61.87320788279644,75.00604439756123
P97454-P70323,119,64.42266303021748,66.88292646129584
P97471-P70323,136,70.3042679978784,63.713625140153084
P97503-Q8C2B3,212,68.88780790796932,58.294856582446414
P97503-Q9Z2V6,247,63.91462964724976,58.68404715268627
P97946-P35918,101,44.37526252074937,60.013000245879454
P98066-P12645,54,77.34862082093687,65.9525719654813
P98078-D3ZUY8,302,55.20927076951211,66.4598995694704
P98078-P08081,55,67.62613612176254,58.182354347289575
P98170-Q13077,63,63.94798023279116,73.26017874643046
Q00262-Q549X6,24,53.76827482835291,69.13538285110276
Q00262-Q80T23,82,62.97256738186493,66.5720183348594
Q00262-Q99N48,154,59.441827459252885,71.58664748820951
Q00262-Q99N50,160,58.90859371876019,59.82077901457519
Q00526-Q9UBD5,49,62.08591275193999,77.22914880483827
Q00960-Q8K430,187,49.870965941194804,62.874178000121375
Q01094-Q06546,42,74.24967046332169,60.35429404043378
Q01094-Q06547,158,48.95258508408851,57.44486044418561
Q01094-Q15796,74,54.288550494791636,63.003172772383856
Q01130-Q02040,24,53.45155430218552,65.24873039521516
Q01728-Q3T1J5,197,45.32373104702697,65.27716256423379
Q01831-P0A9H1,22,80.18799021835632,68.56632089458516
Q02040-P26368,28,57.41467722434864,69.20356518667934
Q02040-Q01081,13,59.23527682643534,70.25133091774426
Q02248-Q02257,344,56.29936771840182,75.11375059903774
Q02248-Q8BN78,351,57.282410740502456,61.740491905592265
Q02535-Q16828,135,60.68160098407398,66.85911952487731
Q02535-Q70SY1,17,54.681046039386864,55.41570839503269
Q02535-Q8TAU0,32,57.92611789864713,57.479623265329614
Q02535-Q8TBX8,70,64.61879500111301,74.0878846021983
Q02535-Q92785,42,58.60641702715369,63.76094771669152
Q02535-Q93096,75,73.04456045784104,76.77967046360789
Q02535-Q9H2S9,30,64.41508703492161,54.366220434194496
Q02535-Q9H6S3,101,64.03202716477163,70.34280407631879
Q02535-Q9NQX6,157,63.88446164088088,69.34391874048568
Q02535-Q9UDV6,27,48.981785142733365,59.3650946685611
Q02535-Q9UHR5,36,67.8736346947059,63.46141979078374
Q02763-Q9Y5C1,195,52.92620725943217,57.61782999295537
Q03167-Q15942,345,51.74548634717647,60.61364075485372
Q03405-P00749,129,60.534665365166155,75.37318872010616
Q03405-P27701,118,72.15173856146755,77.80346545130986
Q04047-Q08473,95,55.76162159610358,61.064257482236385
Q04724-Q9BQ87,210,75.13061821811284,72.07927129637523
Q04771-P05111,154,60.8864937831132,67.63785450256934
Q04771-P07200,84,54.98431245302382,71.71558534100109
Q04771-P08476,70,47.31274273423754,66.42778960704969
Q04863-P15307,233,75.60039471870803,63.30228427828792
Q04863-Q04207,192,79.30218051100252,64.62771184200594
Q05519-P08621,33,57.68092887406418,61.8559752623002
Q05519-Q8WU68,36,60.61253198285707,64.99658711634314
Q06265-Q06265,168,86.62620314421825,69.8373341271542
Q06265-Q5RKV6,266,78.98181931398028,73.41809613251941
Q06265-Q96B26,185,86.2670516669937,76.89999173083669
Q06265-Q99547,8,70.2386823239202,71.9898973135359
Q06265-Q9NQT4,178,85.06119123995985,75.57456771892376
Q06265-Q9Y2L1,324,57.97664402596797,76.77731599176383
Q06265-Q9Y3B2,16,49.85875676918536,74.08770478035362
Q06330-Q06587,135,69.02599302321592,71.86002921980106
Q06330-Q92769,56,85.11820657247067,80.66126143794789
Q06330-Q99708,285,60.382937751632994,58.20482157271813
Q06481-P04233,82,48.372058813902655,65.07336198124484
Q06609-Q9BXW9,37,69.23933154085151,75.23003905742154
Q06609-Q9Y620,74,62.607203640551994,75.32161393042125
Q07021-Q13952,47,66.52323382425624,56.613862355106306
Q07325-Q16570,205,69.82099425731143,75.12513677200867
Q07326-P35968,165,58.410008429186675,67.37952915340853
Q07699-Q9NY72,204,78.86698658484163,79.28518038132303
Q07817-Q07820,145,56.94564275822099,60.20330047540956
Q07817-Q7Z434,108,71.62873286041511,54.30886685467013
Q07820-P10415,159,55.414326001744215,59.54954759918773
Q07820-Q07817,143,57.26839533713992,60.3067677523626
Q07820-Q07820,146,45.434535108871636,53.37436709611818
Q07820-Q92843,200,55.86687974625246,61.6314038233303
Q07820-O88498,141,49.10426343230736,42.84201432685017
Q07820-O88498,115,49.08329575228869,45.03870843838365
Q07820-O88498,131,49.118626942512364,44.92208984667311
Q07820-P10415,100,57.964073093824595,56.099181162454414
Q07820-Q07812,94,60.20439013908513,59.78001666015747
Q07820-Q07817,146,56.644678008680124,56.045454445451355
Q07820-Q07820,204,50.55115155325642,43.19020738840335
Q07820-Q16611,119,56.68207380099115,58.074122455854756
Q07820-Q92843,147,58.91231490047443,55.87399308432063
Q07820-Q92843,147,56.30646465652031,61.561113022781235
Q08117-Q13547,91,76.36495981155308,76.39625848914983
Q08499-P35606,184,56.05202891835141,73.31762198636575
Q08499-P62873,212,67.77578643179892,72.83407682276214
Q08499-Q14396,108,62.24298225476385,64.31504247778439
Q08877-Q62600,190,64.55941040956951,73.65400176307034
Q08879-Q9QZJ6,71,65.87568709063505,72.60192943192253
Q08999-P84022,91,60.24532187980079,69.17018271391137
Q08999-Q15796,135,52.85749091488701,67.24804788853208
Q08999-Q8TAK5,130,64.21224640108663,62.58127581002194
Q0VC48-P48616,45,69.31139801594568,74.66917149335222
Q0VC48-Q28177,77,58.38274098294216,74.06173138617332
Q10282-P27584,119,75.5428880057328,82.8464986210639
Q12778-Q92574,263,45.66603161719464,53.585567661007616
Q12933-Q8TDR0,87,62.06022650704244,68.72968572180243
Q12942-Q15543,150,60.41122843562676,65.74699849595243
Q12962-P21675,100,52.89724071693532,58.82442170361612
Q12962-Q15544,10,77.81479768536883,64.79546693757014
Q12962-Q16594,107,66.90077130854961,59.56111165322231
Q12962-Q6P1X5,65,59.252479961130625,72.76918390218437
Q13075-Q9NR28,65,52.94991647137586,72.21256147680283
Q13077-P25942,15,55.90932139244799,75.38936707109114
Q13077-Q8TDR0,42,64.40619017829604,65.29639315642774
Q13077-Q96CA5,26,61.07326482381812,72.76171447566092
Q13133-Q96RL1,242,69.5647520440636,56.919084374352096
Q13158-Q8IUC6,16,49.27172283707372,62.10350683866103
Q13239-Q6PIZ9,62,67.72672632365558,64.05003839660594
Q13242-Q16629,33,74.9915997740376,63.19907819916235
Q13309-Q16526,84,82.47421157562675,77.81835796751596
Q13309-Q49AN0,158,74.50667528967651,76.97362158673107
Q13330-P25490,146,60.27973168255413,60.88042329359644
Q13330-Q00688,6,63.914939716842824,70.67274233916793
Q13347-P27037,56,81.72883968853301,77.36965235078644
Q13347-P36897,91,68.50444776045728,77.80123619967347
Q13347-Q04771,104,67.94239391885007,78.52550161292194
Q13485-Q15583,78,65.14764736240056,61.346168046275764
Q13485-Q9HAU4,129,74.1021474755873,72.49990090509897
Q13485-Q9UM13,51,81.3294433080467,72.33151199324973
Q13541-Q8WVB6,34,67.52382840703552,63.250027551644145
Q13546-O00220,87,77.1043691287935,61.16883426405273
Q13546-O14763,129,67.42266152548082,63.25768999065935
Q13547-Q9UBP5,126,75.76298962938728,69.35640882281929
Q13571-Q6PIZ9,87,67.33174765551968,56.397656567181635
Q13586-Q13507,215,57.431799886676245,67.42668277382495
Q13586-Q9Y210,103,53.608891019942625,65.09790297317112
Q13642-Q13642,174,67.75828535823706,71.50518612538288
Q13642-Q14192,152,61.58202169454749,76.63308307855509
Q13642-Q5TD97,105,56.257774760142595,76.55961566170191
Q13671-Q9BR65,104,63.364214968114105,67.49603325155806
Q13868-Q13868,16,55.39081397246109,77.48544114855902
Q13868-Q9Y2L1,101,72.08726769542278,81.42879819351418
Q13873-P12643,158,52.43229159016872,55.48709673420565
Q13905-Q9UHJ6,220,58.91006521276679,68.17189081360107
Q13976-Q9Y6F6,196,54.76048329582661,59.1611059399678
Q14186-P24941,59,45.31045625624235,70.00259631079406
Q14186-P78396,53,43.530258593891396,63.13413985621183
Q14186-Q8TAK5,237,57.33429184759813,60.353754653027984
Q14192-Q16828,140,61.36625057774047,75.58364724896938
Q14192-Q70SY1,215,63.9915708542565,61.65262961614974
Q14192-Q8TAU0,179,69.38664539842918,64.53260774261769
Q14192-Q8TBX8,82,71.82965251687861,78.78434930450653
Q14192-Q92730,55,81.38615441914199,83.44203139216602
Q14192-Q93096,44,70.74226173122172,86.70586689712343
Q14192-Q9H6S3,88,69.02504730618288,73.66094109206735
Q14192-Q9UH92,126,62.55462784189091,75.79642032381832
Q14209-Q8TAK5,234,53.727275187913385,57.0785892885582
Q14565-Q9BXW9,26,51.85796718414746,74.2157280947998
Q14696-O94907,26,67.48374307597204,66.24631377798859
Q14746-Q8WTW3,329,63.06031434589969,70.16935060561966
Q14746-Q96MW5,94,73.32796485141903,75.41763183539224
Q14746-Q9UP83,106,62.39359210817441,77.35002512632074
Q14746-Q9Y2V7,110,70.53531007525642,79.97906558249736
Q15024-Q15024,196,72.3817072583841,79.098399942067
Q15024-Q96B26,152,80.56117532699218,82.2639745794674
Q15024-Q99547,4,51.74558783178387,80.38550186855102
Q15024-Q9NQT4,148,80.32344937196125,81.09931065898265
Q15024-Q9Y2L1,109,69.51081898567824,81.27046303178783
Q15029-Q15029,1794,82.76301340770077,78.83438899202662
Q15029-Q8WWY3,211,62.65021901135429,75.83869592755642
Q15303-P27986,357,58.165603582017745,64.14981484190986
Q15311-Q16046,2,56.962961079922025,65.44916449265133
Q15329-Q8TAK5,259,62.38735853708586,58.10803749900476
Q15406-P48552,362,61.090928778930454,46.571674745896495
Q15466-Q92786,160,65.0692486860643,59.32131830229375
Q15628-O00220,75,65.54527300991595,70.07552511385576
Q15628-O14763,85,81.63257284129672,72.75995360939925
Q15750-Q9BYM8,130,59.429453728705326,75.8773873595503
Q15797-Q9UM13,67,70.72962567578377,77.73328905743182
Q15797-Q9UPN9,199,48.52088010398078,60.84472236327914
Q15910-Q9BQ52,237,59.40058710389427,70.55185965757943
Q15942-P19544,179,66.56968877536829,55.68028478725523
Q16254-Q8TAK5,180,53.793358579005904,57.8043392604233
Q16512-P51812,197,59.09671292900468,69.58460334176897
Q16512-Q15418,145,65.00334266693214,69.26800964634738
Q16512-Q9Y2U5,171,62.20255600115489,63.57490908241922
Q16513-P51812,170,63.17150489886523,66.51777943015193
Q16513-Q15418,425,71.97570419231214,66.5543626212465
Q16513-Q99759,227,58.9879192001242,59.78857827215513
Q16526-Q8NEZ5,112,65.08894232205402,79.49339969475804
Q16526-Q8NHM5,327,57.3410783465577,65.63029533050383
Q16526-Q9H469,181,59.19026856818806,81.44467380609484
Q16526-Q9UK97,183,60.80887675496882,75.77395114949165
Q16526-Q9UKC9,218,57.18976368708557,83.42753629342548
Q16526-Q9UKT4,203,63.965196704992415,67.11939359829113
Q16526-Q9Y297,265,56.0929453893657,77.48280963822549
Q16526-Q9Y2K7,317,70.10333058998631,70.72353082776931
Q16665-Q9Y6K9,81,59.68732962511912,62.03357603965118
Q16828-Q16828,129,69.06394775655508,68.704715008149
Q16828-Q68DY1,122,61.10949724427844,69.33191013187476
Q16828-Q70SY1,154,67.27209928034296,58.4464753792633
Q16828-Q8TAU0,123,67.78159979203932,60.66748239692388
Q16828-Q8TBX8,150,58.10292550882762,72.04004019245724
Q16828-Q92730,132,71.90134188455781,71.71810237163946
Q16828-Q92785,76,59.48368717890667,65.79015719799392
Q16828-Q93096,76,59.98004551675394,74.87596900276367
Q16828-Q9H2S9,77,61.91185139546481,57.50462633862608
Q16828-Q9H6S3,166,63.20686511847148,68.18161717929482
Q16828-Q9H9D4,87,59.69711263560064,58.89728233969846
Q16828-Q9NQX6,207,59.808593537494616,70.36266065585536
Q16828-Q9UH92,134,57.340704946086454,67.8452491167677
Q16828-Q9UHR5,76,64.03751098553225,63.38925306906728
Q16828-Q9UHX1,70,65.2705431879702,67.76770071592655
Q16891-Q7L311,136,57.77536461445543,63.63628090851203
Q16891-Q9H213,7,53.87709323319431,70.5234587344169
Q16891-Q9UKY1,41,59.8162476624113,63.82961193259084
Q1M168-Q8CFN2,121,75.16815557930187,69.45596467514285
Q24468-P04202,141,61.79762259353128,68.56701200931313
Q24468-P21274,85,70.66762070124565,72.48848620141504
Q32MZ4-Q9UJU2,103,45.69389381023946,51.45185826108217
Q32NU6-P01344,149,67.67422741750143,70.21224096208007
Q39128-P18064,66,72.57941198504744,76.80014222260199
Q3UPW8-Q60948,74,55.03288449069678,54.15854455858473
Q3UPW8-Q80US8,39,66.52610717322514,56.94254204751835
Q43373-Q8C129,121,72.90247921796885,83.27744852046506
Q49AN0-Q8NEZ5,71,69.63327553109701,79.65369503819753
Q49AN0-Q8NHM5,232,57.6453840905625,65.76263381160949
Q49AN0-Q9H469,186,59.40356415654735,81.09382031115396
Q49AN0-Q9UK97,173,61.22476550288951,76.43043855087316
Q49AN0-Q9UKC9,115,66.868052598746,83.14318441339461
Q49AN0-Q9UKT4,271,56.79178213855286,67.20758204689622
Q49AN0-Q9Y297,229,55.87054278793173,77.49746862614501
Q49AN0-Q9Y2K7,166,57.306516697730494,69.79360280767224
Q505F1-Q60953,223,59.508767870117524,63.61612679195129
Q53GS9-Q53GS9,118,61.04118603206658,76.3733477263648
Q548T0-Q549X6,249,65.11399536055376,74.28989475849966
Q548T0-Q80T23,186,53.412314026071726,70.49381927845923
Q548T0-Q99N48,152,61.96436898524095,76.02627127376475
Q548T0-Q99N50,192,61.59504729250572,64.26083117043893
Q549X6-Q60770,118,63.68831494059722,72.86362891042593
Q549X6-Q64704,57,48.917015537723536,68.7583691835343
Q56P03-Q16254,81,60.34134656240553,64.01463615844497
Q5FWY5-A1E347,249,60.66167561719868,69.58736841454352
Q5FWY5-P14270,220,57.81831075778115,73.47706864719831
Q5FWY5-P14270,145,65.04368468729015,68.87385393816437
Q5FWY5-P14646,290,62.27624384599267,71.27756945265138
Q5FWY5-P14646,152,61.312367026985264,77.30596056030821
Q5FWY5-P54748,241,63.30538112544426,67.20613465333595
Q5FWY5-P54748,270,65.50322778928563,70.4231705083259
Q5JTD0-A5JSJ9,38,63.8590111615848,60.71278215737649
Q5JTD0-Q9Y624,46,56.18032464035788,64.3332588397485
Q5M9N9-P60484,87,85.75567192171631,84.25372038153431
Q5RKV6-Q5RKV6,247,73.77669759449579,78.2664822619788
Q5RKV6-Q99547,7,47.61593334078983,77.38010843358313
Q5RKV6-Q9NPD3,210,81.57151786117518,82.99041920153947
Q5RKV6-Q9NQT4,164,85.25698536894691,81.38747995239065
Q5RKV6-Q9Y2L1,56,58.453552851053395,80.81954080024202
Q5T3J3-Q5T3J3,600,39.8358228505916,34.20288123680709
Q5T3J3-Q7L311,125,49.16237688703709,47.75186933672219
Q5T3J3-Q9H213,103,63.58506713708569,47.56400998927785
Q5T3J3-Q9UKY1,188,39.457018505584614,50.04437329221146
Q5TA45-Q10570,123,64.64978902517996,80.41953864148772
Q5UEC5-P47825,85,58.25470989686989,52.18920510987724
Q5UEC5-Q9VR21,217,90.56865259366394,72.9681615709313
Q60749-Q96PV0,156,53.995731743813145,55.00370586220923
Q60770-Q64704,278,74.17252867935093,80.53926463216946
Q60770-Q8K1E0,78,59.54839948249318,74.6542264536905
Q60954-Q789F3,123,66.52677228381805,57.44507943228498
Q60972-Q01147,238,66.0154364337149,69.11791856885664
Q61146-Q8VHG2,164,55.03772905783799,53.2051370010041
Q61205-Q924X6,82,63.25400425753265,74.12790548422227
Q61206-Q924X6,51,73.33365003606013,73.45627760247443
Q61508-P36888,196,51.87864312601379,51.48023788678965
Q61559-P27512,147,62.94051108645759,75.32283356409614
Q61635-Q9QZ85,207,78.94519865732236,78.4066024995924
Q61730-P01582,109,63.974123106579164,72.44219683125637
Q61881-Q7L590,120,52.329043577516806,65.58743932025014
Q62009-Q08024,82,73.99449065487424,77.87878641789729
Q62106-P23818,61,67.49099491214078,68.52674073715279
Q62108-P28652,216,55.456592579479775,74.73740110883233
Q62312-Q8CIN4,182,55.11971191323244,66.55359280893055
Q62417-P18206,576,59.86898311465949,65.2141179670252
Q62424-P97471,136,59.214374832124506,60.1817763644899
Q62824-O88618,29,60.54328424126202,80.83661800126926
Q62824-P23514,170,50.53516493373409,75.65614578444894
Q62824-P28494,100,66.41758725187181,79.32229087908
Q62915-Q8VHK1,271,55.86166867299947,57.18778315268961
Q63912-Q7M6Z0,169,73.04082757170502,67.69315964100473
Q63912-Q8K0S5,141,83.32204487062249,68.32624968275613
Q64008-Q91V27,82,65.48620033454745,60.849684747972674
Q64092-Q03141,170,61.84279325031823,56.821550449818595
Q64289-Q9WTV5,17,70.1195832954524,69.71920355637376
Q64343-Q9DBM0,433,75.51138930464612,74.14068789117894
Q64704-Q80T23,61,64.54646268197016,66.42013231663616
Q64704-Q99N48,167,58.47630796120075,71.12953301549165
Q64704-Q99N50,125,67.90990071722946,59.05892813888504
Q64729-Q8CIN4,217,73.45951343154633,69.57692482362783
Q66H76-Q9Z1P2,131,63.05791965609685,70.89770896975578
Q66HA7-P62960,15,50.58892209416065,65.96606151141322
Q66HA7-Q62725,54,61.84855669227626,63.32757668509051
Q66T02-P60766,165,77.03633448968273,64.84960713234938
Q66T02-P63001,166,73.92995853477693,65.00715567764574
Q68396-O14788,62,70.4220720643556,70.29480067890566
Q68396-O43508,108,62.87600210570449,70.87150003068032
Q68396-O43557,110,71.26089525473111,71.54928765066641
Q68396-O75888,5,87.2569781359842,74.14558335086078
Q68396-O95150,21,79.93648007007158,71.17872768001268
Q68396-P01374,102,72.95949104670802,72.94751172870356
Q68396-P01375,96,73.68664260313406,74.39166685785432
Q68396-P29965,82,75.79454268844128,73.58896146820018
Q68396-P32971,84,68.09827813604545,69.63954342159379
Q68396-P41273,118,68.12341823921467,69.71003861168008
Q68396-P43489,98,72.47378755178588,70.85317823800499
Q68396-P48023,128,67.17844609431064,72.3011353263254
Q68396-P50591,82,68.80150737359968,71.53468938880965
Q68CL8-P04049,156,57.002789217289006,66.60262589295202
Q68DY1-Q68DY1,600,76.73831099898241,69.63276504925321
Q68DY1-Q70SY1,273,60.82394842343779,59.36640136401359
Q68DY1-Q8TAU0,183,60.02531007852347,60.792632801720494
Q68DY1-Q8TBX8,147,67.04661017144,72.27236321799946
Q68DY1-Q92730,102,70.38724735758196,72.66003033610042
Q68DY1-Q92785,178,61.245629133232754,63.37429924198971
Q68DY1-Q93096,71,71.26432268795291,73.20636822502813
Q68DY1-Q9H2S9,237,58.543704876824805,56.84608590472696
Q68DY1-Q9H6S3,210,69.60447544530875,68.92833017333528
Q68DY1-Q9H9D4,136,68.90672888027056,59.22958797099618
Q68DY1-Q9NQX6,570,71.86035239385122,67.3025721623051
Q68DY1-Q9UDV6,149,66.11143665655915,60.544643185429756
Q68DY1-Q9UH92,218,69.38165876034081,66.97708936126156
Q68DY1-Q9UHR5,194,62.476281042334854,63.285443797377596
Q68DY1-Q9UHX1,74,60.88472257725086,67.44003056227416
Q6DQH2-P25446,19,59.82830096770396,73.7217902219343
Q6DQH2-P25963,60,69.96229027172133,79.16693274814104
Q6DQH2-Q13158,20,59.96823873834314,71.11855157011986
Q6DQH2-Q13546,54,41.71570139177386,58.85649125306703
Q6EMB2-P03372,290,49.52136210757409,59.602105511220955
Q6EMB2-P10276,192,55.96282825970239,62.147476118089614
Q6EMB2-P10828,310,56.32603624676819,63.25420493537996
Q6EMB2-P19793,214,49.310509310584465,61.1739652099405
Q6EMB2-P37231,258,60.570794804377265,61.14517584900096
Q6EMB2-Q92731,167,55.43367763574659,60.80082565829648
Q6FHM7-Q9UBD5,154,59.65789500432332,62.75614093184463
Q6H3X3-P16757,68,59.95849359723194,53.233227467170586
Q6NXK8-Q62108,210,65.02826004011703,76.63610454454572
Q6R0H7-Q76MZ3,305,59.50486434806519,62.86421445601407
Q6TDP3-Q9WTX6,59,64.51036886096854,82.98874470364204
Q6Y2X3-Q9HAV0,143,63.462270042762896,66.91471725765692
Q6Y5D8-Q8CIN4,155,63.538175093935834,72.54324034286986
Q6ZNK6-Q9Y4K3,37,82.961343684388,81.76909676006711
Q6ZP65-Q6QLM7,313,67.07468619020518,68.36807195602556
Q6ZVM7-Q7Z3T8,247,46.274713316030486,55.05369111212653
Q70SY1-Q70SY1,230,83.55194698267836,49.55255468011002
Q70SY1-Q8TAU0,71,71.76261302637546,53.45724045084729
Q70SY1-Q8TBX8,145,71.27711241426877,61.95206010110026
Q70SY1-Q92785,69,62.487486581577414,57.17976780125151
Q70SY1-Q9H2S9,84,58.324648784468664,51.87823804586178
Q70SY1-Q9H6S3,200,61.86666099974255,60.423204569164184
Q70SY1-Q9H9D4,141,64.01821072174802,52.827577901755966
Q70SY1-Q9NQX6,350,57.554827629875696,58.890969142468066
Q70SY1-Q9UH92,154,68.32910383541875,56.962829071724265
Q70SY1-Q9UHR5,123,63.13235086534592,53.776704738195725
Q70SY1-Q9UHX1,87,59.03648075273038,57.560020496830134
Q71VB4-Q7TPV4,267,55.151026563688056,69.4527104994912
Q76RI8-Q07812,131,72.37921417171653,77.49832688998598
Q76RI8-Q16611,113,63.00140696764886,74.19475740717296
Q7JWH5-Q24311,230,86.82584072074359,83.52162412082691
Q7JWH5-Q8IP45,228,86.96473588529922,78.35303871076192
Q7KT06-P48540,41,49.10516149738153,48.437313108540245
Q7L311-Q8N2W9,106,70.64081397453756,64.29131286282565
Q7L311-Q9H213,145,67.18722087354381,59.77371448123748
Q7L311-Q9UKY1,124,62.74560191388996,57.48773589274361
Q7L3B6-P04049,90,50.17199586364605,60.769842640430774
Q7L7X3-O60566,206,53.123580408125044,59.672421030517036
Q7M6Z0-Q8K0T0,135,70.08173736192694,56.429227232027806
Q7M6Z0-Q99P72,185,44.37711238798094,47.47680944721486
Q7M6Z0-Q9ES97,146,64.14121073615532,51.650541231402
Q7TMS5-Q9DBM0,408,76.6407757323711,75.10486810629718
Q7Z6M1-P01112,61,89.70779493281742,86.12810137511562
Q7Z6M1-P51149,47,88.42287129460517,86.16501905334442
Q80T23-Q99KL7,50,68.1756636710347,65.34258346707587
Q80T23-Q9CQD1,160,75.7143888877833,66.06768264420131
Q80T23-Q9JKM7,58,66.89579812084821,65.39216621886152
Q80T23-Q9R0M6,86,67.19342276095504,65.82911460297136
Q80T23-Q9WTL2,93,74.5194972545433,65.45114895076686
Q80WE1-D3ZWB1,36,61.98099006370818,71.64774569294585
Q80X44-O08734,115,55.90054171726002,61.02424456271548
Q86T24-Q9P1Z0,589,65.05421506017426,46.84628820218716
Q86UR1-Q15080,55,68.85001930189436,73.882763518962
Q86XR8-P05230,22,70.07326161080326,73.5440246145181
Q86Y07-P51452,147,77.13311076004412,77.28243785878267
Q8AVZ3-Q91783,246,67.45328896127774,70.91353787659693
Q8AZK7-P12978,186,56.35249445282179,44.81485042318124
Q8BGS1-P62331,87,80.94612479022562,65.73362176603212
Q8BH43-P63001,29,69.70031562516633,66.30444082546414
Q8BPB5-Q9QZJ6,153,61.68156577524085,68.47911032435752
Q8CBD1-P68254,209,69.23616319192105,47.23121769965166
Q8CBD1-Q9JIF0,218,61.17156621570254,47.34783293402683
Q8CF89-Q62312,98,54.6354473810856,69.2091048536579
Q8CF89-Q64729,96,60.027444635734895,72.31154915510602
Q8CGY6-P02609,40,63.44553378933553,83.35862061123598
Q8CIN4-Q8CIN4,314,61.60876805186416,67.74712601156763
Q8CJ26-P01139,37,76.80920000605433,68.35810381081237
Q8IQW0-P08646,54,71.84071375698869,57.90982659890507
Q8IRY7-Q9W2K2,60,70.18154776722801,82.90541021031369
Q8IUC6-O00206,254,69.60208403804832,69.23553946685088
Q8IUD6-Q7Z434,177,62.8281663758194,58.27078947092036
Q8IUD6-Q9BYX4,176,77.97819759136436,74.19873929720609
Q8IUI8-Q99613,37,54.60610492987878,71.33499613946908
Q8K0S5-Q8K0T0,222,68.46182631736804,57.09516754164085
Q8K0S5-Q99P72,197,52.72453518813748,48.15974610984582
Q8K0S5-Q9ES97,219,63.75701794314619,51.933815764946445
Q8K0T0-Q99PI8,187,74.78789412922517,56.462286966491604
Q8K4N8-P70196,134,77.93682549545807,74.89313857772225
Q8N2W9-Q8N2W9,62,60.1559708508896,71.55043114106617
Q8N2W9-Q9P2H0,272,56.05580937028994,51.73607068053513
Q8N5F7-Q13546,73,45.31989976690276,55.71999670514845
Q8N668-O00244,16,86.12253795262846,86.07465380751304
Q8N668-Q762B6,73,63.85786586413507,75.16619753076826
Q8N6C5-P05111,162,57.27538486979663,68.6923927100382
Q8N6C5-P09529,209,61.06170887715769,68.4435561246256
Q8NAP8-Q8NAP8,228,82.98402254377746,58.89119227573267
Q8NEU8-P20338,0,0,77.23648365888621
Q8NEU8-P51149,14,70.94655348180555,79.51973709189461
Q8NEU8-P62491,46,74.8599930508031,78.86592999365551
Q8NHR9-P60709,39,89.82459696621086,93.00228654188406
Q8QHK8-Q7ZX24,139,71.24863325065024,67.77789083577036
Q8R0L9-P03372,131,58.03600708324453,64.9241569791857
Q8R4G0-O08747,173,67.65662263346438,74.39390021331405
Q8R4G0-Q8K1S3,208,56.55138726050094,73.45067664665669
Q8R4G0-Q8K1S4,169,62.31458366976369,75.04085029284637
Q8TAU0-Q8TAU0,109,69.05867037361085,54.17459654190825
Q8TAU0-Q8TBX8,166,62.50714994822162,63.9114027929979
Q8TAU0-Q92730,119,71.78699209695543,62.52196280887288
Q8TAU0-Q92785,101,69.0755998880754,58.734799182485716
Q8TAU0-Q93096,52,75.70390416125501,62.93282855311954
Q8TAU0-Q9H2S9,83,67.4414288743764,52.07471505489123
Q8TAU0-Q9H6S3,192,65.61310465695992,63.17231160306788
Q8TAU0-Q9H9D4,199,60.47268991504281,53.82323022238465
Q8TAU0-Q9NQX6,285,59.83064397813454,60.568107314481644
Q8TAU0-Q9UH92,87,74.76053787738822,60.1605895876669
Q8TAU0-Q9UHR5,98,63.82186640801789,56.57659097372826
Q8TAU0-Q9UHX1,89,69.3928837339084,60.378591286783404
Q8TBX8-Q92730,88,68.65607941306874,76.46932147248343
Q8TBX8-Q92785,141,62.49439972635073,68.64630642775082
Q8TBX8-Q93096,103,64.00500908126921,78.25920119646663
Q8TBX8-Q9H2S9,319,62.619104757390424,60.31373682050935
Q8TBX8-Q9H6S3,159,72.58198526986533,70.75659048467217
Q8TBX8-Q9H9D4,210,69.0453759922558,60.0904280540437
Q8TBX8-Q9NQX6,222,67.00988526960741,71.8444538489577
Q8TBX8-Q9UDV6,201,67.62444327878235,62.52465475041499
Q8TBX8-Q9UH92,104,73.6989717797341,71.39962766028479
Q8TBX8-Q9UHR5,124,68.92688266336675,67.80341368772058
Q8TBX8-Q9UHX1,59,81.7612558261866,69.12425670986666
Q8TCT9-P04233,164,60.684166350933204,67.0225876339507
Q8TCT9-Q9Y6X1,112,59.345942380444384,72.97697369291613
Q8TD07-P16757,99,64.72962965785521,58.76985995376362
Q8TDR0-Q9BUZ4,32,60.48675045540943,68.80037395430273
Q8TDR0-Q9Y4K3,179,69.47915762998254,66.62775362818284
Q8TEQ6-Q8WXD5,10,58.09013600581141,74.22063547100093
Q8TEQ6-Q9H840,38,59.00069795411031,72.53818164848138
Q8TEW0-P53667,210,50.16119867718943,56.43903093444941
Q8TF62-Q3MIR4,457,81.94293997872599,80.06679810224895
Q8UVW8-P51167,170,57.02677514739613,71.41686550164171
Q8VHZ5-Q61037,53,54.23717705437149,66.48061225569407
Q8VHZ5-Q9EP53,45,48.07706858238688,62.03993238810012
Q8VY16-O82533,245,66.53703855822285,67.06784250867638
Q8VY16-Q42545,98,51.020214791620695,68.75291144162988
Q8W420-P92973,270,58.842959887222634,57.876761032623094
Q8W420-Q6R0H1,265,51.496767733857375,56.79481852595872
Q8W420-Q8L500,131,60.392408952466894,63.28284670118566
Q8W420-Q93WK5,152,58.54538996613417,56.59950914881431
Q8W420-Q9LVG4,182,55.76179710931429,61.884721133706286
Q8WTW3-Q96MW5,519,81.08845100395745,73.31821528824844
Q8WTW3-Q9UP83,71,65.13925736981908,73.1643040541669
Q8WTW3-Q9Y2V7,256,64.38398130605289,73.38458546613764
Q8WWY3-Q8WWY3,241,49.42285826999424,65.78669613535683
Q8WXF8-Q13158,2,69.45505788255831,71.70702030271018
Q8WXF8-Q14790,16,62.62958782858645,72.41308069212818
Q8WXF8-Q92851,97,54.95834302929001,66.49241979390277
Q8WXW3-P24394,636,61.08412903877144,55.258776236210466
Q8WYQ5-Q9HAV4,801,55.53081195620046,70.30438037938133
Q91V27-Q99KL7,73,59.227378358393224,60.86998315259605
Q91V27-Q9CQD1,56,64.14589591615872,60.20956118458132
Q91V27-Q9JKM7,67,71.75146040749114,58.07400533017138
Q91V27-Q9R0M6,76,64.65159510605835,60.3873257500586
Q91V27-Q9WTL2,84,61.661740906238826,59.2943008172024
Q91XD2-Q15404,135,77.30577127469584,82.30798175563592
Q920R0-P00441,48,79.16746487366316,73.78061405649251
Q922H7-O35182,120,53.9495528329462,67.76379058399017
Q922H7-O35253,116,65.03071394600607,68.88150427421192
Q922H7-P97471,94,61.87784328003479,69.86138898170226
Q922H7-Q62432,102,63.812934626409906,70.96101646063967
Q922H7-Q8BUN5,82,66.27156153065218,75.6229424886391
Q92574-P46527,59,56.73717243164482,59.5555982827022
Q92574-Q13309,220,57.838754980151315,61.950353907150166
Q92730-Q92730,142,82.99626444557711,79.84248609989751
Q92730-Q92785,46,65.0500879538732,68.38798484029364
Q92730-Q93096,47,82.48853514832781,82.76660451092476
Q92730-Q9H2S9,55,81.77939010806664,58.15518978708918
Q92730-Q9H6S3,77,72.39645915787938,71.05459315568064
Q92730-Q9H9D4,103,73.48974435912868,58.431288762668835
Q92730-Q9NQX6,116,81.36783731720831,72.24714745260898
Q92730-Q9UH92,70,64.98895750982204,73.13577613556623
Q92730-Q9UHR5,53,64.73043615176577,65.51369335995578
Q92730-Q9UHX1,62,72.51539723898327,69.29649798806385
Q92769-P25916,122,83.85390626243078,76.27362780720611
Q92769-P78364,175,71.36504449167532,55.37693509246823
Q92769-Q04206,128,66.32009664164129,71.67434671623734
Q92769-Q06587,234,72.96358818648451,70.87907964145761
Q92769-Q15910,51,66.86211804489447,70.14138276507954
Q92769-Q9BQ52,116,62.252845613754964,79.98559638862385
Q92785-Q92785,96,60.09005861943042,62.111088099927194
Q92785-Q93096,16,60.17737876611349,66.92116272446543
Q92785-Q9H2S9,74,68.50467777955791,55.54286766857666
Q92785-Q9H6S3,128,71.72939694635198,67.12938830305842
Q92785-Q9H9D4,252,60.76270157690621,56.57012325486063
Q92785-Q9NQX6,275,62.596000752684525,63.529150038509016
Q92785-Q9UH92,48,70.40801392596268,64.66562420411448
Q92785-Q9UHR5,42,66.55239902174965,60.78866447215228
Q92785-Q9UHX1,25,71.06700003856609,65.19167812290283
Q92844-Q9BYM8,176,66.43715009595311,64.71590165950097
Q92890-Q92575,13,63.597479809819916,71.79665437031069
Q92968-Q9Y5Y5,48,71.27773671473305,67.64945527170775
Q92990-P06213,479,56.414331461387754,62.393297666549486
Q92990-P08069,326,58.62427437435046,65.94350719411858
Q93096-Q93096,63,81.82041620075978,84.72400342188763
Q93096-Q9H2S9,20,55.826466950490534,58.367646634241225
Q93096-Q9H6S3,93,72.49155023102902,71.28243677350275
Q93096-Q9H9D4,44,75.21539684261153,59.124494814598634
Q93096-Q9NQX6,76,75.06707122798873,73.01800423328405
Q93096-Q9UH92,29,55.565759251016395,73.53044196632897
Q93096-Q9UHR5,12,69.32219903504341,65.21989412631062
Q93096-Q9UHX1,24,83.03766884550534,70.065700468228
Q965M2-P12643,82,73.25275383796708,79.6645287750401
Q969S8-Q9UBN7,133,48.58035194944593,77.19458547045231
Q96AD5-Q8CGN5,200,54.491600021199574,54.99249279482324
Q96B26-Q99547,0,0,80.7491975603809
Q96B26-Q9NPD3,175,85.68329142783249,85.92587289760894
Q96B97-Q92956,66,70.92332506382142,63.03429409626043
Q96EV8-P48729,132,66.70266850942886,75.52163617586662
Q96EV8-P48730,107,64.53617815444302,72.32274233726258
Q96EV8-P49674,124,64.13600432419173,70.90336799171486
Q96I24-Q9UHX1,15,58.43442094896479,64.14103859710858
Q96JB2-Q96MW5,118,68.87213820886178,73.64834632279438
Q96JB2-Q9H9E3,125,73.7334677341949,77.82230910779886
Q96JB2-Q9UP83,131,69.98135140359932,75.89641021672766
Q96JB2-Q9Y2V7,211,69.661096569807,75.76913022618368
Q96MW5-Q9H9E3,117,71.37379298818931,78.59699329681622
Q96Q05-Q9Y6K9,95,67.33750378084581,77.64207860433449
Q96QF0-O60224,150,62.62112969390639,63.39233985811692
Q96QF0-Q16384,55,60.18641375709244,63.4987986318782
Q96QF0-Q99909,114,65.05870944997265,63.27565152039699
Q96RE7-Q05516,266,79.14686709207861,54.07012064322709
Q96RJ3-O75888,111,67.8391006951538,69.3957357819197
Q96UP3-Q96TL7,560,48.25643559586818,58.89101324519486
Q99459-Q9UBD5,34,65.20943807601996,69.34240271088588
Q99497-Q9UBK2,18,67.4091620816586,56.04074079109561
Q99547-Q99547,135,60.818158538949646,63.220667358477534
Q99547-Q9NPD3,0,0,80.58197705509123
Q99547-Q9NQT4,0,0,79.34843845516218
Q99547-Q9Y2L1,48,63.95613112957918,79.1553708291589
Q99547-Q9Y3B2,69,75.90686080716245,74.71966760899001
Q99575-Q96P20,310,51.99488224984645,71.82170909446842
Q99576-O43524,24,65.67202137148351,51.92708381974473
Q99626-P20226,100,77.85263220157368,65.14878984943682
Q99650-P15018,75,60.76382966234287,72.81333572872897
Q99J85-Q8BP92,134,72.40711513216111,68.80389339109045
Q99K43-P38532,50,46.897394166854674,66.99878042637067
Q99N11-Q03137,78,57.294457086131295,79.34994174939148
Q9AVB0-Q8C129,142,55.002693497963364,80.92936795569514
Q9BQY9-P48729,248,69.50670320739972,66.67387297565165
Q9BUZ4-P25942,0,0,82.39129023321016
Q9BZM4-P16757,64,62.471255795310675,54.796049762645424
Q9CZA6-P15331,61,68.77346859186956,70.73937004946374
Q9EQW6-Q99MA9,73,53.640239602479596,55.75489118643697
Q9ERI2-Q99104,71,64.97746968907659,72.30683226282787
Q9ERP3-Q9JK37,35,66.31944622581406,64.53841691549778
Q9FEG2-P18064,109,65.6556855019203,85.07553439592157
Q9FK13-Q9FIG9,91,75.3837773708657,65.04659430517869
Q9GZX6-Q13651,110,87.27742948108761,64.28738395250274
Q9H204-P26038,15,80.92837815511041,81.05309835640634
Q9H213-Q9H213,158,66.47233424440333,62.83634671498998
Q9H213-Q9P2H0,116,59.355869601228214,48.305879892144766
Q9H213-Q9UKY1,153,53.050280981549854,60.786428924403396
Q9H2S9-Q9H2S9,243,73.55079205767568,50.08012244055452
Q9H2S9-Q9H9D4,175,61.452006076098264,51.148473802263865
Q9H2S9-Q9NQX6,309,59.19489181869957,56.74995274147406
Q9H2S9-Q9UDV6,81,75.081070885055,52.91798907310887
Q9H2S9-Q9UH92,87,56.515479436728135,56.40035838692736
Q9H2S9-Q9UHR5,95,55.62362697314613,53.88543646330877
Q9H2S9-Q9UHX1,46,68.24516875312214,58.36591881716938
Q9H2X6-Q00987,243,53.36440680286233,48.7478014247456
Q9H6S3-Q9H6S3,450,66.0957422536785,69.59292550706856
Q9H6S3-Q9H9D4,315,64.17361582474004,61.90836541043234
Q9H6S3-Q9NQX6,185,72.61526996009391,70.13442212418367
Q9H6S3-Q9UDV6,319,61.110868260312365,63.07943315472815
Q9H6S3-Q9UH92,151,62.26355348636596,68.2963193057297
Q9H6S3-Q9UHR5,110,66.89974312119091,66.84673980074979
Q9H6S3-Q9UHX1,149,62.36419674598734,66.22645151821877
Q9H9D4-Q9UH92,209,61.284550356557205,56.905973173753395
Q9H9D4-Q9UHX1,38,64.29991014808849,59.28171934969074
Q9H9E3-Q9Y2V7,16,58.89952503326044,81.20321903654262
Q9J2K2-Q92985,113,61.03170171421888,54.94006998359752
Q9JHR9-P03372,129,77.07607293076276,61.926897303893945
Q9JHR9-P19793,119,62.25704932574562,64.17747401322599
Q9JM90-O60674,67,54.66255534349442,71.32463477809856
Q9JM90-Q9QVP9,51,63.567052549593114,71.53565612508395
Q9JMB0-P05132,101,65.02894169977954,71.4771735783725
Q9JMB0-P0C605,337,63.177410785618044,69.97929613699101
Q9JMB0-Q61410,359,57.36762477312496,66.7966271548546
Q9LZP8-Q01593,31,64.82367808461699,54.639544191018636
Q9NNX6-P02769,206,60.0433121684244,80.94400127724194
Q9NPD3-Q9NPD3,151,81.7761283969342,87.21643709021957
Q9NPD3-Q9NQT4,141,79.28728578722347,83.67625068106308
Q9NPD3-Q9Y2L1,159,82.71436251642541,84.21500979356985
Q9NPY3-P02745,73,63.0248716224508,69.74994602475978
Q9NQT4-Q9NQT4,31,85.79261184370827,82.8039604989039
Q9NQT4-Q9Y2L1,56,81.96528290310613,83.01081006797159
Q9NQX6-Q9UH92,260,61.83322818098413,68.31132212034252
Q9NQX6-Q9UHR5,214,58.26484826706834,62.79118593005224
Q9NQX6-Q9UHX1,76,64.97986031001487,67.69803806829185
Q9NR31-Q15797,96,57.60028610020611,76.05184073864909
Q9NRA1-P17948,175,57.899370595074906,66.7091513451397
Q9NTI2-Q3MIR4,25,60.34680561899514,77.7250363201241
Q9NV70-P61586,19,78.23653785113474,81.29470338720202
Q9NV88-Q10570,12,60.15648125615312,80.10560753681551
Q9NV88-Q9UKF6,165,82.9917280453279,85.03947019594113
Q9NZM6-Q9Y3M2,44,66.58268074185332,78.08666640308981
Q9NZQ7-P10747,105,86.85859293908145,78.90646199010482
Q9NZQ7-P16410,84,80.76881739671082,78.2828825038654
Q9NZQ7-Q9Y6W8,47,63.557806089674116,76.35844829576808
Q9P055-Q6PJ80,35,66.17310855952262,81.43194574933969
Q9P0N9-P49815,65,56.06993615788779,69.01298093207865
Q9P2H0-Q9UKY1,344,46.32673123135736,49.25068362228312
Q9QUL0-P01237,144,59.53182078425657,73.54600439522297
Q9QXX8-Q61584,71,60.722379134342944,58.44973192681803
Q9QXX8-Q9WVR4,75,46.049776456056,57.76494533724602
Q9QZJ6-Q9WVH9,128,65.9819511223118,72.23533646885106
Q9QZJ6-Q9WVJ9,44,64.62182595113714,73.68660434408635
Q9SRH5-Q9LHE5,9,79.43690591172422,76.21684562264004
Q9SYQ8-O80809,350,77.8031055781801,80.43075007304424
Q9SYV0-O24017,138,64.69737413822135,78.26729953793964
Q9U377-O45379,60,86.89244559812815,80.76739366325128
Q9U377-Q20758,25,82.49030992746118,80.16169761260188
Q9U377-Q9N3C8,66,83.0575147168531,79.66554253926218
Q9UBB5-Q9UJW3,65,61.07684732395691,68.80199702207632
Q9UBD5-Q9UBD5,1422,66.84412963324249,62.69760354279531
Q9UBF6-P68400,40,80.72264263322805,84.27126490261443
Q9UBP5-Q92575,83,58.297910622701025,65.24248633402402
Q9UBW7-Q9UKL0,186,47.325776443796144,58.47812416173789
Q9UDV6-Q9UH92,111,71.108903195232,58.977164485710496
Q9UDV6-Q9UHX1,50,67.88517780498825,60.746207462658106
Q9UH92-Q9UH92,246,88.68148247864868,66.42189887082743
Q9UH92-Q9UHX1,40,66.22802253336928,65.83764338654191
Q9UHR5-Q9UHR5,336,57.51549972800719,50.5658022354414
Q9UI95-Q9Y6D9,126,80.86113983706598,79.54146709566047
Q9UIL1-O45379,39,65.245749233928,73.82650197361173
Q9UIL1-Q20758,61,59.23126453195468,73.13291561203809
Q9UIL1-Q9N3C8,52,63.56104230431967,73.85852998651907
Q9UJW0-Q04656,245,53.37956894584999,72.50044044121854
Q9UK45-Q9UK45,29,82.66518395448709,84.8369904829513
Q9UKG1-P20338,42,61.22429573753738,77.96290966693552
Q9UKG1-P51149,10,65.18102561332489,77.491453370408
Q9UKG1-P62491,0,0,77.03278509218262
Q9UKY1-Q9UKY1,562,68.72230560907222,57.213811731909786
Q9ULX6-O43823,349,62.625701087761364,48.856885162081205
Q9ULX6-P13861,207,55.83519948300282,56.86164929052261
Q9UM73-P21246,137,45.46357125144603,51.81318161731538
Q9UPT6-P05067,251,49.79013628413862,59.034207189121716
Q9VEN9-Q9VTZ0,225,45.42944176420356,48.15437374036719
Q9VEN9-Q9VVI2,120,48.07027832873221,53.77731861088049
Q9VZ23-P20153,119,77.19355474885373,74.14427663511943
Q9VZ23-P34021,101,78.93504557881616,61.33300871958418
Q9WTW1-P31016,284,56.77457165206754,67.39753754898909
Q9WTW2-P23299,77,68.9443367467228,60.11701523628728
Q9WVB9-Q9Z136,181,49.939228750603206,56.31650570809888
Q9Y2D8-O60224,40,64.38524777947151,62.93234423520222
Q9Y2D8-Q16384,48,63.549266348664815,63.33218383234689
Q9Y2L1-Q9Y2L1,1891,77.79393715592042,74.14002956421969
Q9Y2L1-Q9Y3B2,47,73.62796347924767,82.64230735071946
Q9Y2Q0-Q3MIR4,445,81.98681904063821,79.6599451884903
Q9Y333-Q9Y333,31,85.97387558136714,90.49152810538645
Q9Y333-Q9Y4Y9,110,85.55994478651172,86.14350618341734
Q9Y333-Q9Y4Z0,33,83.44153382835675,78.75184545403084
Q9Y3B2-Q9Y3B2,30,65.42427371567108,72.28958706877238
Q9Y4K3-Q14653,66,63.71141484538218,77.18787674953688
Q9Y4Y9-Q9Y4Y9,112,94.78714682866192,90.3453403652462
Q9Y4Y9-Q9Y4Z0,106,92.64362185192394,81.02877716929086
Q9Y4Z0-Q9Y4Z0,58,91.3085060804258,71.2607981179789
Q9Y5Y5-Q9Y5Y5,70,62.946024220308715,77.12892117469657
Q9Y613-P15153,75,69.32149814533092,69.79559111407629
Q9Y613-P60763,80,60.29872965649437,70.02401176448654
Q9Y613-P60953,53,66.73071783070534,70.34619212825798
Q9Y613-P61586,110,77.31135860906873,69.17404740182593
Q9Y6X2-P42224,252,60.698138381942805,73.27822020724658
Q9YP87-P09225,153,81.74200918056417,77.22345946532272
Q9YP87-P23510,40,78.68661079970778,75.98206286858014
Q9YP87-P27548,27,54.92898624906992,78.61745217343288
Q9YP87-P29965,43,69.758903403722,76.83956164047247
Q9YP87-P32970,53,67.11572818254412,75.50886805037459
Q9YP87-P32971,134,81.59036575015713,75.85683125197966
Q9YP87-P32972,118,80.28756472641442,74.20308223845832
Q9YP87-P41047,71,75.39251273692688,75.14235585249116
Q9YP87-P41155,83,87.16150532240236,69.05238758531186
Q9YP87-P41273,59,77.70717648670286,73.90396469979987
Q9YP87-P41274,109,65.5628599073083,66.50831729219142
Q9YP87-P43488,50,68.31252218989565,73.78603774497093
Q9YP87-P48023,85,55.393978689871744,75.15457060453484
Q9YP87-P50591,111,81.65082119242852,73.48751812802497
Q9YP87-P50592,170,67.6571783830984,72.4559904604754
Q9YP87-Q06643,111,72.44883732354127,73.13702505110271
