A0JLT2 O75448
O00231 O00232
O00231 O00487
O00232 O00487
O00399 O75935
O15143 O15144
O43242 O00232
O43242 O00487
O75679 O75677
O75679 O75678
O75934 O43660
P60228 B5ME19
P60228 O00303
P60228 O15371
P60228 O15372
P60228 O75821
P60228 Q7L2H7
Q7L2H7 B5ME19
Q7L2H7 P60228
